3.16756716804728 109.160509853808 1.0011 03:05:22:010 1 3.16756716804728 : (2.290585773201, 1.22208356448546)
0.00861321150964444 0.00861321150964445 1001.0589 03:05:23:010 5777 0.00861321150964444 : (1.00940578198498, 1.02577868431144)
0.00524222737487718 0.00524222737487718 2001.1166 03:05:24:010 11618 0.00524222737487718 : (0.99242879589667, 1.01004083222246)
0.00374730293978402 0.00374730293978402 3001.176 03:05:25:010 17197 0.00374730293978402 : (1.00646270020235, 1.00039066327754)
0.00374730293978402 0.00374730293978402 4001.2346 03:05:26:010 22646 0.00374730293978402 : (1.00646270020235, 1.00039066327754)
0.00287078336218566 0.00287078336218566 5001.2928 03:05:27:010 28235 0.00287078336218566 : (1.00565574644397, 1.00039066327754)
0.000954484399565358 0.000954484399565358 6001.3518 03:05:28:010 34046 0.000954484399565358 : (0.996740018481735, 1.00039066327754)
0.000954484399559511 0.000954484399559511 7001.4095 03:05:29:010 39817 0.000954484399559511 : (0.996740018481745, 1.00039066327754)
0.000954484399553664 0.000954484399553665 8001.469 03:05:30:010 44968 0.000954484399553664 : (0.996740018481755, 1.00039066327754)
0.000954484399553554 0.000954484399553555 9001.5271 03:05:31:010 50159 0.000954484399553554 : (0.996740018481755, 1.00039066327754)
0.000181133816029215 0.000181133816029215 10001.5853 03:05:32:010 55331 0.000181133816029215 : (0.998580526094223, 1.00039066327754)
0.000181133816029022 0.000181133816029022 11001.6443 03:05:33:010 61134 0.000181133816029022 : (0.998580526094224, 1.00039066327754)
0.000181133816027244 0.000181133816027244 12001.7029 03:05:34:011 66950 0.000181133816027244 : (0.998580526094231, 1.00039066327754)
0.0001811338160271 0.0001811338160271 13001.761 03:05:35:011 72754 0.0001811338160271 : (0.998580526094232, 1.00039066327754)
0.000181133816026956 0.000181133816026956 14001.8192 03:05:36:011 78503 0.000181133816026956 : (0.998580526094232, 1.00039066327754)
0.00018113381602662 0.00018113381602662 15001.8778 03:05:37:011 84265 0.00018113381602662 : (0.998580526094234, 1.00039066327754)
0.000181133816026331 0.000181133816026331 16001.9359 03:05:38:011 90082 0.000181133816026331 : (0.998580526094235, 1.00039066327754)
9.70199767419609E-07 9.70199767419611E-07 17001.9954 03:05:39:011 95892 9.70199767419609E-07 : (0.999904596712396, 1.00039066327754)
9.70199767338859E-07 9.70199767338859E-07 18002.0535 03:05:40:011 101673 9.70199767338859E-07 : (0.999904596712401, 1.00039066327754)
9.70199767316243E-07 9.70199767316243E-07 19002.1121 03:05:41:011 107504 9.70199767316243E-07 : (0.999904596712402, 1.00039066327754)
9.70199767296886E-07 9.70199767296887E-07 20002.1703 03:05:42:011 113339 9.70199767296886E-07 : (0.999904596712403, 1.00039066327754)
9.70199767287197E-07 9.70199767287197E-07 21002.2289 03:05:43:011 119191 9.70199767287197E-07 : (0.999904596712404, 1.00039066327754)
9.70199767222588E-07 9.70199767222588E-07 22002.2875 03:05:44:011 125060 9.70199767222588E-07 : (0.999904596712407, 1.00039066327754)
9.70199767206404E-07 9.70199767206404E-07 23002.346 03:05:45:011 130882 9.70199767206404E-07 : (0.999904596712409, 1.00039066327754)
9.7019976701905E-07 9.7019976701905E-07 24002.4046 03:05:46:011 136745 9.7019976701905E-07 : (0.999904596712419, 1.00039066327754)
9.70199766880164E-07 9.70199766880163E-07 25002.4628 03:05:47:011 142603 9.70199766880164E-07 : (0.999904596712427, 1.00039066327754)
9.70199766876928E-07 9.70199766876928E-07 26002.5214 03:05:48:011 148470 9.70199766876928E-07 : (0.999904596712428, 1.00039066327754)
9.70199766870454E-07 9.70199766870453E-07 27002.58 03:05:49:011 154321 9.70199766870454E-07 : (0.999904596712428, 1.00039066327754)
9.70199766870454E-07 9.70199766870453E-07 28002.6385 03:05:50:011 160129 9.70199766870454E-07 : (0.999904596712428, 1.00039066327754)
9.70199766854312E-07 9.70199766854312E-07 29002.6971 03:05:51:012 165994 9.70199766854312E-07 : (0.999904596712429, 1.00039066327754)
9.70199766851075E-07 9.70199766851076E-07 30002.7557 03:05:52:012 171844 9.70199766851075E-07 : (0.999904596712429, 1.00039066327754)
9.70199766831697E-07 9.70199766831697E-07 31002.8143 03:05:53:012 177675 9.70199766831697E-07 : (0.99990459671243, 1.00039066327754)
9.70199766815555E-07 9.70199766815556E-07 32002.8729 03:05:54:012 183547 9.70199766815555E-07 : (0.999904596712431, 1.00039066327754)
2.39891131547894E-07 2.39891131547894E-07 33002.9311 03:05:55:012 189396 2.39891131547894E-07 : (0.999968830030397, 1.00039066327754)
2.39891131546836E-07 2.39891131546836E-07 34002.9892 03:05:56:012 195207 2.39891131546836E-07 : (0.999968830030397, 1.00039066327754)
2.3989113154262E-07 2.3989113154262E-07 35003.0482 03:05:57:012 201025 2.3989113154262E-07 : (0.999968830030398, 1.00039066327754)
2.39891131536282E-07 2.39891131536282E-07 36003.1064 03:05:58:012 206836 2.39891131536282E-07 : (0.999968830030399, 1.00039066327754)
2.39891131532059E-07 2.39891131532058E-07 37003.165 03:05:59:012 212675 2.39891131532059E-07 : (0.9999688300304, 1.00039066327754)
2.39891131525727E-07 2.39891131525727E-07 38003.2236 03:06:00:012 218545 2.39891131525727E-07 : (0.999968830030401, 1.00039066327754)
2.39891131499345E-07 2.39891131499344E-07 39003.2817 03:06:01:012 224431 2.39891131499345E-07 : (0.999968830030406, 1.00039066327754)
2.39891131498287E-07 2.39891131498287E-07 40003.3412 03:06:02:012 230225 2.39891131498287E-07 : (0.999968830030406, 1.00039066327754)
2.39891131489841E-07 2.39891131489841E-07 41003.3989 03:06:03:012 236066 2.39891131489841E-07 : (0.999968830030408, 1.00039066327754)
2.39891131484567E-07 2.39891131484567E-07 42003.4575 03:06:04:012 241951 2.39891131484567E-07 : (0.999968830030409, 1.00039066327754)
2.39891131478236E-07 2.39891131478236E-07 43003.5161 03:06:05:012 247703 2.39891131478236E-07 : (0.99996883003041, 1.00039066327754)
2.39891131452911E-07 2.39891131452911E-07 44003.5746 03:06:06:012 253554 2.39891131452911E-07 : (0.999968830030414, 1.00039066327754)
2.39891131451853E-07 2.39891131451853E-07 45003.6332 03:06:07:012 259400 2.39891131451853E-07 : (0.999968830030414, 1.00039066327754)
2.39891131442356E-07 2.39891131442356E-07 46003.6914 03:06:08:013 265273 2.39891131442356E-07 : (0.999968830030416, 1.00039066327754)
2.39891131436018E-07 2.39891131436018E-07 47003.75 03:06:09:013 271101 2.39891131436018E-07 : (0.999968830030417, 1.00039066327754)
2.39891131433903E-07 2.39891131433903E-07 48003.8094 03:06:10:013 276920 2.39891131433903E-07 : (0.999968830030418, 1.00039066327754)
2.39891131431802E-07 2.39891131431802E-07 49003.8671 03:06:11:013 282699 2.39891131431802E-07 : (0.999968830030418, 1.00039066327754)
2.39891131417024E-07 2.39891131417024E-07 50003.9262 03:06:12:013 288572 2.39891131417024E-07 : (0.999968830030421, 1.00039066327754)
2.39891131409635E-07 2.39891131409635E-07 51003.9843 03:06:13:013 294382 2.39891131409635E-07 : (0.999968830030422, 1.00039066327754)
2.39891131406463E-07 2.39891131406463E-07 52004.0425 03:06:14:013 300136 2.39891131406463E-07 : (0.999968830030423, 1.00039066327754)
2.39891131401189E-07 2.39891131401189E-07 53004.1015 03:06:15:013 305976 2.39891131401189E-07 : (0.999968830030423, 1.00039066327754)
2.39891131382195E-07 2.39891131382195E-07 54004.1597 03:06:16:013 311783 2.39891131382195E-07 : (0.999968830030427, 1.00039066327754)
2.3989113138008E-07 2.3989113138008E-07 55004.2178 03:06:17:013 317560 2.3989113138008E-07 : (0.999968830030427, 1.00039066327754)
2.39891131364245E-07 2.39891131364245E-07 56004.2768 03:06:18:013 323203 2.39891131364245E-07 : (0.99996883003043, 1.00039066327754)
2.39891131362143E-07 2.39891131362143E-07 57004.3354 03:06:19:013 328949 2.39891131362143E-07 : (0.99996883003043, 1.00039066327754)
2.39891131329416E-07 2.39891131329416E-07 58004.3936 03:06:20:013 334599 2.39891131329416E-07 : (0.999968830030436, 1.00039066327754)
2.39891131327314E-07 2.39891131327315E-07 59004.453 03:06:21:013 340308 2.39891131327314E-07 : (0.999968830030437, 1.00039066327754)
2.39891131324142E-07 2.39891131324142E-07 60004.5116 03:06:22:013 346103 2.39891131324142E-07 : (0.999968830030437, 1.00039066327754)
2.39891131305148E-07 2.39891131305148E-07 61004.5693 03:06:23:013 351887 2.39891131305148E-07 : (0.999968830030441, 1.00039066327754)
2.3989113130409E-07 2.3989113130409E-07 62004.6283 03:06:24:013 357698 2.3989113130409E-07 : (0.999968830030441, 1.00039066327754)
2.39891131299874E-07 2.39891131299874E-07 63004.6869 03:06:25:014 363480 2.39891131299874E-07 : (0.999968830030441, 1.00039066327754)
2.39891131296702E-07 2.39891131296701E-07 64004.7455 03:06:26:014 369148 2.39891131296702E-07 : (0.999968830030442, 1.00039066327754)
2.39891131291428E-07 2.39891131291428E-07 65004.8041 03:06:27:014 374823 2.39891131291428E-07 : (0.999968830030443, 1.00039066327754)
2.39891131289313E-07 2.39891131289313E-07 66004.8614 03:06:28:014 380661 2.39891131289313E-07 : (0.999968830030443, 1.00039066327754)
2.39891131269261E-07 2.39891131269261E-07 67004.9204 03:06:29:014 386501 2.39891131269261E-07 : (0.999968830030447, 1.00039066327754)
2.39891131265045E-07 2.39891131265045E-07 68004.9786 03:06:30:014 392124 2.39891131265045E-07 : (0.999968830030448, 1.00039066327754)
2.39891131256599E-07 2.39891131256599E-07 69005.0372 03:06:31:014 397846 2.39891131256599E-07 : (0.999968830030449, 1.00039066327754)
2.3989113124921E-07 2.3989113124921E-07 70005.1034 03:06:32:014 403724 2.3989113124921E-07 : (0.999968830030451, 1.00039066327754)
2.39891131248152E-07 2.39891131248153E-07 71005.1548 03:06:33:014 409501 2.39891131248152E-07 : (0.999968830030451, 1.00039066327754)
2.39891131243936E-07 2.39891131243936E-07 72005.2133 03:06:34:014 415292 2.39891131243936E-07 : (0.999968830030451, 1.00039066327754)
2.39891131241821E-07 2.39891131241821E-07 73005.2711 03:06:35:014 421086 2.39891131241821E-07 : (0.999968830030452, 1.00039066327754)
2.39891131183768E-07 2.39891131183768E-07 74005.3301 03:06:36:014 426911 2.39891131183768E-07 : (0.999968830030462, 1.00039066327754)
2.39891131158443E-07 2.39891131158443E-07 75005.3887 03:06:37:014 432778 2.39891131158443E-07 : (0.999968830030467, 1.00039066327754)
2.39891131148939E-07 2.39891131148939E-07 76005.4473 03:06:38:014 438625 2.39891131148939E-07 : (0.999968830030469, 1.00039066327754)
2.39891131137334E-07 2.39891131137334E-07 77005.5054 03:06:39:014 444440 2.39891131137334E-07 : (0.999968830030471, 1.00039066327754)
2.39891131137334E-07 2.39891131137334E-07 78005.5636 03:06:40:014 450262 2.39891131137334E-07 : (0.999968830030471, 1.00039066327754)
2.39891131095116E-07 2.39891131095116E-07 79005.6226 03:06:41:014 456124 2.39891131095116E-07 : (0.999968830030478, 1.00039066327754)
2.39891131094059E-07 2.39891131094059E-07 80005.6808 03:06:42:015 461985 2.39891131094059E-07 : (0.999968830030478, 1.00039066327754)
2.39891131091944E-07 2.39891131091943E-07 81005.7393 03:06:43:015 467835 2.39891131091944E-07 : (0.999968830030479, 1.00039066327754)
2.39891131089842E-07 2.39891131089842E-07 82005.7975 03:06:44:015 473610 2.39891131089842E-07 : (0.999968830030479, 1.00039066327754)
2.39891131087727E-07 2.39891131087727E-07 83005.8565 03:06:45:015 479263 2.39891131087727E-07 : (0.999968830030479, 1.00039066327754)
2.39891131071892E-07 2.39891131071892E-07 84005.9151 03:06:46:015 485039 2.39891131071892E-07 : (0.999968830030482, 1.00039066327754)
2.39891131025458E-07 2.39891131025458E-07 85005.9737 03:06:47:015 490845 2.39891131025458E-07 : (0.999968830030491, 1.00039066327754)
2.39891131012795E-07 2.39891131012795E-07 86006.0323 03:06:48:015 496677 2.39891131012795E-07 : (0.999968830030493, 1.00039066327754)
2.39891131012795E-07 2.39891131012795E-07 87006.0909 03:06:49:015 502551 2.39891131012795E-07 : (0.999968830030493, 1.00039066327754)
2.3989113101068E-07 2.3989113101068E-07 88006.1494 03:06:50:015 508415 2.3989113101068E-07 : (0.999968830030493, 1.00039066327754)
2.39891131003298E-07 2.39891131003298E-07 89006.2076 03:06:51:015 514219 2.39891131003298E-07 : (0.999968830030494, 1.00039066327754)
2.39891130989571E-07 2.39891130989571E-07 90006.2662 03:06:52:015 520050 2.39891130989571E-07 : (0.999968830030497, 1.00039066327754)
2.39891130984298E-07 2.39891130984298E-07 91006.3248 03:06:53:015 525868 2.39891130984298E-07 : (0.999968830030498, 1.00039066327754)
1.59490578072943E-07 1.59490578072943E-07 92006.3834 03:06:54:015 531634 1.59490578072943E-07 : (1.00000874651596, 1.00039066327754)
1.59490578072943E-07 1.59490578072943E-07 93006.4411 03:06:55:015 537473 1.59490578072943E-07 : (1.00000874651596, 1.00039066327754)
1.59490578072943E-07 1.59490578072943E-07 94006.5001 03:06:56:015 543264 1.59490578072943E-07 : (1.00000874651596, 1.00039066327754)
1.59490578072943E-07 1.59490578072943E-07 95006.5595 03:06:57:015 549108 1.59490578072943E-07 : (1.00000874651596, 1.00039066327754)
8.84170552260444E-08 8.84170552260444E-08 96006.6173 03:06:58:015 554863 8.84170552260444E-08 : (1.00000874651596, 0.999714439269023)
8.84170552254103E-08 8.84170552254103E-08 97006.6754 03:06:59:016 560694 8.84170552254103E-08 : (1.00000874651596, 0.999714439269024)
8.84170552250298E-08 8.84170552250299E-08 98006.734 03:07:00:016 566508 8.84170552250298E-08 : (1.00000874651596, 0.999714439269025)
8.84170552247762E-08 8.84170552247762E-08 181806.6382 03:08:23:815 571800 8.84170552247762E-08 : (1.00000874651596, 0.999714439269025)
8.84170552247762E-08 8.84170552247762E-08 201502.7893 03:08:43:512 571801 8.84170552247762E-08 : (1.00000874651596, 0.999714439269025)
8.84170552226838E-08 8.84170552226837E-08 202502.8487 03:08:44:512 577529 8.84170552226838E-08 : (1.00000874651596, 0.999714439269029)
8.84170552224935E-08 8.84170552224935E-08 203502.9065 03:08:45:512 583080 8.84170552224935E-08 : (1.00000874651596, 0.999714439269029)
8.84170552222399E-08 8.84170552222399E-08 204502.965 03:08:46:512 588770 8.84170552222399E-08 : (1.00000874651596, 0.99971443926903)
8.84170552222399E-08 8.84170552222399E-08 205503.0219 03:08:47:512 594509 8.84170552222399E-08 : (1.00000874651596, 0.99971443926903)
8.84170552219863E-08 8.84170552219863E-08 206503.0818 03:08:48:512 599919 8.84170552219863E-08 : (1.00000874651596, 0.99971443926903)
8.84170552199572E-08 8.84170552199572E-08 207503.1425 03:08:49:512 605589 8.84170552199572E-08 : (1.00000874651596, 0.999714439269034)
8.84170552199572E-08 8.84170552199572E-08 208503.199 03:08:50:512 611245 8.84170552199572E-08 : (1.00000874651596, 0.999714439269034)
8.84170552199572E-08 8.84170552199572E-08 209503.2571 03:08:51:512 617004 8.84170552199572E-08 : (1.00000874651596, 0.999714439269034)
8.84170552199572E-08 8.84170552199572E-08 210503.3157 03:08:52:512 622714 8.84170552199572E-08 : (1.00000874651596, 0.999714439269034)
