-3177.33677625672 570.127389721671 46.8881 06:27:33:881 1 -3177.33677625672 : (-191.168360083908, -346.97111455862, -217.005713325462, -231.92720924687, -214.286260943062, -3.40542960325507, -427.365310629534, -441.876655069122, -339.180725017181, -431.869889698862, -350.554558201951, -30.6663196229684, 240.525214068836, 302.5428484895, -147.921273538806, -127.652065574961, -222.106964453173, 36.180695789019, -259.391466023117, 17.1971938690158, -83.2289026171104, 331.842807209046, 420.017796473586, 436.022410834219, -226.686570034682, -117.416907603581, -148.773793528217, 460.318690752759, -55.9775202534988, -52.6684248692675, -178.262026154558, 135.904061619148, 263.954999331364, 54.1461780323397, -112.044995121679, -330.25046244741, 472.389799099597, 424.32683034629, 305.627113246185, -39.0652849856137, 326.033997449108, 37.5696175273366, -452.688911887207, -505.473690983594, 492.778888693442, 317.131499199724, -24.0609538667188, 51.7970507386127, 509.577561854188, 461.55186984574, -418.778312162859, 156.852637602413, 15.7435085846779, 489.808988083996, -64.7597477737627, -11.011167292954, -254.988911032206, -141.028124159681, 506.759360787812, 415.130646660519, -366.631636075038, -375.684001382293, 126.100865184376, 225.487699852087, 258.392136455696, 25.541380178901, 217.378681045668, -325.620963963503, -97.4121563888211, -329.670811091396, -88.0418646745579, -134.433794799463, 242.553582542834, 291.673818962497, 203.163196419907, 391.201479855553, 272.531719096253, 413.49148745718, 455.243522140776, -31.8180692344057)
-31233.1416929308 -4256.18205856574 2703.1303 06:27:36:537 3 -31233.1416929308 : (-280.215225649171, -452.675619997578, -474.79262864923, -214.911242040273, -512, -4.08430852320935, 157.152310353582, 323.291347641904, -488.390907985153, 16.6976198679781, 13.7979956572034, -179.880509708901, -477.552706440052, 396.899533726416, -365.051220386863, 351.042533391941, 504.984303756205, 499.446832465242, -276.137687138525, 280.987615405437, -483.555555555556, 367.539273370292, 512, 400.960520634269, -368.178269045031, -436.229248383185, -460.988811159928, 17.044241259675, -346.533338066865, 512, -205.788301292134, -512, 9.64760119192568, 326.679447667449, 489.581354951904, 439.767186801402, -391.112211880404, 97.6732191677038, -225.545315934687, 512, -276.891621642977, 508.426323705391, 400.168225971607, 152.091992607577, 512, 404.95925070945, -375.42255530828, -401.298131790879, 512, 512, 399.504858317288, 287.578084958841, -493.102863965379, 11.8678670822324, 380.121964360714, 512, -279.214590643258, 501.485118837532, -272.007355985649, 472.802543800579, -296.867022414164, 335.368161119226, 141.242799586264, 482.925814615062, -252.440560696852, 428.800194701553, -443.037432161643, -11.8680751378965, 306.680121326204, 142.541740722275, -31.1625583316957, 162.878996209651, -249.862461444858, -74.1466024267239, 227.753565179069, 230.201424944308, -290.78904570769, 98.7288315755915, -483.823938833468, -379.66602510012)
-31921.8424060337 -31295.3728130974 3875.0096 06:27:37:709 8 -31921.8424060337 : (-280.215225649171, -452.675619997578, -474.79262864923, -214.911242040273, -512, -4.08430852320935, 157.152310353582, 323.291347641904, -488.390907985153, 16.6976198679781, 13.7979956572034, -179.880509708901, -477.552706440052, 396.899533726416, -365.051220386863, 351.042533391941, 504.984303756205, 499.446832465242, -276.137687138525, 280.987615405437, -483.555555555556, 367.539273370292, 512, 400.960520634269, -368.178269045031, -436.229248383185, -460.988811159928, 17.044241259675, -346.533338066865, 512, -205.788301292134, -512, 9.64760119192568, 326.679447667449, 489.581354951904, 439.767186801402, -391.112211880404, 97.6732191677038, -225.545315934687, 512, -276.891621642977, 508.426323705391, 400.168225971607, 152.091992607577, 512, 404.95925070945, -375.42255530828, -401.298131790879, 512, 512, 399.504858317288, 287.578084958841, -493.102863965379, 11.8678670822324, 380.121964360714, 512, -279.214590643258, 501.485118837532, -272.007355985649, 472.802543800579, -296.867022414164, 335.368161119226, 141.242799586264, 482.925814615062, -252.440560696852, 428.800194701553, -443.037432161643, 359.977256227274, 306.680121326204, 142.541740722275, -31.1625583316957, 162.878996209651, -249.862461444858, -74.1466024267239, 227.753565179069, 230.201424944308, -290.78904570769, 98.7288315755915, -483.823938833468, -379.66602510012)
-33753.1928928875 -32782.1908136557 4937.5099 06:27:38:771 13 -33753.1928928875 : (-287.885351434838, 282.814645054423, -477.521401879883, -200.83729932055, -512, 3.57491303361824, 157.152310353582, 323.291347641904, -488.390907985153, 16.6976198679781, 13.7979956572034, -179.880509708901, -477.552706440052, 396.899533726416, -365.051220386863, 351.042533391941, 504.984303756205, 499.446832465242, -276.137687138525, 280.987615405437, -483.555555555556, 367.539273370292, 512, 400.960520634269, -368.178269045031, -436.229248383185, -460.988811159928, 17.044241259675, -346.533338066865, 512, -205.788301292134, -512, 9.64760119192568, 326.679447667449, 489.581354951904, 439.767186801402, -391.112211880404, 97.6732191677038, -225.545315934687, 512, -276.891621642977, 508.426323705391, 400.168225971607, 152.091992607577, 512, 404.95925070945, -375.42255530828, -401.298131790879, 512, 512, 399.504858317288, 287.578084958841, -493.102863965379, 11.8678670822324, 380.121964360714, 512, -279.214590643258, 501.485118837532, -272.007355985649, 472.802543800579, -296.867022414164, 335.368161119226, 141.242799586264, 482.925814615062, -252.440560696852, -496.198721878323, -443.037432161643, -11.8680751378965, 306.680121326204, 142.541740722275, -31.1625583316957, 162.878996209651, -249.862461444858, -74.1466024267239, 227.753565179069, 230.201424944308, -290.78904570769, -319.282997041607, -483.823938833468, -379.66602510012)
-35304.8117920778 -34663.1460594162 6000.026 06:27:39:834 22 -35304.8117920778 : (-512, 282.814645054423, -477.521401879883, -200.83729932055, -512, 3.57491303361824, 157.152310353582, 323.291347641904, -488.390907985153, 16.6976198679781, 13.7979956572034, -179.880509708901, -477.552706440052, 396.899533726416, -365.051220386863, 351.042533391941, 504.984303756205, 499.446832465242, -276.137687138525, 280.987615405437, -483.555555555556, 367.539273370292, 512, 400.960520634268, -368.178269045031, -436.229248383185, -460.988811159928, 17.044241259675, -346.533338066865, 512, -205.788301292134, -512, 9.64760119192568, 326.679447667449, 489.581354951904, 439.767186801402, -391.112211880404, 97.6732191677038, -225.545315934687, 512, -276.891621642977, 508.426323705391, 400.168225971607, 152.091992607577, 512, 404.95925070945, -375.42255530828, -401.298131790879, 512, 512, 399.504858317288, 287.578084958841, -493.102863965379, 11.8678670822324, 380.121964360714, 512, -279.214590643258, 501.485118837531, -272.007355985649, 472.802543800579, -296.867022414164, 335.368161119227, 141.242799586264, 482.925814615062, -252.440560696852, -496.198721878323, -443.037432161643, 131.118209661505, 306.680121326204, -324.866694840075, -31.1625583316957, 162.878996209651, -249.862461444858, -74.1466024267239, 227.753565179069, 230.201424944308, -290.78904570769, -319.282997041607, -483.823938833468, -379.66602510012)
-35607.1010614355 -35340.968871217 7062.531 06:27:40:896 31 -35607.1010614355 : (-287.885351434838, 282.814645054423, -477.521401879883, -200.83729932055, -512, 3.57491303361824, 157.152310353582, 323.291347641904, -488.390907985153, 16.6976198679781, 13.7979956572034, -179.880509708901, -477.552706440052, 396.899533726416, -365.051220386863, 351.042533391941, 504.984303756205, 499.446832465242, -276.137687138525, 280.987615405437, -483.555555555556, 367.539273370292, 512, 400.960520634268, -368.178269045031, -436.229248383185, -460.988811159928, 17.044241259675, -346.533338066865, 512, -205.788301292134, -512, 9.64760119192568, 326.679447667449, 489.581354951904, 439.767186801402, -391.112211880404, 97.6732191677037, -225.545315934687, 512, -276.891621642977, 508.42632370539, 400.168225971607, 152.091992607577, 512, 404.95925070945, -375.42255530828, -401.298131790879, 512, 512, 399.504858317288, 287.578084958841, -493.102863965379, 11.8678670822324, 380.121964360714, 512, -279.214590643258, 501.485118837531, -272.007355985649, 472.802543800579, -296.867022414164, 335.368161119226, 141.242799586264, 482.925814615062, -252.440560696852, -496.198721878323, -443.037432161643, 131.118209661505, 306.680121326204, -324.866694840075, -31.1625583316957, 162.878996209651, -249.862461444858, 232.483775485532, 227.753565179069, 230.201424944308, -290.78904570769, -319.282997041607, -483.823938833468, -379.66602510012)
-36091.1697004216 -35692.748058067 8113.7336 06:27:41:948 40 -36091.1697004216 : (-512, 282.814645054423, -477.521401879883, -200.83729932055, -512, 3.57491303361824, 157.152310353582, 323.291347641904, -488.390907985153, 16.6976198679781, 13.7979956572034, -179.880509708901, -477.552706440052, 396.899533726416, -365.051220386863, 351.042533391941, 504.984303756205, 499.446832465242, -276.137687138525, 280.987615405437, -483.555555555556, 367.539273370292, 512, 400.960520634268, -368.178269045031, -436.229248383185, -460.988811159928, 17.044241259675, -346.533338066865, 512, -205.788301292134, -512, 9.64760119192568, 326.679447667449, 489.581354951904, 439.767186801402, -391.112211880404, 97.6732191677037, -225.545315934687, 512, -276.891621642977, 508.42632370539, 400.168225971607, 152.091992607577, 512, 404.95925070945, -375.42255530828, -401.298131790879, 512, 512, 399.504858317288, 287.578084958841, -493.102863965379, 11.8678670822324, 380.121964360714, 512, -279.214590643258, 501.485118837531, -272.007355985649, 472.802543800579, -296.867022414164, 335.368161119226, 436.22325416851, 482.925814615062, -252.440560696852, -496.198721878323, -443.037432161643, 131.118209661505, 306.680121326204, 78.6343033679921, -31.1625583316957, 162.878996209651, -249.862461444858, -74.1466024267239, 227.753565179069, 230.201424944308, -290.78904570769, -319.282997041607, -483.823938833468, -379.66602510012)
-36924.8967302557 -36619.7668146081 9261.3408 06:27:43:095 49 -36924.8967302557 : (-512, 282.814645054423, -477.521401879883, -200.83729932055, -512, 3.57491303361824, 157.152310353582, 323.291347641904, -488.390907985153, 16.6976198679781, 13.7979956572034, -179.880509708901, -477.552706440052, 396.899533726416, -365.051220386863, 351.042533391941, 504.984303756205, 499.446832465242, -276.137687138525, 280.987615405437, -483.555555555555, 367.539273370292, 512, 400.960520634268, -368.178269045031, -436.229248383185, -460.988811159928, 17.044241259675, -346.533338066865, 512, -205.788301292134, -512, 9.64760119192568, 326.679447667449, 489.581354951904, 439.767186801402, -391.112211880404, 97.6732191677038, -225.545315934687, 512, -276.891621642977, 508.426323705391, 400.168225971607, 152.091992607577, 512, 404.95925070945, -375.42255530828, -401.298131790879, 512, 512, 399.504858317288, 287.578084958841, -493.102863965379, 11.8678670822324, 380.121964360714, 512, -279.214590643258, 501.485118837531, -272.007355985649, 472.802543800579, -296.867022414164, -485.40150212003, 141.242799586264, 482.925814615062, -252.440560696852, -496.198721878323, -443.037432161643, 131.118209661505, 306.680121326204, 474.708239537994, -31.1625583316957, 162.878996209651, -249.862461444858, 206.238211012556, 227.753565179069, 230.201424944308, -290.78904570769, -319.282997041607, -483.823938833468, -379.66602510012)
-36964.4325181313 -36964.4325181313 10339.4545 06:27:44:173 58 -36964.4325181313 : (-512, 282.814645054423, -477.521401879883, -200.83729932055, -512, 3.57491303361824, 157.152310353582, 323.291347641904, -488.390907985153, 16.6976198679781, 13.7979956572034, -179.880509708901, -477.552706440052, 396.899533726416, -365.051220386863, 351.042533391941, 504.984303756205, 499.446832465242, -276.137687138525, 280.987615405437, -483.555555555555, 367.539273370292, 512, 400.960520634268, -368.178269045031, -436.229248383185, -460.988811159928, 17.044241259675, -346.533338066865, 512, -205.788301292134, -512, 9.64760119192568, 326.679447667449, 489.581354951904, 439.767186801402, -391.112211880404, 97.6732191677038, -225.545315934687, 512, -276.891621642977, 508.426323705391, 400.168225971607, 152.091992607577, 512, 404.95925070945, -375.42255530828, -401.298131790879, 512, 512, 399.504858317288, 287.578084958841, -493.102863965379, 11.8678670822324, 380.121964360714, 512, -279.214590643258, 501.485118837531, -272.007355985649, 472.802543800579, -296.867022414164, -485.40150212003, 141.242799586264, 482.925814615062, -252.440560696852, -496.198721878323, -443.037432161643, 131.118209661505, 306.680121326204, 474.708239537994, -282.587655437453, 162.878996209651, -249.862461444858, 206.238211012556, 227.753565179069, 230.201424944308, -290.78904570769, -319.282997041607, -483.823938833468, -379.66602510012)
-38333.2221779268 -37802.0544944087 11414.2339 06:27:45:248 67 -38333.2221779268 : (-512, 282.814645054423, -477.521401879883, -200.83729932055, -512, 3.57491303361824, 157.152310353582, 323.291347641904, -488.390907985153, 16.6976198679781, 13.7979956572034, -179.880509708901, -477.552706440052, 396.899533726416, -365.051220386863, 351.042533391941, 504.984303756205, 499.446832465242, -276.137687138525, 280.987615405437, -483.555555555555, 367.539273370292, 512, 400.960520634268, -368.178269045031, -436.229248383185, -460.988811159928, 386.558897913694, -346.533338066865, 512, -205.788301292134, -512, 9.64760119192568, 326.679447667449, 489.581354951904, 439.767186801402, -391.112211880404, 97.6732191677038, -225.545315934687, 512, -276.891621642977, 508.426323705391, 400.168225971607, 152.091992607577, 512, 404.95925070945, -375.42255530828, -401.298131790879, 512, 512, 399.504858317288, 287.578084958841, -493.102863965379, 11.8678670822324, 380.121964360714, 512, -279.214590643258, 501.485118837531, -272.007355985649, 472.802543800579, -296.867022414164, -485.40150212003, -340.077075878194, 482.925814615062, -252.440560696852, -496.198721878323, -443.037432161643, 131.118209661505, 306.680121326204, 474.708239537994, -282.587655437453, 162.878996209651, -249.862461444858, 206.238211012556, 227.753565179069, 230.201424944308, -290.78904570769, -319.282997041607, -483.823938833468, -379.66602510012)
-38333.2221779268 -38325.1754672779 12481.862 06:27:46:316 76 -38333.2221779268 : (-512, 282.814645054423, -477.521401879883, -200.83729932055, -512, 3.57491303361824, 157.152310353582, 323.291347641904, -488.390907985153, 16.6976198679781, 13.7979956572034, -179.880509708901, -477.552706440052, 396.899533726416, -365.051220386863, 351.042533391941, 504.984303756205, 499.446832465242, -276.137687138525, 280.987615405437, -483.555555555555, 367.539273370292, 512, 400.960520634268, -368.178269045031, -436.229248383185, -460.988811159928, 386.558897913694, -346.533338066865, 512, -205.788301292134, -512, 9.64760119192568, 326.679447667449, 489.581354951904, 439.767186801402, -391.112211880404, 97.6732191677038, -225.545315934687, 512, -276.891621642977, 508.426323705391, 400.168225971607, 152.091992607577, 512, 404.95925070945, -375.42255530828, -401.298131790879, 512, 512, 399.504858317288, 287.578084958841, -493.102863965379, 11.8678670822324, 380.121964360714, 512, -279.214590643258, 501.485118837531, -272.007355985649, 472.802543800579, -296.867022414164, -485.40150212003, -340.077075878194, 482.925814615062, -252.440560696852, -496.198721878323, -443.037432161643, 131.118209661505, 306.680121326204, 474.708239537994, -282.587655437453, 162.878996209651, -249.862461444858, 206.238211012556, 227.753565179069, 230.201424944308, -290.78904570769, -319.282997041607, -483.823938833468, -379.66602510012)
-38573.3275377831 -38406.4772766862 13560.0044 06:27:47:394 85 -38573.3275377831 : (-512, 282.814645054423, -477.521401879883, -200.83729932055, -512, 3.57491303361824, 157.152310353582, 323.291347641904, -488.390907985153, 16.6976198679781, 13.7979956572034, -179.880509708901, -477.552706440052, 396.899533726416, -365.051220386863, 351.042533391941, 504.984303756205, 499.446832465242, -276.137687138525, 280.987615405437, -483.555555555555, 367.539273370292, 512, 400.960520634268, -368.178269045031, -436.229248383185, -460.988811159928, 386.558897913694, -346.533338066865, 512, -205.788301292134, -512, 9.64760119192568, 326.679447667449, 489.581354951904, 439.767186801402, -391.112211880404, 97.6732191677038, -225.545315934687, 512, -276.891621642977, 508.426323705391, 400.168225971607, 152.091992607577, 512, 404.95925070945, -375.42255530828, -401.298131790879, 512, 512, 399.504858317288, 287.578084958841, -493.102863965379, 11.8678670822324, 380.121964360714, 512, -279.214590643258, 501.485118837531, -272.007355985649, 472.802543800579, -296.867022414164, -485.40150212003, -340.077075878194, 482.925814615062, -252.440560696852, -496.198721878323, -443.037432161643, 131.118209661505, 306.680121326204, 474.708239537994, -282.587655437453, 166.442797976752, -249.862461444858, 206.238211012556, 227.753565179069, 230.201424944308, -290.78904570769, -319.282997041607, -467.702517488833, -379.66602510012)
-39130.9204181451 -38768.7917427692 14622.077 06:27:48:456 94 -39130.9204181451 : (-512, 282.814645054423, -477.521401879883, -200.83729932055, -512, 3.57491303361824, 157.152310353582, 323.291347641904, -488.390907985153, 16.6976198679781, 13.7979956572034, -179.880509708901, -477.552706440052, 396.899533726416, -365.051220386863, 351.042533391941, -336.28617755337, 499.446832465242, -276.137687138525, 280.987615405437, -483.555555555555, 367.539273370292, 512, 400.960520634268, -368.178269045031, -436.229248383185, -460.988811159928, 386.558897913694, -346.533338066865, 512, -205.788301292134, -512, 9.64760119192568, 326.679447667449, 489.581354951904, 439.767186801402, -391.112211880404, 97.6732191677038, -225.545315934687, 512, -276.891621642977, 508.426323705391, 400.168225971607, 170.08020575814, 512, 404.95925070945, -375.42255530828, -401.298131790879, 512, 512, 399.504858317288, 287.578084958841, -493.102863965379, 11.8678670822324, 380.121964360714, 512, -279.214590643258, 501.485118837531, 452.401915999317, 472.802543800579, -296.867022414164, -485.40150212003, -340.077075878194, 482.925814615062, -252.440560696852, -496.198721878323, -443.037432161643, 131.118209661505, 306.680121326204, 474.708239537994, -282.587655437453, 166.442797976752, -249.862461444858, 206.238211012556, 227.753565179069, 230.201424944308, -290.78904570769, -319.282997041607, -483.823938833468, -379.66602510012)
-39588.2763733416 -39211.5364354204 15690.5535 06:27:49:524 103 -39588.2763733416 : (-512, 282.814645054423, -477.521401879883, -200.83729932055, -512, 3.57491303361824, 157.152310353582, 323.291347641904, -488.390907985153, 16.6976198679781, 13.7979956572034, -179.880509708901, -477.552706440052, 396.899533726416, -365.051220386863, 351.042533391941, 504.984303756205, 499.446832465242, -276.137687138525, 280.987615405437, -483.555555555555, 367.539273370292, 512, 400.960520634268, -368.178269045031, -436.229248383185, -460.988811159928, 386.558897913694, -346.533338066865, 512, -205.788301292134, -512, 9.64760119192568, 326.679447667449, 489.581354951904, 439.767186801402, -391.112211880404, 97.6732191677038, -225.545315934687, 512, -276.891621642977, 508.426323705391, 400.168225971607, 170.08020575814, 512, 404.95925070945, -375.42255530828, -401.298131790879, -315.805657772257, 512, 399.504858317288, 287.578084958841, -493.102863965379, 11.8678670822324, 380.121964360714, 512, -279.214590643258, 501.485118837532, -272.007355985649, 472.802543800579, -296.867022414164, -485.40150212003, -340.077075878194, 482.925814615062, -252.440560696852, -496.198721878323, -443.037432161643, 131.118209661505, 306.680121326204, 474.708239537994, -282.587655437453, 487.933625686883, -249.862461444858, 206.238211012556, 227.753565179069, 230.201424944308, -290.78904570769, -319.282997041607, -483.823938833468, -379.66602510012)
-39766.7744578384 -39597.2012775664 16760.5306 06:27:50:594 112 -39766.7744578384 : (-512, 282.814645054423, -477.521401879883, -200.83729932055, -512, 3.57491303361824, 157.152310353582, 323.291347641904, -488.390907985153, 16.6976198679781, 13.7979956572034, -179.880509708901, -477.552706440052, 396.899533726416, -365.051220386863, 351.042533391941, 504.984303756205, 499.446832465242, -276.137687138525, 280.987615405437, -483.555555555555, 367.539273370292, 512, 400.960520634268, -368.178269045031, -436.229248383185, -460.988811159928, 386.558897913694, -346.533338066865, 512, -205.788301292134, -512, 9.64760119192568, 326.679447667449, 489.581354951904, 439.767186801402, -391.112211880404, 97.6732191677038, -225.545315934687, 512, -276.891621642977, 508.426323705391, 400.168225971607, 170.08020575814, 512, 404.95925070945, -375.42255530828, -401.298131790879, 352.397345468587, 512, 399.504858317288, 287.578084958841, -493.102863965379, 11.8678670822324, 380.121964360714, 512, -279.214590643258, 501.485118837531, -272.007355985649, 472.802543800579, -296.867022414164, -485.40150212003, -340.077075878194, 482.925814615062, -252.440560696852, -496.198721878323, -443.037432161643, 131.118209661505, 306.680121326204, 474.708239537994, -282.587655437453, 487.933625686883, -249.862461444858, 206.238211012556, 227.753565179069, 230.201424944308, -290.78904570769, -319.282997041607, -483.823938833468, -379.66602510012)
-39766.7744578384 -39766.7744578384 54731.0259 06:28:28:565 115 -39766.7744578384 : (-512, 282.814645054423, -477.521401879883, -200.83729932055, -512, 3.57491303361824, 157.152310353582, 323.291347641904, -488.390907985153, 16.6976198679781, 13.7979956572034, -179.880509708901, -477.552706440052, 396.899533726416, -365.051220386863, 351.042533391941, 504.984303756205, 499.446832465242, -276.137687138525, 280.987615405437, -483.555555555555, 367.539273370292, 512, 400.960520634268, -368.178269045031, -436.229248383185, -460.988811159928, 386.558897913694, -346.533338066865, 512, -205.788301292134, -512, 9.64760119192568, 326.679447667449, 489.581354951904, 439.767186801402, -391.112211880404, 97.6732191677038, -225.545315934687, 512, -276.891621642977, 508.426323705391, 400.168225971607, 170.08020575814, 512, 404.95925070945, -375.42255530828, -401.298131790879, 352.397345468587, 512, 399.504858317288, 287.578084958841, -493.102863965379, 11.8678670822324, 380.121964360714, 512, -279.214590643258, 501.485118837531, -272.007355985649, 472.802543800579, -296.867022414164, -485.40150212003, -340.077075878194, 482.925814615062, -252.440560696852, -496.198721878323, -443.037432161643, 131.118209661505, 306.680121326204, 474.708239537994, -282.587655437453, 487.933625686883, -249.862461444858, 206.238211012556, 227.753565179069, 230.201424944308, -290.78904570769, -319.282997041607, -483.823938833468, -379.66602510012)
-40362.7904667794 -40106.2266033511 55797.6678 06:28:29:632 124 -40362.7904667794 : (-512, 282.814645054423, -477.521401879883, -200.83729932055, -512, 3.57491303361824, 157.152310353582, 323.291347641904, -488.390907985153, 16.6976198679781, 13.7979956572034, -179.880509708901, -477.552706440052, 396.899533726416, -365.051220386863, 351.042533391941, 504.984303756205, 499.446832465242, -276.137687138525, 280.987615405437, -483.555555555555, 367.539273370292, 512, 400.960520634268, -368.178269045031, -436.229248383186, -460.988811159928, 386.558897913694, -346.533338066865, 512, -205.788301292134, -512, 9.64760119192568, 326.679447667449, 489.581354951904, 439.767186801402, -391.112211880404, 97.6732191677038, -225.545315934687, 512, -276.891621642977, 508.426323705391, 400.168225971607, 170.08020575814, 512, 404.95925070945, -375.42255530828, -401.298131790879, 352.397345468587, 512, 399.504858317288, 287.578084958841, -493.102863965379, 11.8678670822324, 380.121964360714, 512, -279.214590643258, 501.485118837531, -272.007355985649, 472.802543800579, -296.867022414164, -485.40150212003, -340.077075878194, 482.925814615062, -252.440560696852, -414.893634750924, -443.037432161643, 131.118209661505, 306.680121326204, 474.708239537994, -282.587655437453, 487.933625686883, -249.862461444858, 206.238211012556, 227.753565179069, 230.201424944308, -290.78904570769, -319.282997041607, -483.823938833468, -379.66602510012)
-40780.0229671615 -40498.9235597436 56860.5431 06:28:30:694 133 -40780.0229671615 : (-512, 282.814645054423, -477.521401879883, -200.83729932055, -512, 3.57491303361824, 157.152310353582, 323.291347641904, -488.390907985153, 16.6976198679781, 13.7979956572034, -179.880509708901, -477.552706440052, 396.899533726416, -365.051220386863, 351.042533391941, 504.984303756205, 499.446832465242, -276.137687138525, 280.987615405437, -483.555555555555, 367.539273370292, 512, 400.960520634268, -368.178269045031, -436.229248383185, -460.988811159928, 386.558897913694, -346.533338066865, 512, -205.788301292134, -512, 9.64760119192568, 326.679447667449, 489.581354951904, 439.767186801402, -391.112211880404, 97.6732191677038, -225.545315934687, 512, -276.891621642977, 508.426323705391, 400.168225971607, 170.08020575814, 512, 404.95925070945, -375.42255530828, -401.298131790879, 352.397345468587, 512, 399.504858317288, 287.578084958841, -493.102863965379, 11.8678670822324, 380.121964360714, 512, -279.214590643258, 501.485118837531, -272.007355985649, 472.802543800579, -296.867022414164, -485.40150212003, -269.117649918943, 482.925814615062, -252.440560696852, -414.893634750924, -443.037432161643, 131.118209661505, 306.680121326204, 474.708239537994, -282.587655437453, 487.933625686883, -249.862461444858, 206.238211012556, 227.753565179069, 230.201424944308, -290.78904570769, -319.282997041607, -483.823938833468, -379.66602510012)
-40780.0229671615 -40780.0229671615 57876.1561 06:28:31:710 141 -40780.0229671615 : (-512, 282.814645054423, -477.521401879883, -200.83729932055, -512, 3.57491303361824, 157.152310353582, 323.291347641904, -488.390907985153, 16.6976198679781, 13.7979956572034, -179.880509708901, -477.552706440052, 396.899533726416, -365.051220386863, 351.042533391941, 504.984303756205, 499.446832465242, -276.137687138525, 280.987615405437, -483.555555555555, 367.539273370292, 512, 400.960520634268, -368.178269045031, -436.229248383185, -460.988811159928, 386.558897913694, -346.533338066865, 512, -205.788301292134, -512, 9.64760119192568, 326.679447667449, 489.581354951904, 439.767186801402, -391.112211880404, 97.6732191677038, -225.545315934687, 512, -276.891621642977, 508.426323705391, 400.168225971607, 170.08020575814, 512, 404.95925070945, -375.42255530828, -401.298131790879, 352.397345468587, 512, 399.504858317288, 287.578084958841, -493.102863965379, 11.8678670822324, 380.121964360714, 512, -279.214590643258, 501.485118837531, -272.007355985649, 472.802543800579, -296.867022414164, -485.40150212003, -269.117649918943, 482.925814615062, -252.440560696852, -414.893634750924, -443.037432161643, 131.118209661505, 306.680121326204, 474.708239537994, -282.587655437453, 487.933625686883, -249.862461444858, 206.238211012556, 227.753565179069, 230.201424944308, -290.78904570769, -319.282997041607, -483.823938833468, -379.66602510012)
-41199.0750496844 -40813.4471648357 58937.238 06:28:32:771 150 -41199.0750496844 : (-512, 282.814645054423, -477.521401879883, -200.83729932055, -512, 3.57491303361824, 157.152310353582, 323.291347641904, -488.390907985153, 16.6976198679781, 13.7979956572034, -179.880509708901, -477.552706440052, 396.899533726416, -365.051220386863, 351.042533391941, 504.984303756205, 499.446832465242, -276.137687138525, 280.987615405437, -483.555555555555, 367.539273370292, 512, 400.960520634268, -368.178269045031, -436.229248383185, -460.988811159928, 386.558897913694, -346.533338066865, 512, -205.788301292134, -512, 9.64760119192568, 326.679447667449, 489.581354951904, 439.767186801402, -391.112211880403, 97.6732191677038, -225.545315934687, 512, -276.891621642976, 508.426323705391, 400.168225971607, 170.08020575814, 512, 404.95925070945, -375.42255530828, -401.298131790879, 352.397345468587, 512, 399.504858317288, 287.578084958841, -493.102863965379, 11.8678670822324, 380.121964360714, 512, -279.214590643258, 504.184971805748, -272.007355985649, 472.802543800579, -296.867022414164, -485.40150212003, -269.117649918943, 482.925814615062, -252.440560696852, -414.893634750924, -443.037432161643, 131.118209661505, 306.680121326204, 474.708239537994, -282.587655437453, 487.933625686883, -249.862461444858, 206.238211012556, 227.753565179069, 230.201424944308, -290.78904570769, -319.282997041607, -483.823938833468, 393.510764543671)
-41247.4725371709 -41207.7328891832 60030.9903 06:28:33:865 159 -41247.4725371709 : (-512, 282.814645054423, -477.521401879883, -200.83729932055, -512, 3.57491303361824, 157.152310353582, 323.291347641904, -488.390907985153, 16.6976198679781, 13.7979956572034, -179.880509708901, -477.552706440052, 396.899533726416, -365.051220386863, 351.042533391941, 504.984303756205, 499.446832465242, -276.137687138525, 280.987615405437, -483.555555555555, 367.539273370292, 512, 400.960520634268, -368.178269045031, -436.229248383185, -460.988811159928, 386.558897913694, -346.533338066865, 512, -205.788301292134, -512, 9.64760119192568, 326.679447667449, 489.581354951904, 439.767186801402, -391.112211880403, 97.6732191677038, -225.545315934687, 512, -276.891621642976, 508.426323705391, 400.168225971607, 170.08020575814, 512, 404.95925070945, -375.42255530828, -401.298131790879, 352.397345468587, 512, 399.504858317288, 287.578084958841, -493.102863965379, 11.8678670822324, 380.121964360714, 512, -279.214590643258, 504.184971805748, -272.007355985649, 472.802543800579, -296.867022414164, -485.40150212003, -269.117649918943, 482.925814615062, -252.440560696852, -414.893634750924, -443.037432161643, 82.9612882523617, 306.680121326205, 474.708239537994, -282.587655437453, 487.933625686883, -249.862461444858, 206.238211012556, 227.753565179069, 230.201424944308, -290.78904570769, -319.282997041607, -483.823938833468, 393.510764543671)
-41590.2068055169 -41280.954317772 61120.1811 06:28:34:954 168 -41590.2068055169 : (-512, 282.814645054423, -477.521401879883, -200.83729932055, -512, 3.57491303361824, 157.152310353582, 323.291347641904, -488.390907985153, 16.6976198679781, 13.7979956572034, -179.880509708901, -477.552706440052, 396.899533726416, -365.051220386863, 351.042533391941, 504.984303756205, 499.446832465242, -276.137687138525, 280.987615405437, -483.555555555555, 367.539273370292, 512, 400.960520634268, -368.178269045031, -436.229248383185, -460.988811159928, 386.558897913694, -346.533338066865, 512, -205.788301292134, -512, 9.64760119192568, 326.679447667449, 489.581354951904, 439.767186801402, -391.112211880403, 97.6732191677038, -225.545315934687, 512, -276.891621642976, 508.426323705391, 400.168225971607, 170.08020575814, 512, 404.95925070945, -375.42255530828, -401.298131790879, 352.397345468587, 512, 399.504858317288, 287.578084958841, -493.102863965379, 11.8678670822324, 380.121964360714, 512, -279.214590643258, 504.184971805748, -272.007355985649, 472.802543800579, -296.867022414164, -485.40150212003, -269.117649918943, 482.925814615062, -252.440560696852, -414.893634750924, -443.037432161643, 82.9612882523617, 306.680121326205, 474.708239537994, -282.587655437453, 487.933625686883, 387.741627635314, 206.238211012556, 227.753565179069, 230.201424944308, -290.78904570769, -319.282997041607, -483.823938833468, 393.510764543671)
-42191.1152148722 -41537.9748268634 62198.0789 06:28:36:032 177 -42191.1152148722 : (-512, 282.814645054423, -477.521401879883, -200.83729932055, -512, 3.57491303361824, 157.152310353582, 323.291347641904, -488.390907985153, 16.6976198679781, 13.7979956572034, -179.880509708901, -477.552706440052, 396.899533726416, -365.051220386863, 351.042533391941, 504.984303756205, 499.446832465242, -276.137687138525, 280.987615405437, -483.555555555555, 367.539273370292, 512, 400.960520634268, -368.178269045031, -436.229248383185, -460.988811159928, 386.558897913694, -346.533338066865, 512, -205.788301292134, -512, 9.64760119192568, 326.679447667449, 489.581354951904, 439.767186801402, -391.112211880403, 97.6732191677038, 339.858534255931, 512, -276.891621642976, 508.426323705391, 400.168225971607, 170.08020575814, 512, 404.95925070945, -375.42255530828, -401.298131790879, 352.397345468587, 512, 399.504858317288, 287.578084958841, -493.102863965379, 11.8678670822324, 380.121964360714, 512, -279.214590643258, 504.184971805748, -272.007355985649, 472.802543800579, -296.867022414164, -485.40150212003, -269.117649918943, 482.925814615062, -252.440560696852, -414.893634750924, -443.037432161643, 82.9612882523617, 306.680121326205, 474.708239537994, -282.587655437453, 487.933625686883, 387.741627635314, 206.238211012556, 227.753565179069, 230.201424944308, -290.78904570769, -319.282997041607, -483.823938833468, 393.510764543671)
-42191.7630885229 -42191.1476085547 63260.5817 06:28:37:094 186 -42191.7630885229 : (-512, 282.814645054423, -477.521401879883, -200.83729932055, -512, 3.57491303361824, 157.152310353582, 323.291347641904, -488.390907985153, 16.6976198679781, 13.7979956572034, -169.496335823786, -477.552706440052, 396.899533726416, -365.051220386863, 351.042533391941, 504.984303756205, 499.446832465242, -276.137687138525, 280.987615405437, -483.555555555555, 367.539273370292, 512, 400.960520634268, -368.178269045031, -436.229248383185, -460.988811159928, 386.558897913694, -346.533338066865, 512, -205.788301292134, -512, 9.64760119192568, 326.679447667449, 489.581354951904, 439.767186801402, -391.112211880403, 97.6732191677038, 339.858534255931, 512, -276.891621642976, 508.426323705391, 400.168225971607, 170.08020575814, 512, 404.95925070945, -375.42255530828, -401.298131790879, 352.397345468587, 512, 399.504858317288, 287.578084958841, -493.102863965379, 11.8678670822324, 380.121964360714, 512, -279.214590643258, 504.184971805748, -272.007355985649, 472.802543800579, -296.867022414164, -485.40150212003, -269.117649918943, 482.925814615062, -252.440560696852, -414.893634750924, -443.037432161643, 82.9612882523617, 306.680121326205, 474.708239537994, -282.587655437453, 487.933625686883, 387.741627635314, 206.238211012556, 227.753565179069, 230.201424944308, -290.78904570769, -319.282997041607, -483.823938833468, 393.510764543671)
-42191.7630885229 -42191.2123959198 86599.4444 06:29:00:433 188 -42191.7630885229 : (-512, 282.814645054423, -477.521401879883, -200.83729932055, -512, 3.57491303361824, 157.152310353582, 323.291347641904, -488.390907985153, 16.6976198679781, 13.7979956572034, -169.496335823786, -477.552706440052, 396.899533726416, -365.051220386863, 351.042533391941, 504.984303756205, 499.446832465242, -276.137687138525, 280.987615405437, -483.555555555555, 367.539273370292, 512, 400.960520634268, -368.178269045031, -436.229248383185, -460.988811159928, 386.558897913694, -346.533338066865, 512, -205.788301292134, -512, 9.64760119192568, 326.679447667449, 489.581354951904, 439.767186801402, -391.112211880403, 97.6732191677038, 339.858534255931, 512, -276.891621642976, 508.426323705391, 400.168225971607, 170.08020575814, 512, 404.95925070945, -375.42255530828, -401.298131790879, 352.397345468587, 512, 399.504858317288, 287.578084958841, -493.102863965379, 11.8678670822324, 380.121964360714, 512, -279.214590643258, 504.184971805748, -272.007355985649, 472.802543800579, -296.867022414164, -485.40150212003, -269.117649918943, 482.925814615062, -252.440560696852, -414.893634750924, -443.037432161643, 82.9612882523617, 306.680121326205, 474.708239537994, -282.587655437453, 487.933625686883, 387.741627635314, 206.238211012556, 227.753565179069, 230.201424944308, -290.78904570769, -319.282997041607, -483.823938833468, 393.510764543671)
-42361.5499679957 -42218.2571400146 87655.634 06:29:01:489 197 -42361.5499679957 : (-512, 282.814645054423, -477.521401879883, -200.83729932055, -512, 3.57491303361824, 157.152310353582, 323.291347641904, -488.390907985153, 16.6976198679781, 13.7979956572034, -169.496335823786, -477.552706440052, 396.899533726416, -365.051220386863, 351.042533391941, 504.984303756205, 499.446832465242, -276.137687138525, 280.987615405437, -483.555555555555, 367.539273370292, 512, 400.960520634268, -368.178269045031, -436.229248383185, -460.988811159928, 386.558897913694, -346.533338066865, 512, -205.788301292134, -512, 9.64760119192568, 326.679447667449, 489.581354951904, 439.767186801402, -391.112211880403, 97.6732191677038, 339.858534255931, 512, -276.891621642976, 508.426323705391, 400.168225971607, 170.08020575814, 512, 404.95925070945, -375.42255530828, -401.298131790879, 352.397345468587, 512, 399.504858317288, 287.578084958841, -493.102863965379, 11.8678670822324, 380.121964360714, 512, -279.214590643258, 504.184971805748, -272.007355985649, 472.802543800579, -296.867022414164, -485.40150212003, -269.117649918943, 482.925814615062, -252.440560696852, -414.893634750924, -443.037432161643, 82.9612882523617, 306.680121326205, 474.708239537994, -282.587655437453, 487.933625686883, 387.741627635314, 206.238211012556, 227.753565179069, 230.201424944308, -10.994032149666, -319.282997041607, -483.823938833468, 393.510764543671)
-42411.2921299764 -42364.0370760948 88733.7525 06:29:02:568 206 -42411.2921299764 : (-512, 282.814645054423, -477.521401879883, -200.83729932055, -512, 3.57491303361824, 157.152310353582, 323.291347641904, -488.390907985153, 16.6976198679781, 13.7979956572034, -169.496335823786, -477.552706440052, 396.899533726416, -365.051220386863, 351.042533391941, 504.984303756205, 499.446832465242, -276.137687138525, 280.987615405437, -483.555555555555, 367.539273370292, 512, 400.960520634268, -368.178269045031, -436.229248383185, -460.988811159928, 386.558897913694, -346.533338066865, 512, -205.788301292134, -512, 9.64760119192568, 326.679447667449, 489.581354951904, 439.767186801402, -391.112211880403, 97.6732191677037, 339.858534255931, 512, -276.891621642977, 508.426323705391, 400.168225971607, 170.08020575814, 512, 404.95925070945, -375.42255530828, -401.298131790879, 352.397345468587, 512, 399.504858317288, 287.578084958841, -493.102863965379, 11.8678670822324, 380.121964360714, 512, -279.214590643258, 504.184971805748, 393.171072904566, 472.802543800579, -296.867022414164, -485.40150212003, -269.117649918943, 482.925814615062, -252.440560696852, -414.893634750924, -443.037432161643, 82.9612882523617, 306.680121326204, 474.708239537994, -282.587655437453, 487.933625686883, 387.741627635314, 206.238211012556, 227.753565179069, 230.201424944308, -10.994032149666, -319.282997041607, -483.823938833468, 393.510764543671)
-42613.7720482335 -42613.7720482335 89801.845 06:29:03:636 215 -42613.7720482335 : (-512, 282.814645054423, -477.521401879883, -200.83729932055, -512, 3.57491303361824, 157.152310353582, 323.291347641904, -488.390907985153, 16.6976198679781, 341.671959320862, -169.496335823786, -477.552706440052, 396.899533726416, -365.051220386863, 351.042533391941, 504.984303756205, 499.446832465242, -276.137687138525, 280.987615405437, -483.555555555555, 367.539273370292, 512, 400.960520634268, -368.178269045031, -436.229248383185, -460.988811159928, 386.558897913694, -346.533338066865, 512, -205.788301292134, -512, 9.64760119192568, 326.679447667449, 489.581354951904, 439.767186801402, -391.112211880403, 97.6732191677038, 339.858534255931, 512, -276.891621642977, 508.426323705391, 400.168225971607, 170.08020575814, 512, 404.95925070945, -375.42255530828, -401.298131790879, 352.397345468587, 512, 399.504858317288, 287.578084958841, -493.102863965379, 11.8678670822324, 380.121964360714, 512, -279.214590643258, 504.184971805748, -272.007355985649, 472.802543800579, -296.867022414164, -485.40150212003, -269.117649918943, 482.925814615062, -252.440560696852, -414.893634750924, -443.037432161643, 82.9612882523617, 306.680121326204, 474.708239537994, -282.587655437453, 487.933625686883, 387.741627635314, 206.238211012556, 227.753565179069, 230.201424944308, -10.994032149666, -319.282997041607, -483.823938833468, 393.510764543671)
-42872.5411214721 -42639.0599430675 90864.3491 06:29:04:698 224 -42872.5411214721 : (-512, 282.814645054423, -477.521401879883, -200.83729932055, -512, 3.57491303361824, 157.152310353582, 323.291347641904, -488.390907985153, 16.6976198679781, 341.671959320862, -169.496335823786, -477.552706440052, 396.899533726416, -365.051220386863, 351.042533391941, 504.984303756205, 499.446832465242, -276.137687138525, 280.987615405437, -483.555555555555, 367.539273370292, 512, 400.960520634268, -368.178269045031, -436.229248383185, -460.988811159928, 386.558897913694, -346.533338066865, 512, -205.788301292134, -512, 9.64760119192568, 326.679447667449, 489.581354951904, 439.767186801402, -391.112211880403, 97.6732191677038, 339.858534255931, 512, -276.891621642977, 508.426323705391, 400.168225971607, 170.08020575814, 512, 404.95925070945, -375.42255530828, -401.298131790879, 352.397345468587, 512, 399.504858317288, 287.578084958841, -493.102863965379, 11.8678670822324, 380.121964360714, 512, -279.214590643258, 504.184971805748, -272.007355985649, 472.802543800579, -296.867022414164, -485.40150212003, -269.117649918943, 482.925814615062, -252.440560696852, -414.893634750924, -443.037432161643, 82.9612882523617, 306.680121326204, 474.708239537994, -282.587655437453, 487.933625686883, 387.741627635314, 470.270196418404, 227.753565179069, 230.201424944308, -10.994032149666, -319.282997041607, -483.823938833468, 393.510764543671)
-43248.1803359918 -42909.4306228642 91942.4902 06:29:05:776 233 -43248.1803359918 : (-512, 282.814645054423, -477.521401879883, -200.83729932055, -512, 3.57491303361824, 157.152310353582, 323.291347641904, -488.390907985153, 16.6976198679781, 341.671959320862, -169.496335823786, -477.552706440052, 396.899533726416, -365.051220386863, 351.042533391941, 493.41481017201, 499.446832465242, -276.137687138525, 280.987615405437, -483.555555555555, 367.539273370292, 512, 400.960520634268, -368.178269045031, -436.229248383185, -460.988811159928, 386.558897913694, -346.533338066865, 512, -205.788301292134, -512, 9.64760119192568, 326.679447667449, 489.581354951904, 439.767186801402, -391.112211880403, 97.6732191677038, 339.858534255931, 512, -276.891621642977, 508.426323705391, 400.168225971607, 170.08020575814, 512, 404.95925070945, -375.42255530828, -401.298131790879, 352.397345468587, 512, 399.504858317288, 287.578084958841, -493.102863965379, 11.8678670822324, 380.121964360714, 512, -279.214590643258, 504.184971805748, -272.007355985649, 472.802543800579, -296.867022414164, -485.40150212003, -269.117649918943, 482.925814615062, -252.440560696852, -414.893634750924, -443.037432161643, 82.9612882523617, 306.680121326204, 474.708239537994, -282.587655437453, 487.933625686883, 387.741627635314, 470.270196418404, 227.753565179069, 230.201424944308, -10.994032149666, -319.282997041607, -483.823938833468, 393.510764543671)
-43781.6327902441 -43302.0657298283 93004.993 06:29:06:839 242 -43781.6327902441 : (-512, 282.814645054423, -477.521401879883, -200.83729932055, -512, 3.57491303361824, 157.152310353582, 323.291347641904, -488.390907985153, 16.6976198679781, 341.671959320862, -169.496335823786, -477.552706440052, 396.899533726416, -365.051220386863, 351.042533391941, 493.41481017201, 499.446832465242, -276.137687138525, 280.987615405437, -483.555555555555, 367.539273370292, 512, 400.960520634268, -368.178269045031, -436.229248383185, -460.988811159928, 386.558897913694, -346.533338066865, 512, -205.788301292134, -512, 9.64760119192568, 326.679447667449, 489.581354951904, 439.767186801402, -391.112211880403, 97.6732191677038, 339.858534255931, 512, -276.891621642977, 508.426323705391, 400.168225971607, 170.08020575814, 512, 404.95925070945, -375.42255530828, -401.298131790879, 352.397345468587, 512, 399.504858317288, 287.578084958841, -493.102863965379, 11.8678670822324, 380.121964360714, 512, -279.214590643258, 504.184971805748, -272.007355985649, 472.802543800579, -296.867022414164, -485.40150212003, -269.117649918943, 482.925814615062, -252.440560696852, -414.893634750924, -443.037432161643, 82.9612882523617, 306.680121326204, 474.708239537994, 363.753024985899, 487.933625686883, 387.741627635314, 470.270196418404, 227.753565179069, 230.201424944308, -10.994032149666, -319.282997041607, -483.823938833468, 393.510764543671)
-43781.6327902441 -43378.7225727414 94095.2922 06:29:07:929 250 -43781.6327902441 : (-512, 282.814645054423, -477.521401879883, -200.83729932055, -512, 3.57491303361824, 157.152310353582, 323.291347641904, -488.390907985153, 16.6976198679781, 341.671959320862, -169.496335823786, -477.552706440052, 396.899533726416, -365.051220386863, 351.042533391941, 493.41481017201, 499.446832465242, -276.137687138525, 280.987615405437, -483.555555555555, 367.539273370292, 512, 400.960520634268, -368.178269045031, -436.229248383185, -460.988811159928, 386.558897913694, -346.533338066865, 512, -205.788301292134, -512, 9.64760119192568, 326.679447667449, 489.581354951904, 439.767186801402, -391.112211880403, 97.6732191677038, 339.858534255931, 512, -276.891621642977, 508.426323705391, 400.168225971607, 170.08020575814, 512, 404.95925070945, -375.42255530828, -401.298131790879, 352.397345468587, 512, 399.504858317288, 287.578084958841, -493.102863965379, 11.8678670822324, 380.121964360714, 512, -279.214590643258, 504.184971805748, -272.007355985649, 472.802543800579, -296.867022414164, -485.40150212003, -269.117649918943, 482.925814615062, -252.440560696852, -414.893634750924, -443.037432161643, 82.9612882523617, 306.680121326204, 474.708239537994, 363.753024985899, 487.933625686883, 387.741627635314, 470.270196418404, 227.753565179069, 230.201424944308, -10.994032149666, -319.282997041607, -483.823938833468, 393.510764543671)
-43915.5409350587 -43915.5409350587 95178.4786 06:29:09:012 258 -43915.5409350587 : (-512, 282.814645054423, -477.521401879883, -200.83729932055, -512, 3.57491303361824, 157.152310353582, 323.291347641904, -488.390907985153, 16.6976198679781, 341.671959320862, -169.496335823786, -477.552706440052, 396.899533726416, -365.051220386863, 351.042533391941, 493.41481017201, 499.446832465242, -276.137687138525, 280.987615405437, -483.555555555555, 367.539273370292, 512, 400.960520634268, -368.178269045031, -436.229248383185, -460.988811159928, 386.558897913694, -346.533338066865, 512, -205.788301292134, -512, 9.64760119192568, 326.679447667449, 489.581354951904, 439.767186801402, -391.112211880403, 97.6732191677038, 339.858534255931, 512, -276.891621642977, 508.426323705391, 400.168225971607, 170.08020575814, 512, 404.95925070945, -375.42255530828, -401.298131790879, 352.397345468587, 512, 399.504858317288, 287.578084958841, -493.102863965379, 11.8678670822324, 380.121964360714, 512, -279.214590643258, 504.184971805748, -272.007355985649, 472.802543800579, -296.867022414164, -485.40150212003, -269.117649918943, 482.925814615062, -252.440560696852, -414.893634750924, -443.037432161643, 82.9612882523617, 306.680121326204, 474.708239537994, 353.990257666442, 487.933625686883, 387.741627635314, 470.270196418404, 227.753565179069, -508.135044572938, -10.994032149666, -319.282997041607, -483.823938833467, 393.510764543671)
-43927.4320632071 -43916.1354914661 153464.2712 06:30:07:299 261 -43927.4320632071 : (-512, 282.814645054423, -477.521401879883, -200.83729932055, -512, 3.57491303361824, 157.152310353582, 323.291347641904, -488.390907985153, 16.6976198679781, 341.671959320862, -169.496335823786, -477.552706440052, 396.899533726416, -365.051220386863, 351.042533391941, 493.41481017201, 499.446832465242, -276.137687138525, 280.987615405437, -483.555555555555, 367.539273370292, 512, 400.960520634268, -368.178269045031, -436.229248383185, -460.988811159928, 386.558897913694, -346.533338066865, 512, -205.788301292134, -512, 9.64760119192568, 326.679447667449, 489.581354951904, 439.767186801402, -391.112211880403, 97.6732191677038, 339.858534255931, 512, -276.891621642977, 508.426323705391, 400.168225971607, 170.08020575814, 512, 404.95925070945, -375.42255530828, -401.298131790879, 352.397345468587, 512, 399.504858317288, 287.578084958841, -493.102863965379, 11.8678670822324, 380.121964360714, 512, -279.214590643258, 504.184971805748, 402.669863649956, 472.802543800579, -296.867022414164, -485.40150212003, -269.117649918943, 482.925814615062, -252.440560696852, -414.893634750924, -443.037432161643, 82.9612882523617, 306.680121326204, 474.708239537994, 353.990257666442, 487.933625686883, 387.741627635314, 470.270196418404, 227.753565179069, -508.135044572938, -10.994032149666, -319.282997041607, -483.823938833467, 393.510764543671)
-43968.6316273574 -43966.9872472925 154533.4011 06:30:08:367 270 -43968.6316273574 : (-512, 282.814645054423, -477.521401879883, -200.83729932055, -512, 3.57491303361824, 157.152310353582, 323.291347641904, -488.390907985153, 16.6976198679781, 341.671959320862, -169.496335823786, -477.552706440052, 396.899533726416, -365.051220386863, 351.042533391941, 493.41481017201, 499.446832465242, -276.137687138525, 280.987615405437, -483.555555555555, 367.539273370292, 512, 400.960520634268, -368.178269045031, -436.229248383185, -460.988811159928, 386.558897913694, -346.533338066865, 512, -205.788301292134, -512, 9.64760119192568, 326.679447667449, 489.581354951904, 439.767186801402, -391.112211880403, 97.6732191677038, 339.858534255931, 512, -276.891621642977, 508.426323705391, 400.168225971607, 170.08020575814, 512, 404.95925070945, -375.42255530828, -401.298131790879, 352.397345468587, 512, 399.504858317288, 287.578084958841, -493.102863965379, 11.8678670822324, 380.121964360714, 512, -279.214590643258, 504.184971805748, -272.007355985649, 472.802543800579, -296.867022414164, -485.40150212003, -269.117649918943, 482.925814615062, -252.440560696852, -414.893634750924, -443.037432161643, 82.9612882523617, 306.680121326204, 474.708239537994, 353.990257666442, 487.933625686883, 387.741627635314, 470.270196418404, 227.753565179069, -492.913066378288, -10.994032149666, -319.282997041607, -483.823938833468, 393.510764543671)
-44303.4122249404 -44183.1734087627 155609.4596 06:30:09:443 279 -44303.4122249404 : (-512, 282.814645054423, -477.521401879883, -200.83729932055, -512, 3.57491303361824, 157.152310353582, 292.693344967763, -488.390907985153, 16.6976198679781, 341.671959320862, -169.496335823786, -477.552706440052, 396.899533726416, -365.051220386863, 351.042533391941, 486.484222400228, 499.446832465243, -276.137687138525, 280.987615405437, -483.555555555555, 367.539273370292, 512, 400.960520634268, -368.178269045031, -436.229248383185, -460.988811159928, 386.558897913694, -346.533338066865, 512, -205.788301292134, -512, 9.64760119192568, 326.679447667449, 489.581354951904, 439.767186801402, -391.112211880403, 97.6732191677038, 339.858534255931, 512, -276.891621642977, 508.426323705391, 400.168225971607, 170.08020575814, 512, 404.95925070945, -375.42255530828, -401.298131790879, 352.397345468587, 512, 399.504858317288, 287.578084958841, -493.102863965379, 11.8678670822324, 380.121964360714, 512, -279.214590643258, 504.184971805748, -272.007355985649, 472.802543800579, -296.867022414164, -485.40150212003, 314.286067393742, 482.925814615062, -252.440560696852, -414.893634750924, -443.037432161643, 82.9612882523617, 306.680121326204, 474.708239537994, 353.990257666442, 487.933625686883, 387.741627635314, 470.270196418404, 227.753565179069, -508.135044572938, -10.994032149666, -319.282997041607, -483.823938833468, 393.510764543671)
-45050.0655571362 -44278.1001517681 156711.3807 06:30:10:545 287 -45050.0655571362 : (-512, -276.385105864043, 512, -196.804887704772, -512, 3.57491303361876, 150.839614518548, 295.003093379513, -493.041893122798, -415.325177248616, 93.1304106129493, 296.235985831572, -482.770893905461, 396.899533726416, -365.051220386863, 351.042533391941, 486.484222400228, 499.446832465242, -276.137687138525, 280.987615405437, -483.555555555555, 367.539273370292, 512, 400.960520634268, -368.178269045031, -436.229248383186, -460.988811159928, 386.558897913694, -346.533338066865, 512, -205.788301292134, -512, 9.64760119192568, 326.679447667449, 489.581354951904, 439.767186801402, -391.112211880403, 97.6732191677038, 339.858534255931, 512, -276.891621642977, 508.426323705391, 400.168225971607, 170.08020575814, 512, 404.95925070945, -375.42255530828, -401.298131790879, 352.397345468587, 512, 399.504858317288, 287.578084958841, -493.102863965379, 11.8678670822324, 380.121964360714, 512, -279.214590643258, 504.184971805748, -272.007355985649, 472.802543800579, -296.867022414164, -485.40150212003, -269.117649918943, 482.925814615062, -252.440560696852, -414.893634750924, -443.037432161643, 82.9612882523617, 306.680121326205, 474.708239537994, 353.990257666442, 487.933625686883, 387.741627635314, 470.270196418404, 227.753565179069, -508.135044572938, -10.994032149666, -319.282997041607, -483.823938833468, 393.510764543671)
-45050.0655571362 -44462.4100695132 157758.259 06:30:11:592 295 -45050.0655571362 : (-512, -276.385105864043, 512, -196.804887704772, -512, 3.57491303361876, 150.839614518548, 295.003093379513, -493.041893122798, -415.325177248616, 93.1304106129493, 296.235985831572, -482.770893905461, 396.899533726416, -365.051220386863, 351.042533391941, 486.484222400228, 499.446832465242, -276.137687138525, 280.987615405437, -483.555555555555, 367.539273370292, 512, 400.960520634268, -368.178269045031, -436.229248383186, -460.988811159928, 386.558897913694, -346.533338066865, 512, -205.788301292134, -512, 9.64760119192568, 326.679447667449, 489.581354951904, 439.767186801402, -391.112211880403, 97.6732191677038, 339.858534255931, 512, -276.891621642977, 508.426323705391, 400.168225971607, 170.08020575814, 512, 404.95925070945, -375.42255530828, -401.298131790879, 352.397345468587, 512, 399.504858317288, 287.578084958841, -493.102863965379, 11.8678670822324, 380.121964360714, 512, -279.214590643258, 504.184971805748, -272.007355985649, 472.802543800579, -296.867022414164, -485.40150212003, -269.117649918943, 482.925814615062, -252.440560696852, -414.893634750924, -443.037432161643, 82.9612882523617, 306.680121326205, 474.708239537994, 353.990257666442, 487.933625686883, 387.741627635314, 470.270196418404, 227.753565179069, -508.135044572938, -10.994032149666, -319.282997041607, -483.823938833468, 393.510764543671)
-45286.9877215541 -44622.5769962353 158818.631 06:30:12:652 304 -45286.9877215541 : (500.392342905284, -276.385105864043, 512, -196.804887704772, -512, 3.57491303361876, 150.839614518548, 295.003093379513, -493.041893122798, -415.325177248616, 93.1304106129493, 296.235985831572, -482.770893905461, 396.899533726416, -365.051220386863, 351.042533391941, 486.484222400228, 499.446832465242, -276.137687138525, 280.987615405437, -483.555555555555, 367.539273370292, 512, 400.960520634268, -368.178269045031, -436.229248383186, -460.988811159928, 386.558897913694, -346.533338066865, 512, -205.788301292134, -512, 9.64760119192568, 326.679447667449, 489.581354951904, 439.767186801402, -391.112211880403, 97.6732191677038, 339.858534255931, 512, -276.891621642977, 508.426323705391, 400.168225971607, 170.08020575814, 512, 404.95925070945, -375.42255530828, -401.298131790879, 352.397345468587, 512, 399.504858317288, 287.578084958841, -493.102863965379, 11.8678670822324, 380.121964360714, 512, -279.214590643258, 504.184971805748, -272.007355985649, 472.802543800579, -296.867022414164, -485.40150212003, -269.117649918943, 482.925814615062, -252.440560696852, -414.893634750924, -443.037432161643, 82.9612882523617, 306.680121326205, 474.708239537994, 353.990257666442, 487.933625686883, 387.741627635314, 470.270196418404, 227.753565179069, -508.135044572938, -10.994032149666, -319.282997041607, -483.823938833468, 393.510764543671)
-45286.9877215541 -44955.7247341582 159881.1543 06:30:13:715 314 -45286.9877215541 : (500.392342905284, -276.385105864043, 512, -196.804887704772, -512, 3.57491303361876, 150.839614518548, 295.003093379513, -493.041893122798, -415.325177248616, 93.1304106129493, 296.235985831572, -482.770893905461, 396.899533726416, -365.051220386863, 351.042533391941, 486.484222400228, 499.446832465242, -276.137687138525, 280.987615405437, -483.555555555555, 367.539273370292, 512, 400.960520634268, -368.178269045031, -436.229248383186, -460.988811159928, 386.558897913694, -346.533338066865, 512, -205.788301292134, -512, 9.64760119192568, 326.679447667449, 489.581354951904, 439.767186801402, -391.112211880403, 97.6732191677038, 339.858534255931, 512, -276.891621642977, 508.426323705391, 400.168225971607, 170.08020575814, 512, 404.95925070945, -375.42255530828, -401.298131790879, 352.397345468587, 512, 399.504858317288, 287.578084958841, -493.102863965379, 11.8678670822324, 380.121964360714, 512, -279.214590643258, 504.184971805748, -272.007355985649, 472.802543800579, -296.867022414164, -485.40150212003, -269.117649918943, 482.925814615062, -252.440560696852, -414.893634750924, -443.037432161643, 82.9612882523617, 306.680121326205, 474.708239537994, 353.990257666442, 487.933625686883, 387.741627635314, 470.270196418404, 227.753565179069, -508.135044572938, -10.994032149666, -319.282997041607, -483.823938833468, 393.510764543671)
-45424.0221181331 -45424.0221181331 160898.9833 06:30:14:733 324 -45424.0221181331 : (500.392342905284, -276.385105864043, 512, -196.804887704772, -512, 3.57491303361876, 150.839614518548, 295.003093379513, -493.041893122798, -415.325177248616, 93.1304106129493, 296.235985831572, -482.770893905461, 396.899533726416, -365.051220386863, 351.042533391941, 486.484222400228, 499.446832465242, -276.137687138525, 280.987615405437, -483.555555555555, 367.539273370292, 512, 400.960520634268, -368.178269045031, -436.229248383186, -460.988811159928, 386.558897913694, -346.533338066865, 512, -205.788301292134, -512, 9.64760119192568, 326.679447667449, 489.581354951904, 439.767186801402, -391.112211880403, 97.6732191677038, 339.858534255931, 512, -276.891621642977, 508.426323705391, 400.168225971607, 170.08020575814, 512, 404.95925070945, -375.42255530828, -401.298131790879, 352.397345468587, 512, 399.504858317288, 287.578084958841, -493.102863965379, 11.8678670822324, 380.121964360714, 512, -279.214590643258, 504.184971805748, -272.007355985649, 472.802543800579, -296.867022414164, -485.40150212003, -269.117649918943, 482.925814615062, -252.440560696852, -414.893634750924, -443.037432161643, 82.9612882523617, 306.680121326205, 474.708239537994, 353.990257666442, 487.933625686883, 387.741627635314, 495.121446601637, 227.753565179069, -508.135044572938, -10.994032149666, -319.282997041607, -483.823938833468, 393.510764543671)
-45875.8298641849 -45515.1942951644 161961.4879 06:30:15:795 334 -45875.8298641849 : (500.392342905284, -276.385105864043, 512, -196.804887704772, -512, 394.771181528816, 150.839614518548, 295.003093379513, -493.041893122798, -415.325177248616, 93.1304106129493, 296.235985831572, -482.770893905461, 396.899533726416, -365.051220386863, 351.042533391941, 486.484222400228, 499.446832465243, -276.137687138525, 280.987615405437, -483.555555555555, 367.539273370292, 512, 400.960520634268, -368.178269045031, -436.229248383186, -460.988811159928, 386.558897913694, -346.533338066865, 512, -205.788301292134, -512, 9.64760119192568, 326.679447667449, 489.581354951904, 439.767186801402, -391.112211880403, 97.6732191677038, 339.858534255931, 512, -276.891621642977, 508.426323705391, 400.168225971607, 170.08020575814, 512, 404.95925070945, -375.42255530828, -401.298131790879, 352.397345468587, 512, 399.504858317288, 287.578084958841, -493.102863965379, 11.8678670822324, 380.121964360714, 512, -279.214590643258, 504.184971805748, -272.007355985649, 472.802543800579, -296.867022414164, -485.40150212003, -269.117649918943, 482.925814615062, -252.440560696852, -414.893634750924, -443.037432161643, 82.9612882523617, 306.680121326205, 474.708239537994, 353.990257666442, 487.933625686883, 387.741627635314, 495.121446601637, 227.753565179069, -508.135044572938, -10.994032149666, -319.282997041607, -483.823938833468, 393.510764543671)
-45875.8298641849 -45875.8298641849 162961.493 06:30:16:795 344 -45875.8298641849 : (500.392342905284, -276.385105864043, 512, -196.804887704772, -512, 394.771181528816, 150.839614518548, 295.003093379513, -493.041893122798, -415.325177248616, 93.1304106129493, 296.235985831572, -482.770893905461, 396.899533726416, -365.051220386863, 351.042533391941, 486.484222400228, 499.446832465243, -276.137687138525, 280.987615405437, -483.555555555555, 367.539273370292, 512, 400.960520634268, -368.178269045031, -436.229248383186, -460.988811159928, 386.558897913694, -346.533338066865, 512, -205.788301292134, -512, 9.64760119192568, 326.679447667449, 489.581354951904, 439.767186801402, -391.112211880404, 97.6732191677038, 339.858534255931, 512, -276.891621642977, 508.426323705391, 400.168225971607, 170.08020575814, 512, 404.95925070945, -375.42255530828, -401.298131790879, 352.397345468587, 512, 399.504858317288, 287.578084958841, -493.102863965379, 11.8678670822324, 380.121964360714, 512, -279.214590643258, 504.184971805748, -272.007355985649, 472.802543800579, -296.867022414164, -485.40150212003, -269.117649918943, 482.925814615062, -252.440560696852, -414.893634750924, -443.037432161643, 82.9612882523617, 306.680121326205, 474.708239537994, 353.990257666442, 487.933625686883, 387.741627635314, 495.121446601637, 227.753565179069, -508.135044572938, -10.994032149666, -319.282997041607, -483.823938833468, 393.510764543671)
