-7086.49302890718 -1324.9917526091 62.5029 08:06:10:169 1 -7086.49302890718 : (-16.5470688420102, -156.016781641178, 61.6095140267208, -119.700794990966, 465.875428655127, -340.32097283952, 145.394049473756, 245.140790338228, -150.733125518418, -487.919089782945, 411.951301528118, -427.452688177793, 210.390847542505, -398.185411400248, -320.643100649418, -43.7900207246607, -126.786795913608, 399.651148743765, -157.544818236281, -284.090636624066, -208.287375308707, -495.724962703756, -412.442431880367, 363.510268142219, -105.282460976989, -79.4699108970677, -233.699437011825, -343.070331017985, -320.321206480414, 230.094390261031, 475.775983793557, -124.046790419168, 66.6419194054985, 67.3860347584756, -56.0200474523101, 155.548026395751, -371.520896369368, -443.506063906246, -136.330635372703, 133.077403845767, -19.2072661012445, 481.865232930456, -27.4169457086441, 305.683244609127, 356.198983596731, 468.956883887275, -141.701953238669, 13.7420451705074, 392.063420716703, 424.999905068893, 258.193199516364, -198.929290148862, 446.27988859931, 379.53648465664, 403.63055844029, -32.8221061382546, -255.574349760811, 210.099245884502, 497.581665986023, 33.3453395521946, 405.378464172305, -23.5356195082588, 53.4619968186421, 131.172484220551, -451.695073576502, 23.9980919472864, 17.9053924167088, -368.99518721597, 169.834636052062, 35.8088729548309, -184.269124355292, -195.280732007362, 23.9817841164682, 221.377777917952, 247.116629477179, -178.152608239163, 43.6919830048885, -206.125676489494, -504.688715454512, -62.2393448642638)
-16424.692703189 -5330.26087910967 29216.8847 08:06:39:323 2 -16424.692703189 : (-339.927899736063, -400.351695787867, 350.911300206225, 121.435855226848, -128.022916761052, -292.372889191751, -480.318547089098, 33.7959318801018, -206.620782588192, -505.28511657899, -423.651650674507, -357.747427782093, -426.105361694626, 396.854271034015, 512, 404.425639320106, 462.385988155262, 471.268426716169, -262.598505119766, -444.833210901245, 364.299416878903, -348.519510005651, -417.298790198039, -355.581210598502, -425.408793210391, 363.683743504056, -353.663718102768, -421.831913906071, -439.211991276225, 413.346239044027, 312.266775515055, -161.649261311465, -85.6766035955756, 338.908051887019, 437.457275832751, 450.232820482102, 93.1913807826077, 245.091084832834, -419.174454645801, 503.955648418495, -489.00769232633, 310.712134267535, 473.443031769918, -475.368108255494, 380.08263200339, -267.178479080637, -99.2000077232718, -22.3588063821005, -45.9968345379442, -510.011034487752, -43.7201059068181, 331.782463943484, -301.021190068229, 12.8340675890604, -177.40298637068, -111.589438728797, 502.104107375305, 196.114240499267, 392.042973462512, -9.47210431540015, 437.000268901233, 475.301189882355, -495.111922256235, -116.436123663763, 448.164165943937, -301.061719796183, -353.735397742007, -271.71367204921, 180.516168916838, 42.5512631137628, 190.285313933289, -54.4589035764611, -352.56794969764, -9.48367810690945, -443.452646223573, -467.077585676255, 117.0319006988, -111.391858391181, -15.0789039205196, 349.514357968007)
-16424.692703189 -7287.44905185088 39116.4573 08:06:49:223 3 -16424.692703189 : (-339.927899736063, -400.351695787867, 350.911300206225, 121.435855226848, -128.022916761052, -292.372889191751, -480.318547089098, 33.7959318801018, -206.620782588192, -505.28511657899, -423.651650674507, -357.747427782093, -426.105361694626, 396.854271034015, 512, 404.425639320106, 462.385988155262, 471.268426716169, -262.598505119766, -444.833210901245, 364.299416878903, -348.519510005651, -417.298790198039, -355.581210598502, -425.408793210391, 363.683743504056, -353.663718102768, -421.831913906071, -439.211991276225, 413.346239044027, 312.266775515055, -161.649261311465, -85.6766035955756, 338.908051887019, 437.457275832751, 450.232820482102, 93.1913807826077, 245.091084832834, -419.174454645801, 503.955648418495, -489.00769232633, 310.712134267535, 473.443031769918, -475.368108255494, 380.08263200339, -267.178479080637, -99.2000077232718, -22.3588063821005, -45.9968345379442, -510.011034487752, -43.7201059068181, 331.782463943484, -301.021190068229, 12.8340675890604, -177.40298637068, -111.589438728797, 502.104107375305, 196.114240499267, 392.042973462512, -9.47210431540015, 437.000268901233, 475.301189882355, -495.111922256235, -116.436123663763, 448.164165943937, -301.061719796183, -353.735397742007, -271.71367204921, 180.516168916838, 42.5512631137628, 190.285313933289, -54.4589035764611, -352.56794969764, -9.48367810690945, -443.452646223573, -467.077585676255, 117.0319006988, -111.391858391181, -15.0789039205196, 349.514357968007)
-16424.692703189 -15243.956948086 46414.8763 08:06:56:522 4 -16424.692703189 : (-339.927899736063, -400.351695787867, 350.911300206225, 121.435855226848, -128.022916761052, -292.372889191751, -480.318547089098, 33.7959318801018, -206.620782588192, -505.28511657899, -423.651650674507, -357.747427782093, -426.105361694626, 396.854271034015, 512, 404.425639320106, 462.385988155262, 471.268426716169, -262.598505119766, -444.833210901245, 364.299416878903, -348.519510005651, -417.298790198039, -355.581210598502, -425.408793210391, 363.683743504056, -353.663718102768, -421.831913906071, -439.211991276225, 413.346239044027, 312.266775515055, -161.649261311465, -85.6766035955756, 338.908051887019, 437.457275832751, 450.232820482102, 93.1913807826077, 245.091084832834, -419.174454645801, 503.955648418495, -489.00769232633, 310.712134267535, 473.443031769918, -475.368108255494, 380.08263200339, -267.178479080637, -99.2000077232718, -22.3588063821005, -45.9968345379442, -510.011034487752, -43.7201059068181, 331.782463943484, -301.021190068229, 12.8340675890604, -177.40298637068, -111.589438728797, 502.104107375305, 196.114240499267, 392.042973462512, -9.47210431540015, 437.000268901233, 475.301189882355, -495.111922256235, -116.436123663763, 448.164165943937, -301.061719796183, -353.735397742007, -271.71367204921, 180.516168916838, 42.5512631137628, 190.285313933289, -54.4589035764611, -352.56794969764, -9.48367810690945, -443.452646223573, -467.077585676255, 117.0319006988, -111.391858391181, -15.0789039205196, 349.514357968007)
-16424.692703189 -16043.0868042834 56831.4755 08:07:06:939 5 -16424.692703189 : (-339.927899736063, -400.351695787867, 350.911300206225, 121.435855226848, -128.022916761052, -292.372889191751, -480.318547089098, 33.7959318801018, -206.620782588192, -505.28511657899, -423.651650674507, -357.747427782093, -426.105361694626, 396.854271034015, 512, 404.425639320106, 462.385988155262, 471.268426716169, -262.598505119766, -444.833210901245, 364.299416878903, -348.519510005651, -417.298790198039, -355.581210598502, -425.408793210391, 363.683743504056, -353.663718102768, -421.831913906071, -439.211991276225, 413.346239044027, 312.266775515055, -161.649261311465, -85.6766035955756, 338.908051887019, 437.457275832751, 450.232820482102, 93.1913807826077, 245.091084832834, -419.174454645801, 503.955648418495, -489.00769232633, 310.712134267535, 473.443031769918, -475.368108255494, 380.08263200339, -267.178479080637, -99.2000077232718, -22.3588063821005, -45.9968345379442, -510.011034487752, -43.7201059068181, 331.782463943484, -301.021190068229, 12.8340675890604, -177.40298637068, -111.589438728797, 502.104107375305, 196.114240499267, 392.042973462512, -9.47210431540015, 437.000268901233, 475.301189882355, -495.111922256235, -116.436123663763, 448.164165943937, -301.061719796183, -353.735397742007, -271.71367204921, 180.516168916838, 42.5512631137628, 190.285313933289, -54.4589035764611, -352.56794969764, -9.48367810690945, -443.452646223573, -467.077585676255, 117.0319006988, -111.391858391181, -15.0789039205196, 349.514357968007)
-16723.592006499 -16219.0042616402 66123.0126 08:07:16:229 6 -16723.592006499 : (-472.980118701497, -400.351695787867, 350.911300206225, 121.435855226848, -128.022916761052, -292.372889191751, -480.318547089098, 33.795931880102, -206.620782588192, -505.28511657899, -423.651650674507, -357.747427782093, -426.105361694626, 396.854271034015, 512, 404.425639320106, 462.385988155262, 471.268426716168, -262.598505119768, -444.833210901246, 364.299416878903, -348.519510005651, -417.298790198039, -355.581210598502, -425.408793210391, 363.683743504056, -353.663718102768, -421.831913906071, -439.211991276225, 413.346239044027, 312.266775515055, -161.649261311465, 216.817525726192, 338.908051887019, 437.457275832751, 450.232820482102, 93.1913807826077, 245.091084832834, -419.174454645801, 503.955648418495, -489.00769232633, 310.712134267535, 473.443031769918, -475.368108255494, 380.08263200339, -267.178479080637, -99.2000077232718, -22.3588063821005, -45.9968345379442, -510.011034487752, -43.7201059068181, 331.782463943484, -301.021190068229, 12.8340675890604, -177.40298637068, -111.589438728797, 502.104107375305, 196.114240499267, 392.042973462512, -9.47210431540015, 437.000268901233, 475.301189882355, -495.111922256235, -116.436123663763, 448.164165943937, -301.061719796183, -353.735397742007, -271.71367204921, 180.516168916838, 42.5512631137629, 190.285313933289, -54.4589035764611, -352.56794969764, -9.48367810690945, -443.452646223573, -467.077585676255, 117.0319006988, -111.391858391181, -15.0789039205196, 349.514357968007)
-16963.8948360955 -16312.3370428858 75593.558 08:07:25:701 7 -16963.8948360955 : (-339.927899736063, -400.351695787867, 350.911300206225, 121.435855226848, -128.022916761052, -292.372889191751, -480.318547089098, 33.795931880102, -206.620782588192, -505.28511657899, -423.651650674507, -357.747427782093, -426.105361694626, 396.854271034015, 512, 404.425639320106, 462.385988155262, 471.268426716168, -262.598505119768, -444.833210901246, 364.299416878903, -348.519510005651, -417.298790198039, -355.581210598502, -425.408793210391, 363.683743504056, -353.663718102768, -421.831913906071, -439.211991276225, 413.346239044027, 312.266775515055, -161.649261311465, 288.435118571126, 338.908051887019, 437.457275832751, 450.232820482102, 194.384025902666, 245.091084832834, -419.174454645801, 503.955648418495, -489.00769232633, 310.712134267535, 473.443031769918, -475.368108255494, 380.08263200339, -267.178479080637, -99.2000077232718, -22.3588063821005, -45.9968345379442, -510.011034487752, -43.7201059068181, 331.782463943484, -301.021190068229, 12.8340675890604, -177.40298637068, -111.589438728797, 502.104107375305, 196.114240499267, 392.042973462512, -9.47210431540015, 437.000268901233, 475.301189882355, -495.111922256235, -116.436123663763, 448.164165943937, -301.061719796183, -353.735397742007, -271.71367204921, 180.516168916838, 42.5512631137628, 190.285313933289, -54.4589035764611, -352.56794969764, -9.48367810690945, -443.452646223573, -467.077585676255, 117.0319006988, -111.391858391181, -15.0789039205196, 349.514357968007)
-17104.7566061673 -16548.3373145918 85167.8711 08:07:35:274 8 -17104.7566061673 : (-472.980118701498, -400.351695787867, 350.911300206225, 121.435855226848, -128.022916761052, -292.372889191751, -480.318547089098, 33.795931880102, -206.620782588192, -505.28511657899, -423.651650674507, -357.747427782093, -426.105361694626, 396.854271034015, 512, 404.425639320106, 462.385988155262, 471.268426716168, -262.598505119768, -444.833210901246, 364.299416878903, -348.519510005651, -417.298790198039, -355.581210598502, -425.408793210391, 363.683743504056, -353.663718102768, -421.831913906071, -439.211991276225, 413.346239044027, 312.266775515055, -161.649261311465, 288.435118571127, 338.908051887019, 437.457275832751, 450.232820482102, 93.1913807826077, 245.091084832834, -419.174454645801, 503.955648418495, -489.00769232633, 310.712134267535, 473.443031769918, -475.368108255494, 380.08263200339, 131.235458673553, -99.2000077232718, -22.3588063821005, -45.9968345379442, -510.011034487752, -43.7201059068181, 331.782463943484, -301.021190068229, 12.8340675890604, -177.40298637068, -111.589438728797, 502.104107375305, 196.114240499267, 392.042973462512, -9.47210431540015, 437.000268901233, 475.301189882355, -495.111922256235, -116.436123663763, 448.164165943937, -301.061719796183, -353.735397742007, -271.71367204921, 180.516168916838, 42.5512631137629, -380.181126533161, -54.4589035764611, -352.56794969764, -9.48367810690945, -443.452646223573, -467.077585676255, 117.0319006988, -111.391858391181, -15.0789039205196, 349.514357968007)
-17598.2188176698 -16936.9899556162 94431.1624 08:07:44:537 9 -17598.2188176698 : (-472.980118701498, -400.351695787867, 350.911300206225, 121.435855226848, -128.022916761052, -292.372889191751, -480.318547089098, 33.795931880102, -206.620782588192, -505.28511657899, -423.651650674507, -357.747427782093, -426.105361694626, 396.854271034015, 512, 404.425639320106, 462.385988155262, 471.268426716168, -262.598505119768, -444.833210901246, 364.299416878903, -348.519510005651, -417.298790198039, -355.581210598502, -425.408793210391, 363.683743504056, -353.663718102768, -421.831913906071, -439.211991276225, 413.346239044027, 312.266775515055, -161.649261311465, 288.435118571127, 338.908051887019, 437.457275832751, 450.232820482102, 93.1913807826077, 245.091084832834, -419.174454645801, 503.955648418495, -489.00769232633, 310.712134267535, 473.443031769918, -475.368108255494, 380.08263200339, 131.235458673553, -99.2000077232718, -22.3588063821005, -133.226146998455, -510.011034487752, -43.7201059068181, 331.782463943484, -301.021190068229, 12.8340675890604, -177.40298637068, -111.589438728797, 502.104107375305, 196.114240499267, 392.042973462512, -9.47210431540015, 437.000268901233, 475.301189882355, -495.111922256235, -116.436123663763, 448.164165943937, -301.061719796183, -353.735397742007, -271.71367204921, 180.516168916838, 42.5512631137629, -380.181126533161, -54.4589035764611, -352.56794969764, -9.48367810690945, -443.452646223573, -467.077585676255, 117.0319006988, -111.391858391181, -15.0789039205196, 349.514357968007)
-17656.1906461225 -17106.3208900951 103266.9112 08:07:53:373 10 -17656.1906461225 : (-472.980118701497, -400.351695787867, 350.911300206225, 121.435855226848, -128.022916761052, -292.372889191751, -480.318547089098, 33.795931880102, -206.620782588192, -505.28511657899, -423.651650674507, -357.747427782093, -426.105361694626, 396.854271034015, 512, 404.425639320106, 462.385988155262, 471.268426716168, -262.598505119768, -444.833210901246, 364.299416878903, -348.519510005651, -417.298790198039, -355.581210598502, -425.408793210391, 363.683743504056, -353.663718102768, -421.831913906071, -439.211991276225, 413.346239044027, 312.266775515055, -161.649261311465, 216.817525726192, 338.908051887019, 437.457275832751, 450.232820482102, 93.1913807826077, 245.091084832834, -419.174454645801, 503.955648418495, -489.00769232633, 310.712134267535, 473.443031769918, -475.368108255494, 380.08263200339, -267.178479080637, -99.2000077232718, -22.3588063821005, -45.9968345379442, -510.011034487752, -43.7201059068181, 331.782463943484, -301.021190068229, 12.8340675890604, -177.40298637068, -111.589438728797, 502.104107375305, 196.114240499267, -502.980343337627, -9.47210431540015, 437.000268901233, 475.301189882355, -495.111922256235, -116.436123663763, 448.164165943937, -301.061719796183, -353.735397742007, -271.71367204921, 180.516168916838, 42.5512631137628, 190.285313933289, -54.4589035764611, -352.56794969764, -9.48367810690945, -443.452646223573, -467.077585676255, 117.0319006988, -111.391858391181, -15.0789039205196, 349.514357968007)
-17656.1906461225 -17210.3275952838 112522.8061 08:08:02:629 11 -17656.1906461225 : (-472.980118701497, -400.351695787867, 350.911300206225, 121.435855226848, -128.022916761052, -292.372889191751, -480.318547089098, 33.795931880102, -206.620782588192, -505.28511657899, -423.651650674507, -357.747427782093, -426.105361694626, 396.854271034015, 512, 404.425639320106, 462.385988155262, 471.268426716168, -262.598505119768, -444.833210901246, 364.299416878903, -348.519510005651, -417.298790198039, -355.581210598502, -425.408793210391, 363.683743504056, -353.663718102768, -421.831913906071, -439.211991276225, 413.346239044027, 312.266775515055, -161.649261311465, 216.817525726192, 338.908051887019, 437.457275832751, 450.232820482102, 93.1913807826077, 245.091084832834, -419.174454645801, 503.955648418495, -489.00769232633, 310.712134267535, 473.443031769918, -475.368108255494, 380.08263200339, -267.178479080637, -99.2000077232718, -22.3588063821005, -45.9968345379442, -510.011034487752, -43.7201059068181, 331.782463943484, -301.021190068229, 12.8340675890604, -177.40298637068, -111.589438728797, 502.104107375305, 196.114240499267, -502.980343337627, -9.47210431540015, 437.000268901233, 475.301189882355, -495.111922256235, -116.436123663763, 448.164165943937, -301.061719796183, -353.735397742007, -271.71367204921, 180.516168916838, 42.5512631137628, 190.285313933289, -54.4589035764611, -352.56794969764, -9.48367810690945, -443.452646223573, -467.077585676255, 117.0319006988, -111.391858391181, -15.0789039205196, 349.514357968007)
-17656.1906461225 -17310.7636418913 121219.4026 08:08:11:326 12 -17656.1906461225 : (-472.980118701497, -400.351695787867, 350.911300206225, 121.435855226848, -128.022916761052, -292.372889191751, -480.318547089098, 33.795931880102, -206.620782588192, -505.28511657899, -423.651650674507, -357.747427782093, -426.105361694626, 396.854271034015, 512, 404.425639320106, 462.385988155262, 471.268426716168, -262.598505119768, -444.833210901246, 364.299416878903, -348.519510005651, -417.298790198039, -355.581210598502, -425.408793210391, 363.683743504056, -353.663718102768, -421.831913906071, -439.211991276225, 413.346239044027, 312.266775515055, -161.649261311465, 216.817525726192, 338.908051887019, 437.457275832751, 450.232820482102, 93.1913807826077, 245.091084832834, -419.174454645801, 503.955648418495, -489.00769232633, 310.712134267535, 473.443031769918, -475.368108255494, 380.08263200339, -267.178479080637, -99.2000077232718, -22.3588063821005, -45.9968345379442, -510.011034487752, -43.7201059068181, 331.782463943484, -301.021190068229, 12.8340675890604, -177.40298637068, -111.589438728797, 502.104107375305, 196.114240499267, -502.980343337627, -9.47210431540015, 437.000268901233, 475.301189882355, -495.111922256235, -116.436123663763, 448.164165943937, -301.061719796183, -353.735397742007, -271.71367204921, 180.516168916838, 42.5512631137628, 190.285313933289, -54.4589035764611, -352.56794969764, -9.48367810690945, -443.452646223573, -467.077585676255, 117.0319006988, -111.391858391181, -15.0789039205196, 349.514357968007)
-18204.0833089906 -17669.2901412235 131045.332 08:08:21:152 13 -18204.0833089906 : (-472.980118701498, -400.351695787867, 350.911300206225, 121.435855226848, -128.022916761052, -292.372889191751, -480.318547089098, 33.795931880102, -206.620782588192, -505.28511657899, -423.651650674507, -357.747427782093, -426.105361694626, 396.854271034015, 512, 404.425639320106, 462.385988155262, 471.268426716168, -262.598505119768, -444.833210901246, 364.299416878903, -348.519510005651, -417.298790198039, -355.581210598502, -425.408793210391, 363.683743504056, -353.663718102768, -421.831913906071, -439.211991276225, 413.346239044027, 312.266775515055, -161.649261311465, 288.435118571127, 338.908051887019, 437.457275832751, 450.232820482102, -318.605504899568, 245.091084832834, -419.174454645801, 503.955648418495, -489.00769232633, 310.712134267535, 473.443031769918, -475.368108255494, 380.08263200339, 131.235458673553, -99.2000077232718, -22.3588063821005, -133.226146998455, -510.011034487752, -43.7201059068181, 331.782463943484, -301.021190068229, 12.8340675890604, -177.40298637068, -111.589438728797, 502.104107375305, 196.114240499267, 392.042973462512, -9.47210431540015, 437.000268901233, 475.301189882355, -495.111922256235, -116.436123663763, 448.164165943937, -301.061719796183, -353.735397742007, -271.71367204921, 180.516168916838, 42.5512631137629, -380.18112653316, -54.4589035764611, -352.56794969764, -9.48367810690945, -443.452646223573, -467.077585676255, 117.0319006988, -111.391858391181, -15.0789039205196, 349.514357968007)
-18204.0833089906 -17698.0042064249 139916.5109 08:08:30:023 14 -18204.0833089906 : (-472.980118701498, -400.351695787867, 350.911300206225, 121.435855226848, -128.022916761052, -292.372889191751, -480.318547089098, 33.795931880102, -206.620782588192, -505.28511657899, -423.651650674507, -357.747427782093, -426.105361694626, 396.854271034015, 512, 404.425639320106, 462.385988155262, 471.268426716168, -262.598505119768, -444.833210901246, 364.299416878903, -348.519510005651, -417.298790198039, -355.581210598502, -425.408793210391, 363.683743504056, -353.663718102768, -421.831913906071, -439.211991276225, 413.346239044027, 312.266775515055, -161.649261311465, 288.435118571127, 338.908051887019, 437.457275832751, 450.232820482102, -318.605504899568, 245.091084832834, -419.174454645801, 503.955648418495, -489.00769232633, 310.712134267535, 473.443031769918, -475.368108255494, 380.08263200339, 131.235458673553, -99.2000077232718, -22.3588063821005, -133.226146998455, -510.011034487752, -43.7201059068181, 331.782463943484, -301.021190068229, 12.8340675890604, -177.40298637068, -111.589438728797, 502.104107375305, 196.114240499267, 392.042973462512, -9.47210431540015, 437.000268901233, 475.301189882355, -495.111922256235, -116.436123663763, 448.164165943937, -301.061719796183, -353.735397742007, -271.71367204921, 180.516168916838, 42.5512631137629, -380.18112653316, -54.4589035764611, -352.56794969764, -9.48367810690945, -443.452646223573, -467.077585676255, 117.0319006988, -111.391858391181, -15.0789039205196, 349.514357968007)
-18542.9050147153 -17756.1689239908 148241.6166 08:08:38:348 15 -18542.9050147153 : (-472.980118701498, -400.351695787867, 350.911300206225, 121.435855226848, -128.022916761052, -292.372889191751, -480.318547089098, 33.795931880102, -206.620782588192, -505.28511657899, -423.651650674507, -357.747427782093, -426.105361694626, 396.854271034015, 512, 404.425639320106, 462.385988155262, 471.268426716167, -262.598505119768, -444.833210901246, 364.299416878903, -348.519510005651, -417.298790198039, -355.581210598502, -425.408793210391, 363.683743504056, -353.663718102768, -421.831913906071, -439.211991276225, 413.346239044027, 312.266775515055, -161.649261311465, 288.435118571127, 338.908051887019, 437.457275832751, 450.232820482102, 93.1913807826077, 245.091084832834, -419.174454645801, 503.955648418495, -489.00769232633, 310.712134267535, 473.443031769918, -475.368108255494, 380.08263200339, 131.235458673553, -99.2000077232718, -22.3588063821005, -133.226146998455, -510.011034487752, -43.7201059068181, 331.782463943484, -301.021190068229, 12.8340675890604, -177.40298637068, -111.589438728797, 502.104107375305, 196.114240499267, -475.820848448119, -9.47210431540015, 437.000268901233, 475.301189882355, -495.111922256235, -116.436123663763, 448.164165943937, -301.061719796183, -353.735397742007, -271.71367204921, 180.516168916838, 42.5512631137629, -380.18112653316, -54.4589035764611, -352.56794969764, -9.48367810690945, -443.452646223573, -467.077585676255, 117.0319006988, -111.391858391181, -15.0789039205196, 349.514357968007)
-18934.4945027863 -17868.6296934609 158018.7322 08:08:48:125 16 -18934.4945027863 : (-48.7205503888118, 36.5436584401354, 369.642634200946, -369.280944357378, 512, -282.486632988255, 512, -279.858568035037, 285.765786681772, -492.638556701025, -423.651650674507, -357.747427782093, -426.105361694626, 396.854271034015, 512, 404.425639320106, 462.385988155262, 471.268426716168, -262.598505119768, -444.833210901246, 364.299416878903, -348.519510005651, -417.298790198039, -355.581210598502, -425.408793210391, 363.683743504056, -353.663718102768, -421.831913906071, -439.211991276225, 413.346239044027, 312.266775515055, -161.649261311465, 288.435118571127, 338.908051887019, 437.457275832751, 450.232820482102, 93.1913807826077, 245.091084832834, -419.174454645801, 503.955648418495, -489.00769232633, 310.712134267535, 473.443031769918, -475.368108255494, 380.08263200339, 131.235458673553, -99.2000077232718, -22.3588063821005, -133.226146998455, -510.011034487752, -43.7201059068181, 331.782463943484, -301.021190068229, 12.8340675890604, -177.40298637068, -111.589438728797, 502.104107375305, 196.114240499267, 392.042973462512, -9.47210431540015, 437.000268901233, 475.301189882355, -495.111922256235, -116.436123663763, 448.164165943937, -301.061719796183, -353.735397742007, -271.71367204921, 180.516168916838, 42.5512631137629, -380.181126533161, -54.4589035764611, -352.56794969764, -9.48367810690945, -443.452646223573, -467.077585676255, 117.0319006988, -111.391858391181, -15.0789039205196, 349.514357968007)
-19312.1271793215 -18186.8570456864 166961.8784 08:08:57:068 17 -19312.1271793215 : (-472.980118701497, -400.351695787867, 350.911300206225, 121.435855226848, -128.022916761052, -292.372889191751, -480.318547089098, 33.795931880102, -206.620782588192, -505.28511657899, -423.651650674507, -357.747427782093, -426.105361694626, 396.854271034015, 512, 404.425639320106, 462.385988155262, 471.268426716168, -262.598505119768, -444.833210901246, 364.299416878903, -348.519510005651, -417.298790198039, -355.581210598502, -425.408793210391, 363.683743504056, -353.663718102768, -421.831913906071, -439.211991276225, 413.346239044027, 312.266775515055, -161.649261311465, 216.817525726192, 338.908051887019, 437.457275832751, 450.232820482102, 93.1913807826076, 245.091084832834, -419.174454645801, 503.955648418495, -489.007692326329, 310.712134267535, 473.443031769918, -475.368108255494, 380.08263200339, -267.178479080637, -99.2000077232718, -22.3588063821005, -45.9968345379442, -510.011034487752, -43.7201059068181, 331.782463943484, -301.021190068229, 12.8340675890604, -177.40298637068, -111.589438728797, 502.104107375305, 196.114240499267, -502.980343337627, -9.47210431540015, 437.000268901233, 475.301189882355, -299.287220379006, -116.436123663763, 448.164165943937, -301.061719796183, -353.735397742007, -271.71367204921, 180.516168916838, 42.5512631137628, 190.285313933289, -54.4589035764611, -352.56794969764, -9.48367810690945, -443.452646223573, -467.077585676255, 117.0319006988, -111.391858391181, -15.0789039205196, 349.514357968007)
-19388.8795877156 -19315.9647997412 176112.5953 08:09:06:219 18 -19388.8795877156 : (-472.980118701497, -400.351695787867, 350.911300206225, 121.435855226848, -128.022916761052, -292.372889191751, -470.7888660239, 33.795931880102, -206.620782588192, -505.28511657899, -423.651650674507, -357.747427782093, -426.105361694626, 396.854271034015, 512, 404.425639320106, 462.385988155262, 471.268426716168, -262.598505119767, -444.833210901246, 364.299416878903, -348.519510005651, -417.298790198039, -355.581210598502, -425.408793210391, 363.683743504056, -353.663718102768, -421.831913906071, -439.211991276225, 413.346239044026, 312.266775515055, -161.649261311465, 216.817525726192, 338.908051887018, 437.457275832751, 450.232820482101, 93.1913807826076, 245.091084832834, -419.1744546458, 503.955648418495, -489.007692326329, 310.712134267535, 473.443031769918, -475.368108255494, 380.08263200339, -267.178479080637, -99.2000077232718, -22.3588063821005, -45.9968345379442, -510.011034487751, -43.7201059068181, 331.782463943484, -301.021190068229, 12.8340675890604, -177.40298637068, -111.589438728797, 502.104107375305, 196.114240499267, -502.980343337627, -9.47210431540014, 437.000268901233, 475.301189882355, -299.287220379006, -116.436123663763, 448.164165943937, -301.061719796183, -353.735397742006, -271.71367204921, 180.516168916838, 42.5512631137628, 190.285313933289, -54.458903576461, -352.56794969764, -9.48367810690944, -443.452646223573, -467.077585676255, 117.0319006988, -111.39185839118, -15.0789039205196, 349.514357968007)
-19632.3926986632 -19349.4791237591 185617.3496 08:09:15:724 19 -19632.3926986632 : (-472.980118701497, -400.351695787867, 350.911300206225, 121.435855226848, -128.022916761052, -292.372889191751, -480.318547089098, 33.795931880102, -206.620782588192, -505.28511657899, -423.651650674507, -357.747427782093, -426.105361694626, 396.854271034015, 512, 404.425639320106, 462.385988155262, 471.268426716168, -262.598505119767, -444.833210901246, 364.299416878903, -348.519510005651, -417.298790198039, -355.581210598502, -425.408793210391, 363.683743504056, -353.663718102768, -421.831913906071, -439.211991276225, 413.346239044026, -413.502621604829, -161.649261311465, 216.817525726192, 338.908051887018, 437.457275832751, 450.232820482102, 93.1913807826076, 245.091084832834, -419.1744546458, 503.955648418495, -489.007692326329, 310.712134267535, 473.443031769918, -475.368108255494, 380.08263200339, -267.178479080637, -99.2000077232718, -22.3588063821005, -45.9968345379442, -510.011034487752, -43.7201059068181, 331.782463943484, -301.021190068229, 12.8340675890604, -177.40298637068, -111.589438728797, 502.104107375305, 196.114240499267, -502.980343337627, -9.47210431540014, 437.000268901233, 475.301189882355, -299.287220379006, -116.436123663763, 448.164165943937, -301.061719796183, -353.735397742006, -271.71367204921, 180.516168916838, 42.5512631137628, 190.285313933289, -54.4589035764611, -352.56794969764, -9.48367810690945, -443.452646223573, -467.077585676255, 117.0319006988, -111.391858391181, -15.0789039205196, 349.514357968007)
-19767.7172010974 -19376.4520096145 194962.5284 08:09:25:069 20 -19767.7172010974 : (-472.980118701497, -400.351695787867, 350.911300206225, 121.435855226848, -128.022916761052, -292.372889191751, -480.318547089098, 33.795931880102, -206.620782588192, -505.28511657899, -423.651650674507, -357.747427782093, -426.105361694626, 396.854271034015, 512, 404.425639320106, 462.385988155262, 471.268426716168, -262.598505119767, -444.833210901246, 364.299416878903, -348.519510005651, -417.298790198039, -355.581210598502, -425.408793210391, 363.683743504056, -353.663718102768, -421.831913906071, -439.211991276225, 413.346239044026, 312.266775515055, -161.649261311465, 216.817525726192, 338.908051887018, 437.457275832751, 450.232820482102, 93.1913807826076, 245.091084832834, -419.1744546458, 503.955648418495, -489.007692326329, 310.712134267535, 473.443031769918, -475.368108255494, 380.08263200339, -267.178479080637, -99.2000077232718, -22.3588063821005, -45.9968345379442, -510.011034487752, -43.7201059068181, 331.782463943484, -301.021190068229, -264.891082171766, -177.40298637068, -111.589438728797, 502.104107375305, 196.114240499267, -502.980343337627, -9.47210431540014, 437.000268901233, 475.301189882355, -299.287220379006, -116.436123663763, 448.164165943937, -301.061719796183, -353.735397742006, -271.71367204921, 180.516168916838, -301.497314355102, 190.285313933289, -54.4589035764611, -352.56794969764, -9.48367810690945, -443.452646223573, -467.077585676255, 117.0319006988, -111.391858391181, -15.0789039205196, 349.514357968007)
-19837.5906350388 -19445.6222651254 203930.8778 08:09:34:037 21 -19837.5906350388 : (-472.980118701497, -400.351695787867, 350.911300206225, 121.435855226848, -128.022916761052, -292.372889191751, -480.318547089097, 33.795931880102, -206.620782588192, -505.28511657899, -423.651650674507, -357.747427782093, -426.105361694626, 396.854271034015, 512, 404.425639320106, 462.385988155262, 471.268426716168, -262.598505119768, -444.833210901246, 364.299416878903, -348.519510005651, -417.298790198039, -355.581210598502, -425.408793210391, 363.683743504056, -353.663718102768, -421.831913906071, -439.211991276225, 413.346239044026, 312.266775515055, -161.649261311465, 216.817525726192, 338.908051887019, 437.457275832751, 450.232820482102, 93.1913807826076, 245.091084832834, -419.1744546458, -390.363921585662, -489.007692326329, 310.712134267535, 473.443031769918, -475.368108255494, 380.08263200339, -267.178479080637, -99.2000077232718, -22.3588063821005, -45.9968345379442, -510.011034487752, -43.7201059068181, 331.782463943484, -301.021190068229, 12.8340675890604, -177.40298637068, -111.589438728797, 502.104107375305, 196.114240499267, -502.980343337627, -9.47210431540014, 437.000268901233, 475.301189882355, -299.287220379006, -116.436123663763, 448.164165943937, -301.061719796183, -353.735397742007, -271.71367204921, 180.516168916838, 42.5512631137628, 190.285313933289, -54.4589035764611, -352.56794969764, -9.48367810690945, -443.452646223573, -467.077585676255, 117.0319006988, -111.391858391181, -15.0789039205196, 349.514357968007)
-19837.5906350388 -19837.5906350388 212085.1796 08:09:42:192 22 -19837.5906350388 : (-472.980118701497, -400.351695787867, 350.911300206225, 121.435855226848, -128.022916761052, -292.372889191751, -480.318547089097, 33.795931880102, -206.620782588192, -505.28511657899, -423.651650674507, -357.747427782093, -426.105361694626, 396.854271034015, 512, 404.425639320106, 462.385988155262, 471.268426716168, -262.598505119768, -444.833210901246, 364.299416878903, -348.519510005651, -417.298790198039, -355.581210598502, -425.408793210391, 363.683743504056, -353.663718102768, -421.831913906071, -439.211991276225, 413.346239044026, 312.266775515055, -161.649261311465, 216.817525726192, 338.908051887019, 437.457275832751, 450.232820482102, 93.1913807826076, 245.091084832834, -419.1744546458, -390.363921585662, -489.007692326329, 310.712134267535, 473.443031769918, -475.368108255494, 380.08263200339, -267.178479080637, -99.2000077232718, -22.3588063821005, -45.9968345379442, -510.011034487752, -43.7201059068181, 331.782463943484, -301.021190068229, 12.8340675890604, -177.40298637068, -111.589438728797, 502.104107375305, 196.114240499267, -502.980343337627, -9.47210431540014, 437.000268901233, 475.301189882355, -299.287220379006, -116.436123663763, 448.164165943937, -301.061719796183, -353.735397742007, -271.71367204921, 180.516168916838, 42.5512631137628, 190.285313933289, -54.4589035764611, -352.56794969764, -9.48367810690945, -443.452646223573, -467.077585676255, 117.0319006988, -111.391858391181, -15.0789039205196, 349.514357968007)
-20048.8523013326 -19848.1537183534 219886.4349 08:09:49:993 23 -20048.8523013326 : (-472.980118701497, -400.351695787867, 350.911300206225, 121.435855226848, -128.022916761052, -292.372889191751, -480.318547089097, 33.795931880102, 333.088734543458, -505.28511657899, -423.651650674507, -357.747427782093, -426.105361694626, 396.854271034015, 512, 404.425639320106, 462.385988155262, 471.268426716168, -262.598505119768, -444.833210901246, 364.299416878903, -348.519510005651, -417.298790198039, -355.581210598502, -425.408793210391, 363.683743504056, -353.663718102768, -421.831913906071, -439.211991276225, 413.346239044026, 312.266775515055, -161.649261311465, 216.817525726192, 338.908051887019, 437.457275832751, 450.232820482102, 93.1913807826076, 245.091084832834, -419.1744546458, -390.363921585662, -489.007692326329, 310.712134267535, 473.443031769918, -475.368108255494, 380.08263200339, -267.178479080637, -99.2000077232718, -22.3588063821005, -45.9968345379442, -510.011034487752, -43.7201059068181, 331.782463943484, -301.021190068229, 12.8340675890604, -177.40298637068, -111.589438728797, 502.104107375305, 196.114240499267, -502.980343337627, -9.47210431540014, 437.000268901233, 475.301189882355, -299.287220379006, -116.436123663763, 448.164165943937, -301.061719796183, -353.735397742007, -271.71367204921, 180.516168916838, 42.5512631137628, 190.285313933289, -54.4589035764611, -352.56794969764, -9.48367810690945, -443.452646223573, -467.077585676255, 117.0319006988, -111.391858391181, -15.0789039205196, 349.514357968007)
-20048.8523013326 -19848.1537183534 228547.2404 08:09:58:654 24 -20048.8523013326 : (-472.980118701497, -400.351695787867, 350.911300206225, 121.435855226848, -128.022916761052, -292.372889191751, -480.318547089097, 33.795931880102, 333.088734543458, -505.28511657899, -423.651650674507, -357.747427782093, -426.105361694626, 396.854271034015, 512, 404.425639320106, 462.385988155262, 471.268426716168, -262.598505119768, -444.833210901246, 364.299416878903, -348.519510005651, -417.298790198039, -355.581210598502, -425.408793210391, 363.683743504056, -353.663718102768, -421.831913906071, -439.211991276225, 413.346239044026, 312.266775515055, -161.649261311465, 216.817525726192, 338.908051887019, 437.457275832751, 450.232820482102, 93.1913807826076, 245.091084832834, -419.1744546458, -390.363921585662, -489.007692326329, 310.712134267535, 473.443031769918, -475.368108255494, 380.08263200339, -267.178479080637, -99.2000077232718, -22.3588063821005, -45.9968345379442, -510.011034487752, -43.7201059068181, 331.782463943484, -301.021190068229, 12.8340675890604, -177.40298637068, -111.589438728797, 502.104107375305, 196.114240499267, -502.980343337627, -9.47210431540014, 437.000268901233, 475.301189882355, -299.287220379006, -116.436123663763, 448.164165943937, -301.061719796183, -353.735397742007, -271.71367204921, 180.516168916838, 42.5512631137628, 190.285313933289, -54.4589035764611, -352.56794969764, -9.48367810690945, -443.452646223573, -467.077585676255, 117.0319006988, -111.391858391181, -15.0789039205196, 349.514357968007)
-20074.6678060345 -19862.3571017142 236706.3684 08:10:06:813 25 -20074.6678060345 : (-472.980118701497, -400.351695787867, 350.911300206225, 121.435855226848, -128.022916761052, -292.372889191751, -480.318547089097, 33.795931880102, -206.620782588192, -505.28511657899, -423.651650674507, -357.747427782093, -426.105361694626, 396.854271034015, 512, 404.425639320106, 462.385988155262, 471.268426716168, -262.598505119768, -444.833210901246, 364.299416878903, -348.519510005651, -417.298790198039, -355.581210598502, -425.408793210391, 363.683743504056, -353.663718102768, -421.831913906071, -439.211991276225, 413.346239044026, 312.266775515055, -161.649261311465, 216.817525726192, 338.908051887019, 437.457275832751, 450.232820482102, 93.1913807826076, 245.091084832834, -419.1744546458, -390.363921585662, -489.007692326329, 310.712134267535, 473.443031769918, -475.368108255494, 380.08263200339, -267.178479080637, -99.2000077232718, -22.3588063821005, -45.9968345379442, -510.011034487752, -43.7201059068181, 331.782463943484, -301.021190068229, 12.8340675890604, -177.40298637068, -111.589438728797, 502.104107375305, 196.114240499267, -502.980343337627, -9.47210431540014, 437.000268901233, 475.301189882355, -299.287220379006, 321.419769198364, 448.164165943937, -301.061719796183, -353.735397742007, -271.71367204921, 180.516168916838, 42.5512631137628, 190.285313933289, -54.4589035764611, -352.56794969764, -9.48367810690945, -443.452646223573, -467.077585676255, 117.0319006988, -111.391858391181, -15.0789039205196, 349.514357968007)
-20590.1120362663 -19965.5768104934 244651.5682 08:10:14:758 26 -20590.1120362663 : (-472.980118701497, -400.351695787867, 350.911300206225, 121.435855226848, -128.022916761052, -292.372889191751, -480.318547089097, 33.795931880102, -206.620782588192, -505.28511657899, -423.651650674507, -357.747427782093, -426.105361694626, 396.854271034015, 512, 404.425639320106, 462.385988155262, 471.268426716168, -262.598505119768, -444.833210901246, 364.299416878903, -348.519510005651, -417.298790198039, -355.581210598502, -425.408793210391, 363.683743504056, -353.663718102768, -421.831913906071, -439.211991276225, 413.346239044026, 312.266775515055, -161.649261311465, 216.817525726192, 338.908051887019, 437.457275832751, 450.232820482102, 93.1913807826076, 245.091084832834, -419.1744546458, -390.363921585662, -489.007692326329, 310.712134267535, 473.443031769918, -475.368108255494, 380.08263200339, -267.178479080637, -99.2000077232718, -22.3588063821005, -45.9968345379442, -510.011034487752, -43.7201059068181, 331.782463943484, -301.021190068229, 12.8340675890604, -177.40298637068, -111.589438728797, 502.104107375305, 196.114240499267, -502.980343337627, -9.47210431540014, 437.000268901233, 475.301189882355, -299.287220379006, -116.436123663763, 448.164165943937, -301.061719796183, 212.254783967629, -271.71367204921, 180.516168916838, 42.5512631137628, 190.285313933289, -54.4589035764611, -352.56794969764, -9.48367810690945, -443.452646223573, -467.077585676255, 117.0319006988, -111.391858391181, -15.0789039205196, 349.514357968007)
-20590.1120362663 -20047.7528767023 253302.5534 08:10:23:409 27 -20590.1120362663 : (-472.980118701497, -400.351695787867, 350.911300206225, 121.435855226848, -128.022916761052, -292.372889191751, -480.318547089097, 33.795931880102, -206.620782588192, -505.28511657899, -423.651650674507, -357.747427782093, -426.105361694626, 396.854271034015, 512, 404.425639320106, 462.385988155262, 471.268426716168, -262.598505119768, -444.833210901246, 364.299416878903, -348.519510005651, -417.298790198039, -355.581210598502, -425.408793210391, 363.683743504056, -353.663718102768, -421.831913906071, -439.211991276225, 413.346239044026, 312.266775515055, -161.649261311465, 216.817525726192, 338.908051887019, 437.457275832751, 450.232820482102, 93.1913807826076, 245.091084832834, -419.1744546458, -390.363921585662, -489.007692326329, 310.712134267535, 473.443031769918, -475.368108255494, 380.08263200339, -267.178479080637, -99.2000077232718, -22.3588063821005, -45.9968345379442, -510.011034487752, -43.7201059068181, 331.782463943484, -301.021190068229, 12.8340675890604, -177.40298637068, -111.589438728797, 502.104107375305, 196.114240499267, -502.980343337627, -9.47210431540014, 437.000268901233, 475.301189882355, -299.287220379006, -116.436123663763, 448.164165943937, -301.061719796183, 212.254783967629, -271.71367204921, 180.516168916838, 42.5512631137628, 190.285313933289, -54.4589035764611, -352.56794969764, -9.48367810690945, -443.452646223573, -467.077585676255, 117.0319006988, -111.391858391181, -15.0789039205196, 349.514357968007)
-20998.840124511 -20194.3863686642 261137.781 08:10:31:244 28 -20998.840124511 : (-472.980118701497, -400.351695787867, 350.911300206225, 121.435855226848, -128.022916761052, -292.372889191751, -480.318547089097, 33.795931880102, -206.620782588192, -505.28511657899, -423.651650674507, -357.747427782093, -426.105361694626, 396.854271034015, 512, 404.425639320106, 462.385988155262, 471.268426716168, -262.598505119768, -444.833210901246, 364.299416878903, -348.519510005651, -417.298790198039, -355.581210598502, -425.408793210391, 363.683743504056, -353.663718102768, -421.831913906071, -439.211991276225, 413.346239044026, 312.266775515055, -161.649261311465, 216.817525726192, 338.908051887019, 437.457275832751, 450.232820482102, 93.1913807826076, 245.091084832834, -419.1744546458, -390.363921585662, -489.007692326329, 310.712134267535, 473.443031769918, -475.368108255494, 380.08263200339, -267.178479080637, -99.2000077232718, -22.3588063821005, -45.9968345379442, -510.011034487752, -43.7201059068181, 331.782463943484, -301.021190068229, 12.8340675890604, -177.40298637068, -111.589438728797, 502.104107375305, 196.114240499267, -502.980343337627, -9.47210431540014, 437.000268901233, 475.301189882355, -299.287220379006, -116.436123663763, 448.164165943937, -301.061719796183, 212.254783967629, -271.71367204921, 180.516168916838, 42.5512631137628, 190.285313933289, -54.4589035764611, -352.56794969764, -9.48367810690945, -443.452646223573, 399.462954468775, 117.0319006988, -111.391858391181, -15.0789039205196, 349.514357968007)
-20998.840124511 -20444.6924812295 270341.547 08:10:40:448 29 -20998.840124511 : (-472.980118701497, -400.351695787867, 350.911300206225, 121.435855226848, -128.022916761052, -292.372889191751, -480.318547089097, 33.795931880102, -206.620782588192, -505.28511657899, -423.651650674507, -357.747427782093, -426.105361694626, 396.854271034015, 512, 404.425639320106, 462.385988155262, 471.268426716168, -262.598505119768, -444.833210901246, 364.299416878903, -348.519510005651, -417.298790198039, -355.581210598502, -425.408793210391, 363.683743504056, -353.663718102768, -421.831913906071, -439.211991276225, 413.346239044026, 312.266775515055, -161.649261311465, 216.817525726192, 338.908051887019, 437.457275832751, 450.232820482102, 93.1913807826076, 245.091084832834, -419.1744546458, -390.363921585662, -489.007692326329, 310.712134267535, 473.443031769918, -475.368108255494, 380.08263200339, -267.178479080637, -99.2000077232718, -22.3588063821005, -45.9968345379442, -510.011034487752, -43.7201059068181, 331.782463943484, -301.021190068229, 12.8340675890604, -177.40298637068, -111.589438728797, 502.104107375305, 196.114240499267, -502.980343337627, -9.47210431540014, 437.000268901233, 475.301189882355, -299.287220379006, -116.436123663763, 448.164165943937, -301.061719796183, 212.254783967629, -271.71367204921, 180.516168916838, 42.5512631137628, 190.285313933289, -54.4589035764611, -352.56794969764, -9.48367810690945, -443.452646223573, 399.462954468775, 117.0319006988, -111.391858391181, -15.0789039205196, 349.514357968007)
-21042.4996499671 -20543.5208863407 278929.8361 08:10:49:036 30 -21042.4996499671 : (-472.980118701497, -400.351695787867, 350.911300206225, 121.435855226848, -128.022916761052, -292.372889191751, -480.318547089097, 33.795931880102, -206.620782588192, -505.28511657899, -423.651650674507, -357.747427782093, -426.105361694626, 396.854271034015, 512, 404.425639320106, 462.385988155262, 471.268426716168, -262.598505119768, -444.833210901246, 364.299416878903, -348.519510005651, -417.298790198039, -355.581210598502, -425.408793210391, 363.683743504056, -353.663718102768, -421.831913906071, -439.211991276225, 413.346239044026, -387.009324015588, -161.649261311465, 216.817525726192, 338.908051887019, 437.457275832751, 450.232820482102, 93.1913807826076, 245.091084832834, -419.1744546458, -390.363921585662, -489.007692326329, 310.712134267535, 473.443031769918, -475.368108255494, 380.08263200339, -267.178479080637, -99.2000077232718, -22.3588063821005, -45.9968345379442, -510.011034487752, -43.7201059068181, 331.782463943484, -301.021190068229, 12.8340675890604, -177.40298637068, -111.589438728797, 502.104107375305, 196.114240499267, -502.980343337627, -9.47210431540014, 437.000268901233, 475.301189882355, -299.287220379006, -116.436123663763, 448.164165943937, -301.061719796183, -94.5068233453235, -271.71367204921, 180.516168916838, 42.5512631137628, 190.285313933289, -54.4589035764611, -352.56794969764, -9.48367810690945, -443.452646223573, -467.077585676255, 117.0319006988, -111.391858391181, -15.0789039205196, 349.514357968007)
-21042.4996499671 -20618.5076232129 286871.8358 08:10:56:978 31 -21042.4996499671 : (-472.980118701497, -400.351695787867, 350.911300206225, 121.435855226848, -128.022916761052, -292.372889191751, -480.318547089097, 33.795931880102, -206.620782588192, -505.28511657899, -423.651650674507, -357.747427782093, -426.105361694626, 396.854271034015, 512, 404.425639320106, 462.385988155262, 471.268426716168, -262.598505119768, -444.833210901246, 364.299416878903, -348.519510005651, -417.298790198039, -355.581210598502, -425.408793210391, 363.683743504056, -353.663718102768, -421.831913906071, -439.211991276225, 413.346239044026, -387.009324015588, -161.649261311465, 216.817525726192, 338.908051887019, 437.457275832751, 450.232820482102, 93.1913807826076, 245.091084832834, -419.1744546458, -390.363921585662, -489.007692326329, 310.712134267535, 473.443031769918, -475.368108255494, 380.08263200339, -267.178479080637, -99.2000077232718, -22.3588063821005, -45.9968345379442, -510.011034487752, -43.7201059068181, 331.782463943484, -301.021190068229, 12.8340675890604, -177.40298637068, -111.589438728797, 502.104107375305, 196.114240499267, -502.980343337627, -9.47210431540014, 437.000268901233, 475.301189882355, -299.287220379006, -116.436123663763, 448.164165943937, -301.061719796183, -94.5068233453235, -271.71367204921, 180.516168916838, 42.5512631137628, 190.285313933289, -54.4589035764611, -352.56794969764, -9.48367810690945, -443.452646223573, -467.077585676255, 117.0319006988, -111.391858391181, -15.0789039205196, 349.514357968007)
-21042.4996499671 -20669.549205584 295038.8576 08:11:05:145 32 -21042.4996499671 : (-472.980118701497, -400.351695787867, 350.911300206225, 121.435855226848, -128.022916761052, -292.372889191751, -480.318547089097, 33.795931880102, -206.620782588192, -505.28511657899, -423.651650674507, -357.747427782093, -426.105361694626, 396.854271034015, 512, 404.425639320106, 462.385988155262, 471.268426716168, -262.598505119768, -444.833210901246, 364.299416878903, -348.519510005651, -417.298790198039, -355.581210598502, -425.408793210391, 363.683743504056, -353.663718102768, -421.831913906071, -439.211991276225, 413.346239044026, -387.009324015588, -161.649261311465, 216.817525726192, 338.908051887019, 437.457275832751, 450.232820482102, 93.1913807826076, 245.091084832834, -419.1744546458, -390.363921585662, -489.007692326329, 310.712134267535, 473.443031769918, -475.368108255494, 380.08263200339, -267.178479080637, -99.2000077232718, -22.3588063821005, -45.9968345379442, -510.011034487752, -43.7201059068181, 331.782463943484, -301.021190068229, 12.8340675890604, -177.40298637068, -111.589438728797, 502.104107375305, 196.114240499267, -502.980343337627, -9.47210431540014, 437.000268901233, 475.301189882355, -299.287220379006, -116.436123663763, 448.164165943937, -301.061719796183, -94.5068233453235, -271.71367204921, 180.516168916838, 42.5512631137628, 190.285313933289, -54.4589035764611, -352.56794969764, -9.48367810690945, -443.452646223573, -467.077585676255, 117.0319006988, -111.391858391181, -15.0789039205196, 349.514357968007)
