-899.848416526887 110.302384381331 0 23:10:20:143 1 -899.848416526887 : (-144.910721131093, 491.749325265991, 33.3382117903503, 384.887593686994, -19.3560741037857)
-3446.27851989486 -3421.23947494983 1010.5242 23:10:21:106 37 -3446.27851989486 : (354.860735639394, 512, 406.692114227811, 423.150144800985, 439.391754026086)
-3452.75795182419 -3452.75795182419 2081.5844 23:10:22:178 52 -3452.75795182419 : (355.764549394005, 512, 407.139213315361, 423.846177060085, 439.391754026086)
-3452.75795182419 -3452.75795182419 3096.6436 23:10:23:193 68 -3452.75795182419 : (355.764549394005, 512, 407.139213315361, 423.846177060085, 439.391754026086)
-3483.23750505017 -3482.1065068195 4100.7011 23:10:24:197 82 -3483.23750505017 : (355.764549394005, 512, 409.657832341003, 430.462154794877, 446.823819605251)
-3483.23750505017 -3483.23750505017 5152.7632 23:10:25:249 98 -3483.23750505017 : (355.764549394005, 512, 409.657832341003, 430.462154794877, 446.823819605251)
-3483.23750505017 -3483.23750505017 6159.8376 23:10:26:256 113 -3483.23750505017 : (355.764549394005, 512, 409.657832341003, 430.462154794877, 446.823819605251)
-3483.23750505017 -3483.23750505017 7185.8802 23:10:27:282 130 -3483.23750505017 : (355.764549394005, 512, 409.657832341003, 430.462154794877, 446.823819605251)
-3483.23750505017 -3483.23750505017 8187.607 23:10:28:284 151 -3483.23750505017 : (355.764549394005, 512, 409.657832341003, 430.462154794877, 446.823819605251)
-3483.23750505017 -3483.23750505017 9231.6697 23:10:29:328 171 -3483.23750505017 : (355.764549394005, 512, 409.657832341003, 430.462154794877, 446.823819605251)
-3483.23750505017 -3483.23750505017 10241.7102 23:10:30:338 190 -3483.23750505017 : (355.764549394005, 512, 409.657832341003, 430.462154794877, 446.823819605251)
-3483.23750505017 -3483.23750505017 11269.7695 23:10:31:366 211 -3483.23750505017 : (355.764549394005, 512, 409.657832341003, 430.462154794877, 446.823819605251)
-3483.23750505017 -3483.23750505017 12281.8272 23:10:32:378 231 -3483.23750505017 : (355.764549394005, 512, 409.657832341003, 430.462154794877, 446.823819605251)
-3483.23750505017 -3483.23750505017 13301.888 23:10:33:398 250 -3483.23750505017 : (355.764549394005, 512, 409.657832341003, 430.462154794877, 446.823819605251)
-3656.33654611087 -3656.33654611087 14320.9456 23:10:34:417 290 -3656.33654611087 : (441.890351605318, 457.374872969366, 474.919765688999, 430.462154794877, 446.82381960525)
-3656.33654611088 -3656.33654611088 15334.0193 23:10:35:430 326 -3656.33654611088 : (441.890351605322, 457.374872969366, 474.919765688999, 430.462154794877, 446.82381960525)
-3656.33654611088 -3656.33654611088 16342.0777 23:10:36:438 373 -3656.33654611088 : (441.890351605322, 457.374872969366, 474.919765688999, 430.462154794877, 446.82381960525)
-3656.33654611088 -3656.33654611088 17368.1365 23:10:37:464 407 -3656.33654611088 : (441.890351605325, 457.374872969366, 474.919765688999, 430.462154794877, 446.82381960525)
-3656.42791041489 -3656.42791041489 18409.1836 23:10:38:505 470 -3656.42791041489 : (441.890351605325, 457.374872969366, 474.919765688999, 430.462154794877, 445.652538745502)
-3656.42791041489 -3656.42791041489 19412.2416 23:10:39:508 546 -3656.42791041489 : (441.890351605325, 457.374872969366, 474.919765688999, 430.462154794877, 445.652538745502)
-3656.67352449287 -3656.47703323049 20414.2981 23:10:40:510 624 -3656.67352449287 : (441.890351605325, 457.374872969366, 474.919765688999, 430.462154794877, 446.375540702779)
-3656.67352449287 -3656.67352449287 21421.3546 23:10:41:517 703 -3656.67352449287 : (441.890351605325, 457.374872969366, 474.919765688999, 430.462154794877, 446.375540702779)
-3656.67352449287 -3656.67352449287 22446.4371 23:10:42:542 767 -3656.67352449287 : (441.890351605325, 457.374872969366, 474.919765688999, 430.462154794877, 446.375540702779)
-3656.67352449287 -3656.67352449287 23449.4746 23:10:43:545 848 -3656.67352449287 : (441.890351605325, 457.374872969366, 474.919765688999, 430.462154794877, 446.375540702779)
-3657.87880684043 -3657.87880684043 24449.5306 23:10:44:545 899 -3657.87880684043 : (443.223371281693, 458.133939958592, 474.919765688999, 430.462154794877, 446.375540702779)
-3657.87880684043 -3657.87880684043 25464.6057 23:10:45:561 946 -3657.87880684043 : (443.223371281693, 458.133939958592, 474.919765688999, 430.462154794877, 446.375540702779)
-3657.87880684043 -3657.87880684043 26478.6462 23:10:46:575 993 -3657.87880684043 : (443.223371281693, 458.133939958592, 474.919765688999, 430.462154794877, 446.375540702779)
-3657.87880684043 -3657.87880684043 27481.7051 23:10:47:578 1041 -3657.87880684043 : (443.223371281693, 458.133939958592, 474.919765688999, 430.462154794877, 446.375540702779)
-3657.87880684043 -3657.87880684043 28496.7626 23:10:48:593 1086 -3657.87880684043 : (443.223371281693, 458.133939958592, 474.919765688999, 430.462154794877, 446.375540702779)
-3657.87880684043 -3657.87880684043 29498.8213 23:10:49:595 1128 -3657.87880684043 : (443.223371281693, 458.133939958592, 474.919765688999, 430.462154794877, 446.375540702779)
-3657.87880684043 -3657.87880684043 30560.8828 23:10:50:657 1175 -3657.87880684043 : (443.223371281693, 458.133939958592, 474.919765688999, 430.462154794877, 446.375540702779)
-3657.87880684043 -3657.87880684043 31578.9402 23:10:51:675 1225 -3657.87880684043 : (443.223371281693, 458.133939958592, 474.919765688999, 430.462154794877, 446.375540702779)
-3657.87880684043 -3657.87880684043 32595.0017 23:10:52:691 1272 -3657.87880684043 : (443.223371281693, 458.133939958592, 474.919765688999, 430.462154794877, 446.375540702779)
-3657.87880684043 -3657.87880684043 33609.0598 23:10:53:705 1314 -3657.87880684043 : (443.223371281693, 458.133939958592, 474.919765688999, 430.462154794877, 446.375540702779)
-3657.87880684043 -3657.87880684043 34627.1164 23:10:54:723 1360 -3657.87880684043 : (443.223371281693, 458.133939958592, 474.919765688999, 430.462154794877, 446.375540702779)
-3657.87880684043 -3657.87880684043 35633.1918 23:10:55:729 1407 -3657.87880684043 : (443.223371281693, 458.133939958592, 474.919765688999, 430.462154794877, 446.375540702779)
-3657.87880684043 -3657.87880684043 36640.2319 23:10:56:736 1455 -3657.87880684043 : (443.223371281693, 458.133939958592, 474.919765688999, 430.462154794877, 446.375540702779)
-3657.87880684043 -3657.87880684043 37640.3068 23:10:57:736 1502 -3657.87880684043 : (443.223371281693, 458.133939958592, 474.919765688999, 430.462154794877, 446.375540702779)
-3657.89045332346 -3657.89045332346 38642.3479 23:10:58:738 1550 -3657.89045332346 : (443.223371281693, 458.133939958592, 474.919765688999, 430.462154794877, 446.053300826835)
-3657.89045332346 -3657.89045332346 39643.4071 23:10:59:739 1596 -3657.89045332346 : (443.223371281693, 458.133939958592, 474.919765688999, 430.462154794877, 446.053300826835)
-3657.89045332346 -3657.89045332346 40647.4804 23:11:00:743 1637 -3657.89045332346 : (443.223371281693, 458.133939958592, 474.919765688999, 430.462154794877, 446.053300826835)
-3657.89045332346 -3657.89045332346 41674.5395 23:11:01:770 1680 -3657.89045332346 : (443.223371281693, 458.133939958592, 474.919765688999, 430.462154794877, 446.053300826835)
-3657.89045332346 -3657.89045332346 42687.5807 23:11:02:783 1730 -3657.89045332346 : (443.223371281693, 458.133939958592, 474.919765688999, 430.462154794877, 446.053300826835)
-3657.89045332346 -3657.89045332346 43688.6583 23:11:03:785 1773 -3657.89045332346 : (443.223371281693, 458.133939958592, 474.919765688999, 430.462154794877, 446.053300826835)
-3657.89045332346 -3657.89045332346 44693.6963 23:11:04:790 1821 -3657.89045332346 : (443.223371281693, 458.133939958592, 474.919765688999, 430.462154794877, 446.053300826835)
-3657.89045332346 -3657.89045332346 45734.7592 23:11:05:831 1865 -3657.89045332346 : (443.223371281693, 458.133939958592, 474.919765688999, 430.462154794877, 446.053300826835)
-3657.89045332346 -3657.89045332346 46739.8168 23:11:06:836 1915 -3657.89045332346 : (443.223371281693, 458.133939958592, 474.919765688999, 430.462154794877, 446.053300826835)
-3657.89045332346 -3657.89045332346 47745.8722 23:11:07:842 1963 -3657.89045332346 : (443.223371281693, 458.133939958592, 474.919765688999, 430.462154794877, 446.053300826835)
-3657.89045332346 -3657.89045332346 48761.9325 23:11:08:858 2009 -3657.89045332346 : (443.223371281693, 458.133939958592, 474.919765688999, 430.462154794877, 446.053300826835)
-3657.89045332346 -3657.89045332346 49771.3169 23:11:09:867 2056 -3657.89045332346 : (443.223371281693, 458.133939958592, 474.919765688999, 430.462154794877, 446.053300826835)
-3657.89045332346 -3657.89045332346 50789.6275 23:11:10:886 2106 -3657.89045332346 : (443.223371281693, 458.133939958592, 474.919765688999, 430.462154794877, 446.053300826835)
-3657.89045332346 -3657.89045332346 51790.5772 23:11:11:886 2156 -3657.89045332346 : (443.223371281693, 458.133939958592, 474.919765688999, 430.462154794877, 446.053300826835)
-3657.89045332346 -3657.89045332346 52797.5186 23:11:12:893 2205 -3657.89045332346 : (443.223371281693, 458.133939958592, 474.919765688999, 430.462154794877, 446.053300826835)
-3657.89045332346 -3657.89045332346 53797.8513 23:11:13:894 2255 -3657.89045332346 : (443.223371281693, 458.133939958592, 474.919765688999, 430.462154794877, 446.053300826835)
-3657.89045332346 -3657.89045332346 54805.8567 23:11:14:902 2308 -3657.89045332346 : (443.223371281693, 458.133939958592, 474.919765688999, 430.462154794877, 446.053300826835)
-3657.89045332346 -3657.89045332346 55814.3756 23:11:15:910 2355 -3657.89045332346 : (443.223371281693, 458.133939958592, 474.919765688999, 430.462154794877, 446.053300826835)
-3657.89045332346 -3657.89045332346 56824.1758 23:11:16:920 2397 -3657.89045332346 : (443.223371281693, 458.133939958592, 474.919765688999, 430.462154794877, 446.053300826835)
-3657.89045332346 -3657.89045332346 57847.2134 23:11:17:943 2448 -3657.89045332346 : (443.223371281693, 458.133939958592, 474.919765688999, 430.462154794877, 446.053300826835)
-3657.89045332346 -3657.89045332346 58854.4567 23:11:18:950 2489 -3657.89045332346 : (443.223371281693, 458.133939958592, 474.919765688999, 430.462154794877, 446.053300826835)
-3657.89045332346 -3657.89045332346 59856.0954 23:11:19:952 2539 -3657.89045332346 : (443.223371281693, 458.133939958592, 474.919765688999, 430.462154794877, 446.053300826835)
-3657.89045332346 -3657.89045332346 60858.2468 23:11:20:954 2589 -3657.89045332346 : (443.223371281693, 458.133939958592, 474.919765688999, 430.462154794877, 446.053300826835)
-3657.89045332346 -3657.89045332346 62057.0659 23:11:22:153 2635 -3657.89045332346 : (443.223371281693, 458.133939958592, 474.919765688999, 430.462154794877, 446.053300826835)
-3657.89045332346 -3657.89045332346 63079.0473 23:11:23:175 2688 -3657.89045332346 : (443.223371281693, 458.133939958592, 474.919765688999, 430.462154794877, 446.053300826835)
-3657.89045332346 -3657.89045332346 64095.3629 23:11:24:191 2735 -3657.89045332346 : (443.223371281693, 458.133939958592, 474.919765688999, 430.462154794877, 446.053300826835)
-3657.89045332346 -3657.89045332346 65102.8136 23:11:25:199 2785 -3657.89045332346 : (443.223371281693, 458.133939958592, 474.919765688999, 430.462154794877, 446.053300826835)
-3657.89045332346 -3657.89045332346 66117.1492 23:11:26:213 2834 -3657.89045332346 : (443.223371281693, 458.133939958592, 474.919765688999, 430.462154794877, 446.053300826835)
-3657.89045332346 -3657.89045332346 67118.2209 23:11:27:215 2881 -3657.89045332346 : (443.223371281693, 458.133939958592, 474.919765688999, 430.462154794877, 446.053300826835)
-3657.89045332346 -3657.89045332346 68128.2793 23:11:28:224 2927 -3657.89045332346 : (443.223371281693, 458.133939958592, 474.919765688999, 430.462154794877, 446.053300826835)
-3657.89045332346 -3657.89045332346 69138.3228 23:11:29:234 2975 -3657.89045332346 : (443.223371281693, 458.133939958592, 474.919765688999, 430.462154794877, 446.053300826835)
-3657.89045332346 -3657.89045332346 70149.3784 23:11:30:245 3024 -3657.89045332346 : (443.223371281693, 458.133939958592, 474.919765688999, 430.462154794877, 446.053300826835)
-3657.89045332346 -3657.89045332346 71164.4475 23:11:31:260 3073 -3657.89045332346 : (443.223371281693, 458.133939958592, 474.919765688999, 430.462154794877, 446.053300826835)
-3657.89045332346 -3657.89045332346 72165.4948 23:11:32:261 3119 -3657.89045332346 : (443.223371281693, 458.133939958592, 474.919765688999, 430.462154794877, 446.053300826835)
-3657.89045332346 -3657.89045332346 73182.5532 23:11:33:278 3167 -3657.89045332346 : (443.223371281693, 458.133939958592, 474.919765688999, 430.462154794877, 446.053300826835)
-3657.89045332346 -3657.89045332346 74185.6108 23:11:34:282 3213 -3657.89045332346 : (443.223371281693, 458.133939958592, 474.919765688999, 430.462154794877, 446.053300826835)
-3657.89045332346 -3657.89045332346 75185.6706 23:11:35:282 3260 -3657.89045332346 : (443.223371281693, 458.133939958592, 474.919765688999, 430.462154794877, 446.053300826835)
-3657.89045332346 -3657.89045332346 76203.728 23:11:36:300 3309 -3657.89045332346 : (443.223371281693, 458.133939958592, 474.919765688999, 430.462154794877, 446.053300826835)
-3657.89045332346 -3657.89045332346 77212.7952 23:11:37:309 3358 -3657.89045332346 : (443.223371281693, 458.133939958592, 474.919765688999, 430.462154794877, 446.053300826835)
-3657.89045332346 -3657.89045332346 78221.1229 23:11:38:317 3410 -3657.89045332346 : (443.223371281693, 458.133939958592, 474.919765688999, 430.462154794877, 446.053300826835)
-3657.89045332346 -3657.89045332346 79242.0438 23:11:39:338 3455 -3657.89045332346 : (443.223371281693, 458.133939958592, 474.919765688999, 430.462154794877, 446.053300826835)
-3657.89045332346 -3657.89045332346 80247.8964 23:11:40:344 3503 -3657.89045332346 : (443.223371281693, 458.133939958592, 474.919765688999, 430.462154794877, 446.053300826835)
-3657.89045332346 -3657.89045332346 81256.0411 23:11:41:352 3552 -3657.89045332346 : (443.223371281693, 458.133939958592, 474.919765688999, 430.462154794877, 446.053300826835)
-3657.89045332346 -3657.89045332346 82272.8297 23:11:42:369 3602 -3657.89045332346 : (443.223371281693, 458.133939958592, 474.919765688999, 430.462154794877, 446.053300826835)
-3657.89045332346 -3657.89045332346 83287.6255 23:11:43:384 3651 -3657.89045332346 : (443.223371281693, 458.133939958592, 474.919765688999, 430.462154794877, 446.053300826835)
-3657.89045332346 -3657.89045332346 84312.3369 23:11:44:408 3701 -3657.89045332346 : (443.223371281693, 458.133939958592, 474.919765688999, 430.462154794877, 446.053300826835)
-3657.89045332346 -3657.89045332346 85315.0994 23:11:45:411 3747 -3657.89045332346 : (443.223371281693, 458.133939958592, 474.919765688999, 430.462154794877, 446.053300826835)
-3657.89045332346 -3657.89045332346 86319.1581 23:11:46:416 3790 -3657.89045332346 : (443.223371281693, 458.133939958592, 474.919765688999, 430.462154794877, 446.053300826835)
-3657.89045332346 -3657.89045332346 87325.2177 23:11:47:421 3833 -3657.89045332346 : (443.223371281693, 458.133939958592, 474.919765688999, 430.462154794877, 446.053300826835)
-3657.89045332346 -3657.89045332346 88335.2907 23:11:48:431 3879 -3657.89045332346 : (443.223371281693, 458.133939958592, 474.919765688999, 430.462154794877, 446.053300826835)
-3657.89045332346 -3657.89045332346 89352.3495 23:11:49:448 3926 -3657.89045332346 : (443.223371281693, 458.133939958592, 474.919765688999, 430.462154794877, 446.053300826835)
-3657.89045332346 -3657.89045332346 90360.4126 23:11:50:456 3976 -3657.89045332346 : (443.223371281693, 458.133939958592, 474.919765688999, 430.462154794877, 446.053300826835)
-3657.89045332346 -3657.89045332346 91379.4501 23:11:51:475 4018 -3657.89045332346 : (443.223371281693, 458.133939958592, 474.919765688999, 430.462154794877, 446.053300826835)
-3657.89045332346 -3657.89045332346 92394.5247 23:11:52:490 4060 -3657.89045332346 : (443.223371281693, 458.133939958592, 474.919765688999, 430.462154794877, 446.053300826835)
-3657.89045332346 -3657.89045332346 93585.5942 23:11:53:682 4103 -3657.89045332346 : (443.223371281693, 458.133939958592, 474.919765688999, 430.462154794877, 446.053300826835)
-3657.89045332346 -3657.89045332346 94594.2166 23:11:54:690 4150 -3657.89045332346 : (443.223371281693, 458.133939958592, 474.919765688999, 430.462154794877, 446.053300826835)
-3657.89045332346 -3657.89045332346 95613.6069 23:11:55:710 4198 -3657.89045332346 : (443.223371281693, 458.133939958592, 474.919765688999, 430.462154794877, 446.053300826835)
-3657.89045332346 -3657.89045332346 96622.0514 23:11:56:718 4247 -3657.89045332346 : (443.223371281693, 458.133939958592, 474.919765688999, 430.462154794877, 446.053300826835)
-3657.89045332346 -3657.89045332346 97644.9141 23:11:57:741 4287 -3657.89045332346 : (443.223371281693, 458.133939958592, 474.919765688999, 430.462154794877, 446.053300826835)
-3657.89045332346 -3657.89045332346 98713.5557 23:11:58:809 4339 -3657.89045332346 : (443.223371281693, 458.133939958592, 474.919765688999, 430.462154794877, 446.053300826835)
-3657.89045332346 -3657.89045332346 99719.3271 23:11:59:815 4390 -3657.89045332346 : (443.223371281693, 458.133939958592, 474.919765688999, 430.462154794877, 446.053300826835)
-3657.89045332346 -3657.89045332346 100724.6383 23:12:00:821 4440 -3657.89045332346 : (443.223371281693, 458.133939958592, 474.919765688999, 430.462154794877, 446.053300826835)
-3657.89045332346 -3657.89045332346 101740.2693 23:12:01:836 4486 -3657.89045332346 : (443.223371281693, 458.133939958592, 474.919765688999, 430.462154794877, 446.053300826835)
-3657.89045332346 -3657.89045332346 102764.3418 23:12:02:860 4537 -3657.89045332346 : (443.223371281693, 458.133939958592, 474.919765688999, 430.462154794877, 446.053300826835)
-3657.89045332346 -3657.89045332346 103770.1251 23:12:03:866 4587 -3657.89045332346 : (443.223371281693, 458.133939958592, 474.919765688999, 430.462154794877, 446.053300826835)
-3657.89045332346 -3657.89045332346 104770.1273 23:12:04:866 4633 -3657.89045332346 : (443.223371281693, 458.133939958592, 474.919765688999, 430.462154794877, 446.053300826835)
-3657.89045332346 -3657.89045332346 105775.6314 23:12:05:872 4679 -3657.89045332346 : (443.223371281693, 458.133939958592, 474.919765688999, 430.462154794877, 446.053300826835)
-3657.89045332346 -3657.89045332346 106785.1505 23:12:06:881 4728 -3657.89045332346 : (443.223371281693, 458.133939958592, 474.919765688999, 430.462154794877, 446.053300826835)
-3657.89045332346 -3657.89045332346 107793.1709 23:12:07:889 4778 -3657.89045332346 : (443.223371281693, 458.133939958592, 474.919765688999, 430.462154794877, 446.053300826835)
-3657.89045332346 -3657.89045332346 108798.8909 23:12:08:895 4828 -3657.89045332346 : (443.223371281693, 458.133939958592, 474.919765688999, 430.462154794877, 446.053300826835)
-3657.89045332346 -3657.89045332346 109798.8935 23:12:09:895 4877 -3657.89045332346 : (443.223371281693, 458.133939958592, 474.919765688999, 430.462154794877, 446.053300826835)
-3657.89045332346 -3657.89045332346 110798.9114 23:12:10:895 4927 -3657.89045332346 : (443.223371281693, 458.133939958592, 474.919765688999, 430.462154794877, 446.053300826835)
-3657.89045332346 -3657.89045332346 111808.1971 23:12:11:904 4973 -3657.89045332346 : (443.223371281693, 458.133939958592, 474.919765688999, 430.462154794877, 446.053300826835)
-3657.89045332346 -3657.89045332346 112815.7141 23:12:12:912 5021 -3657.89045332346 : (443.223371281693, 458.133939958592, 474.919765688999, 430.462154794877, 446.053300826835)
-3657.89045332346 -3657.89045332346 113821.1806 23:12:13:917 5068 -3657.89045332346 : (443.223371281693, 458.133939958592, 474.919765688999, 430.462154794877, 446.053300826835)
-3657.90413565541 -3657.90413565541 114852.4044 23:12:14:948 5120 -3657.90413565541 : (443.343034235455, 458.133939958592, 474.919765688999, 430.462154794877, 446.053300826835)
-3657.90413565541 -3657.90413565541 115858.1164 23:12:15:954 5168 -3657.90413565541 : (443.343034235455, 458.133939958592, 474.919765688999, 430.462154794877, 446.053300826835)
-3657.90413565541 -3657.90413565541 116904.7804 23:12:17:001 5217 -3657.90413565541 : (443.343034235455, 458.133939958592, 474.919765688999, 430.462154794877, 446.053300826835)
-3657.90413565541 -3657.90413565541 117912.7003 23:12:18:009 5267 -3657.90413565541 : (443.343034235455, 458.133939958592, 474.919765688999, 430.462154794877, 446.053300826835)
-3657.90413565541 -3657.90413565541 118918.5828 23:12:19:014 5319 -3657.90413565541 : (443.343034235455, 458.133939958592, 474.919765688999, 430.462154794877, 446.053300826835)
-3657.90413565541 -3657.90413565541 119918.588 23:12:20:014 5364 -3657.90413565541 : (443.343034235455, 458.133939958592, 474.919765688999, 430.462154794877, 446.053300826835)
-3657.90413565541 -3657.90413565541 120918.6119 23:12:21:015 5415 -3657.90413565541 : (443.343034235455, 458.133939958592, 474.919765688999, 430.462154794877, 446.053300826835)
-3657.90413565541 -3657.90413565541 121934.2326 23:12:22:030 5454 -3657.90413565541 : (443.343034235455, 458.133939958592, 474.919765688999, 430.462154794877, 446.053300826835)
-3657.90413565541 -3657.90413565541 122942.0246 23:12:23:038 5500 -3657.90413565541 : (443.343034235455, 458.133939958592, 474.919765688999, 430.462154794877, 446.053300826835)
-3657.90413565541 -3657.90413565541 123948.5263 23:12:24:044 5549 -3657.90413565541 : (443.343034235455, 458.133939958592, 474.919765688999, 430.462154794877, 446.053300826835)
-3657.90413565541 -3657.90413565541 124969.4095 23:12:25:065 5601 -3657.90413565541 : (443.343034235455, 458.133939958592, 474.919765688999, 430.462154794877, 446.053300826835)
-3657.90413565541 -3657.90413565541 125990.0571 23:12:26:086 5651 -3657.90413565541 : (443.343034235455, 458.133939958592, 474.919765688999, 430.462154794877, 446.053300826835)
-3657.90413565541 -3657.90413565541 126997.876 23:12:27:094 5703 -3657.90413565541 : (443.343034235455, 458.133939958592, 474.919765688999, 430.462154794877, 446.053300826835)
-3657.90413565541 -3657.90413565541 128005.7603 23:12:28:102 5753 -3657.90413565541 : (443.343034235455, 458.133939958592, 474.919765688999, 430.462154794877, 446.053300826835)
-3657.90413565541 -3657.90413565541 129011.9016 23:12:29:108 5800 -3657.90413565541 : (443.343034235455, 458.133939958592, 474.919765688999, 430.462154794877, 446.053300826835)
-3657.90413565541 -3657.90413565541 130017.5408 23:12:30:113 5851 -3657.90413565541 : (443.343034235455, 458.133939958592, 474.919765688999, 430.462154794877, 446.053300826835)
-3657.90413565541 -3657.90413565541 131022.7875 23:12:31:119 5904 -3657.90413565541 : (443.343034235455, 458.133939958592, 474.919765688999, 430.462154794877, 446.053300826835)
-3657.90413565541 -3657.90413565541 132022.8071 23:12:32:119 5951 -3657.90413565541 : (443.343034235455, 458.133939958592, 474.919765688999, 430.462154794877, 446.053300826835)
-3657.90413565541 -3657.90413565541 133032.0787 23:12:33:128 6001 -3657.90413565541 : (443.343034235455, 458.133939958592, 474.919765688999, 430.462154794877, 446.053300826835)
-3657.92251090736 -3657.92251090736 134037.5033 23:12:34:133 6047 -3657.92251090736 : (443.343034235455, 458.133939958592, 474.919765688999, 430.462154794877, 446.174545734271)
-3657.92251090736 -3657.92251090736 135037.5084 23:12:35:133 6087 -3657.92251090736 : (443.343034235455, 458.133939958592, 474.919765688999, 430.462154794877, 446.174545734271)
-3657.92251090736 -3657.92251090736 136058.4031 23:12:36:154 6136 -3657.92251090736 : (443.343034235455, 458.133939958592, 474.919765688999, 430.462154794877, 446.174545734271)
-3657.92251090736 -3657.92251090736 137066.8939 23:12:37:163 6184 -3657.92251090736 : (443.343034235455, 458.133939958592, 474.919765688999, 430.462154794877, 446.174545734271)
-3657.92251090736 -3657.92251090736 138089.5748 23:12:38:185 6235 -3657.92251090736 : (443.343034235455, 458.133939958592, 474.919765688999, 430.462154794877, 446.174545734271)
-3657.92251090736 -3657.92251090736 139095.0494 23:12:39:191 6282 -3657.92251090736 : (443.343034235455, 458.133939958592, 474.919765688999, 430.462154794877, 446.174545734271)
-3657.92251090736 -3657.92251090736 140095.0687 23:12:40:191 6331 -3657.92251090736 : (443.343034235455, 458.133939958592, 474.919765688999, 430.462154794877, 446.174545734271)
-3657.92251090736 -3657.92251090736 141095.0704 23:12:41:191 6383 -3657.92251090736 : (443.343034235455, 458.133939958592, 474.919765688999, 430.462154794877, 446.174545734271)
-3657.92251090736 -3657.92251090736 142119.1095 23:12:42:215 6432 -3657.92251090736 : (443.343034235455, 458.133939958592, 474.919765688999, 430.462154794877, 446.174545734271)
-3657.92251090736 -3657.92251090736 143142.5136 23:12:43:238 6483 -3657.92251090736 : (443.343034235455, 458.133939958592, 474.919765688999, 430.462154794877, 446.174545734271)
-3657.92251090736 -3657.92251090736 144147.9386 23:12:44:244 6532 -3657.92251090736 : (443.343034235455, 458.133939958592, 474.919765688999, 430.462154794877, 446.174545734271)
-3657.92251090736 -3657.92251090736 145147.9433 23:12:45:244 6578 -3657.92251090736 : (443.343034235455, 458.133939958592, 474.919765688999, 430.462154794877, 446.174545734271)
-3657.92251090736 -3657.92251090736 146157.4911 23:12:46:253 6629 -3657.92251090736 : (443.343034235455, 458.133939958592, 474.919765688999, 430.462154794877, 446.174545734271)
-3657.92251090736 -3657.92251090736 147170.2193 23:12:47:266 6672 -3657.92251090736 : (443.343034235455, 458.133939958592, 474.919765688999, 430.462154794877, 446.174545734271)
-3657.92251090736 -3657.92251090736 148193.7572 23:12:48:290 6724 -3657.92251090736 : (443.343034235455, 458.133939958592, 474.919765688999, 430.462154794877, 446.174545734271)
-3657.92251090736 -3657.92251090736 149199.8532 23:12:49:296 6772 -3657.92251090736 : (443.343034235455, 458.133939958592, 474.919765688999, 430.462154794877, 446.174545734271)
-3657.92251090736 -3657.92251090736 150215.4662 23:12:50:311 6819 -3657.92251090736 : (443.343034235455, 458.133939958592, 474.919765688999, 430.462154794877, 446.174545734271)
-3657.92251090736 -3657.92251090736 151215.4692 23:12:51:311 6870 -3657.92251090736 : (443.343034235455, 458.133939958592, 474.919765688999, 430.462154794877, 446.174545734271)
-3657.92251090736 -3657.92251090736 152215.4863 23:12:52:311 6916 -3657.92251090736 : (443.343034235455, 458.133939958592, 474.919765688999, 430.462154794877, 446.174545734271)
-3657.92251090736 -3657.92251090736 153223.3112 23:12:53:319 6966 -3657.92251090736 : (443.343034235455, 458.133939958592, 474.919765688999, 430.462154794877, 446.174545734271)
-3657.92251090736 -3657.92251090736 154229.2279 23:12:54:325 7018 -3657.92251090736 : (443.343034235455, 458.133939958592, 474.919765688999, 430.462154794877, 446.174545734271)
-3657.92251090736 -3657.92251090736 155234.7979 23:12:55:331 7069 -3657.92251090736 : (443.343034235455, 458.133939958592, 474.919765688999, 430.462154794877, 446.174545734271)
-3657.92251090736 -3657.92251090736 156318.9259 23:12:56:415 7106 -3657.92251090736 : (443.343034235455, 458.133939958592, 474.919765688999, 430.462154794877, 446.174545734271)
-3657.92251090736 -3657.92251090736 157342.5771 23:12:57:438 7154 -3657.92251090736 : (443.343034235455, 458.133939958592, 474.919765688999, 430.462154794877, 446.174545734271)
-3657.92251090736 -3657.92251090736 158365.8115 23:12:58:462 7207 -3657.92251090736 : (443.343034235455, 458.133939958592, 474.919765688999, 430.462154794877, 446.174545734271)
-3657.92251090736 -3657.92251090736 159387.4233 23:12:59:483 7258 -3657.92251090736 : (443.343034235455, 458.133939958592, 474.919765688999, 430.462154794877, 446.174545734271)
-3657.92251090736 -3657.92251090736 160393.0232 23:13:00:489 7306 -3657.92251090736 : (443.343034235455, 458.133939958592, 474.919765688999, 430.462154794877, 446.174545734271)
-3657.92251090736 -3657.92251090736 161398.6184 23:13:01:495 7356 -3657.92251090736 : (443.343034235455, 458.133939958592, 474.919765688999, 430.462154794877, 446.174545734271)
-3657.92251090736 -3657.92251090736 162398.621 23:13:02:495 7408 -3657.92251090736 : (443.343034235455, 458.133939958592, 474.919765688999, 430.462154794877, 446.174545734271)
-3657.92251090736 -3657.92251090736 163422.5618 23:13:03:518 7456 -3657.92251090736 : (443.343034235455, 458.133939958592, 474.919765688999, 430.462154794877, 446.174545734271)
-3657.92251090736 -3657.92251090736 164428.7428 23:13:04:525 7506 -3657.92251090736 : (443.343034235455, 458.133939958592, 474.919765688999, 430.462154794877, 446.174545734271)
-3657.92251090736 -3657.92251090736 165450.6797 23:13:05:547 7556 -3657.92251090736 : (443.343034235455, 458.133939958592, 474.919765688999, 430.462154794877, 446.174545734271)
-3657.92251090736 -3657.92251090736 166461.5348 23:13:06:557 7606 -3657.92251090736 : (443.343034235455, 458.133939958592, 474.919765688999, 430.462154794877, 446.174545734271)
-3657.92251090736 -3657.92251090736 167475.5407 23:13:07:571 7654 -3657.92251090736 : (443.343034235455, 458.133939958592, 474.919765688999, 430.462154794877, 446.174545734271)
-3657.92251090736 -3657.92251090736 168481.6893 23:13:08:578 7701 -3657.92251090736 : (443.343034235455, 458.133939958592, 474.919765688999, 430.462154794877, 446.174545734271)
-3657.92251090736 -3657.92251090736 169497.2937 23:13:09:593 7753 -3657.92251090736 : (443.343034235455, 458.133939958592, 474.919765688999, 430.462154794877, 446.174545734271)
-3657.92251090736 -3657.92251090736 170497.2976 23:13:10:593 7800 -3657.92251090736 : (443.343034235455, 458.133939958592, 474.919765688999, 430.462154794877, 446.174545734271)
-3657.92251090736 -3657.92251090736 171505.5488 23:13:11:601 7849 -3657.92251090736 : (443.343034235455, 458.133939958592, 474.919765688999, 430.462154794877, 446.174545734271)
-3657.92251090736 -3657.92251090736 172531.3934 23:13:12:627 7902 -3657.92251090736 : (443.343034235455, 458.133939958592, 474.919765688999, 430.462154794877, 446.174545734271)
-3657.92251090736 -3657.92251090736 173536.8715 23:13:13:633 7954 -3657.92251090736 : (443.343034235455, 458.133939958592, 474.919765688999, 430.462154794877, 446.174545734271)
-3657.92251090736 -3657.92251090736 174568.1094 23:13:14:664 8001 -3657.92251090736 : (443.343034235455, 458.133939958592, 474.919765688999, 430.462154794877, 446.174545734271)
-3657.92251090736 -3657.92251090736 175573.1893 23:13:15:669 8044 -3657.92251090736 : (443.343034235455, 458.133939958592, 474.919765688999, 430.462154794877, 446.174545734271)
-3657.92251090736 -3657.92251090736 176576.397 23:13:16:672 8094 -3657.92251090736 : (443.343034235455, 458.133939958592, 474.919765688999, 430.462154794877, 446.174545734271)
-3657.92251090736 -3657.92251090736 177584.9685 23:13:17:681 8145 -3657.92251090736 : (443.343034235455, 458.133939958592, 474.919765688999, 430.462154794877, 446.174545734271)
-3657.92251090736 -3657.92251090736 178591.3425 23:13:18:687 8191 -3657.92251090736 : (443.343034235455, 458.133939958592, 474.919765688999, 430.462154794877, 446.174545734271)
-3657.92251090736 -3657.92251090736 179591.345 23:13:19:687 8240 -3657.92251090736 : (443.343034235455, 458.133939958592, 474.919765688999, 430.462154794877, 446.174545734271)
-3657.92251090736 -3657.92251090736 180591.3459 23:13:20:687 8289 -3657.92251090736 : (443.343034235455, 458.133939958592, 474.919765688999, 430.462154794877, 446.174545734271)
-3657.92251090736 -3657.92251090736 181591.3467 23:13:21:687 8339 -3657.92251090736 : (443.343034235455, 458.133939958592, 474.919765688999, 430.462154794877, 446.174545734271)
-3657.92251090736 -3657.92251090736 182599.1528 23:13:22:695 8389 -3657.92251090736 : (443.343034235455, 458.133939958592, 474.919765688999, 430.462154794877, 446.174545734271)
-3657.92251090736 -3657.92251090736 183605.8641 23:13:23:702 8428 -3657.92251090736 : (443.343034235455, 458.133939958592, 474.919765688999, 430.462154794877, 446.174545734271)
-3657.92251090736 -3657.92251090736 184627.1801 23:13:24:723 8477 -3657.92251090736 : (443.343034235455, 458.133939958592, 474.919765688999, 430.462154794877, 446.174545734271)
-3657.92251090736 -3657.92251090736 185631.3666 23:13:25:727 8527 -3657.92251090736 : (443.343034235455, 458.133939958592, 474.919765688999, 430.462154794877, 446.174545734271)
-3657.92251090736 -3657.92251090736 186655.496 23:13:26:751 8579 -3657.92251090736 : (443.343034235455, 458.133939958592, 474.919765688999, 430.462154794877, 446.174545734271)
-3657.92251090736 -3657.92251090736 187663.0416 23:13:27:759 8631 -3657.92251090736 : (443.343034235455, 458.133939958592, 474.919765688999, 430.462154794877, 446.174545734271)
-3657.92251090736 -3657.92251090736 188669.1513 23:13:28:765 8681 -3657.92251090736 : (443.343034235455, 458.133939958592, 474.919765688999, 430.462154794877, 446.174545734271)
-3657.92251090736 -3657.92251090736 189690.7507 23:13:29:787 8731 -3657.92251090736 : (443.343034235455, 458.133939958592, 474.919765688999, 430.462154794877, 446.174545734271)
-3657.92251090736 -3657.92251090736 190696.2189 23:13:30:792 8771 -3657.92251090736 : (443.343034235455, 458.133939958592, 474.919765688999, 430.462154794877, 446.174545734271)
-3657.92251090736 -3657.92251090736 191711.8554 23:13:31:808 8823 -3657.92251090736 : (443.343034235455, 458.133939958592, 474.919765688999, 430.462154794877, 446.174545734271)
-3657.92251090736 -3657.92251090736 192720.459 23:13:32:816 8873 -3657.92251090736 : (443.343034235455, 458.133939958592, 474.919765688999, 430.462154794877, 446.174545734271)
-3657.92251090736 -3657.92251090736 193743.1764 23:13:33:839 8924 -3657.92251090736 : (443.343034235455, 458.133939958592, 474.919765688999, 430.462154794877, 446.174545734271)
-3657.92251090736 -3657.92251090736 194758.7808 23:13:34:855 8967 -3657.92251090736 : (443.343034235455, 458.133939958592, 474.919765688999, 430.462154794877, 446.174545734271)
-3657.92251090736 -3657.92251090736 195779.8504 23:13:35:876 9017 -3657.92251090736 : (443.343034235455, 458.133939958592, 474.919765688999, 430.462154794877, 446.174545734271)
-3657.92251090736 -3657.92251090736 196821.0155 23:13:36:917 9068 -3657.92251090736 : (443.343034235455, 458.133939958592, 474.919765688999, 430.462154794877, 446.174545734271)
-3657.92251090736 -3657.92251090736 197828.8678 23:13:37:925 9114 -3657.92251090736 : (443.343034235455, 458.133939958592, 474.919765688999, 430.462154794877, 446.174545734271)
-3657.92265702744 -3657.92265702744 198881.8284 23:13:38:978 9156 -3657.92265702744 : (443.343034235455, 458.197772001008, 474.919765688999, 430.462154794877, 446.174545734271)
-3657.92265702744 -3657.92265702744 199959.972 23:13:40:056 9165 -3657.92265702744 : (443.343034235455, 458.197772001008, 474.919765688999, 430.462154794877, 446.174545734271)
-3657.92265702744 -3657.92265702744 201131.8484 23:13:41:228 9174 -3657.92265702744 : (443.343034235455, 458.197772001008, 474.919765688999, 430.462154794877, 446.174545734271)
-3657.92265702744 -3657.92265702744 202186.3916 23:13:42:282 9183 -3657.92265702744 : (443.343034235455, 458.197772001008, 474.919765688999, 430.462154794877, 446.174545734271)
-3657.92265702744 -3657.92265702744 203287.9967 23:13:43:384 9191 -3657.92265702744 : (443.343034235455, 458.197772001008, 474.919765688999, 430.462154794877, 446.174545734271)
-3657.92265702744 -3657.92265702744 204309.0625 23:13:44:405 9199 -3657.92265702744 : (443.343034235455, 458.197772001008, 474.919765688999, 430.462154794877, 446.174545734271)
-3657.92265702744 -3657.92265702744 205355.954 23:13:45:452 9208 -3657.92265702744 : (443.343034235455, 458.197772001008, 474.919765688999, 430.462154794877, 446.174545734271)
-3657.92265702744 -3657.92265702744 206454.776 23:13:46:551 9217 -3657.92265702744 : (443.343034235455, 458.197772001008, 474.919765688999, 430.462154794877, 446.174545734271)
-3657.92265702744 -3657.92265702744 207509.2842 23:13:47:605 9226 -3657.92265702744 : (443.343034235455, 458.197772001008, 474.919765688999, 430.462154794877, 446.174545734271)
-3657.92265702744 -3657.92265702744 208577.7201 23:13:48:674 9235 -3657.92265702744 : (443.343034235455, 458.197772001008, 474.919765688999, 430.462154794877, 446.174545734271)
-3657.92265702744 -3657.92265702744 209640.2439 23:13:49:736 9244 -3657.92265702744 : (443.343034235455, 458.197772001008, 474.919765688999, 430.462154794877, 446.174545734271)
-3657.92265702744 -3657.92265702744 210702.7506 23:13:50:799 9253 -3657.92265702744 : (443.343034235455, 458.197772001008, 474.919765688999, 430.462154794877, 446.174545734271)
-3657.92265702744 -3657.92265702744 211765.2526 23:13:51:861 9262 -3657.92265702744 : (443.343034235455, 458.197772001008, 474.919765688999, 430.462154794877, 446.174545734271)
-3657.92265702744 -3657.92265702744 212819.8301 23:13:52:916 9271 -3657.92265702744 : (443.343034235455, 458.197772001008, 474.919765688999, 430.462154794877, 446.174545734271)
-3657.92265702744 -3657.92265702744 213889.4352 23:13:53:985 9280 -3657.92265702744 : (443.343034235455, 458.197772001008, 474.919765688999, 430.462154794877, 446.174545734271)
-3657.92265702744 -3657.92265702744 214957.127 23:13:55:053 9289 -3657.92265702744 : (443.343034235455, 458.197772001008, 474.919765688999, 430.462154794877, 446.174545734271)
-3657.92265702744 -3657.92265702744 216013.2508 23:13:56:109 9298 -3657.92265702744 : (443.343034235455, 458.197772001008, 474.919765688999, 430.462154794877, 446.174545734271)
-3657.92265702744 -3657.92265702744 217080.6492 23:13:57:177 9307 -3657.92265702744 : (443.343034235455, 458.197772001008, 474.919765688999, 430.462154794877, 446.174545734271)
-3657.92265702744 -3657.92265702744 218181.331 23:13:58:277 9316 -3657.92265702744 : (443.343034235455, 458.197772001008, 474.919765688999, 430.462154794877, 446.174545734271)
-3657.92265702744 -3657.92265702744 219249.7168 23:13:59:346 9325 -3657.92265702744 : (443.343034235455, 458.197772001008, 474.919765688999, 430.462154794877, 446.174545734271)
-3657.92265702744 -3657.92265702744 220318.0911 23:14:00:414 9334 -3657.92265702744 : (443.343034235455, 458.197772001008, 474.919765688999, 430.462154794877, 446.174545734271)
-3657.92265702744 -3657.92265702744 221386.2572 23:14:01:482 9343 -3657.92265702744 : (443.343034235455, 458.197772001009, 474.919765688999, 430.462154794877, 446.174545734271)
-3657.92265702744 -3657.92265702744 222452.1251 23:14:02:548 9352 -3657.92265702744 : (443.343034235455, 458.197772001009, 474.919765688999, 430.462154794877, 446.174545734271)
-3657.92265702744 -3657.92265702744 223508.228 23:14:03:604 9361 -3657.92265702744 : (443.343034235455, 458.197772001009, 474.919765688999, 430.462154794877, 446.174545734271)
-3657.92265702744 -3657.92265702744 224586.3575 23:14:04:682 9370 -3657.92265702744 : (443.343034235455, 458.197772001009, 474.919765688999, 430.462154794877, 446.174545734271)
-3657.92265702744 -3657.92265702744 225654.2469 23:14:05:750 9379 -3657.92265702744 : (443.343034235455, 458.197772001009, 474.919765688999, 430.462154794877, 446.174545734271)
-3657.92265702744 -3657.92265702744 226709.6458 23:14:06:806 9388 -3657.92265702744 : (443.343034235455, 458.197772001009, 474.919765688999, 430.462154794877, 446.174545734271)
-3657.92265702744 -3657.92265702744 227763.6811 23:14:07:860 9397 -3657.92265702744 : (443.343034235455, 458.197772001009, 474.919765688999, 430.462154794877, 446.174545734271)
-3657.92265702744 -3657.92265702744 228878.7083 23:14:08:975 9406 -3657.92265702744 : (443.343034235455, 458.197772001009, 474.919765688999, 430.462154794877, 446.174545734271)
-3657.92265702744 -3657.92265702744 229925.6136 23:14:10:022 9415 -3657.92265702744 : (443.343034235455, 458.197772001009, 474.919765688999, 430.462154794877, 446.174545734271)
-3657.92265702744 -3657.92265702744 230972.4911 23:14:11:068 9424 -3657.92265702744 : (443.343034235455, 458.197772001009, 474.919765688999, 430.462154794877, 446.174545734271)
-3657.92265702744 -3657.92265702744 232042.6135 23:14:12:139 9433 -3657.92265702744 : (443.343034235455, 458.197772001009, 474.919765688999, 430.462154794877, 446.174545734271)
-3657.92265702744 -3657.92265702744 233097.0076 23:14:13:193 9442 -3657.92265702744 : (443.343034235455, 458.197772001009, 474.919765688999, 430.462154794877, 446.174545734271)
-3657.92265702744 -3657.92265702744 234149.6025 23:14:14:246 9451 -3657.92265702744 : (443.343034235455, 458.197772001009, 474.919765688999, 430.462154794877, 446.174545734271)
-3657.92265702744 -3657.92265702744 235227.7047 23:14:15:324 9460 -3657.92265702744 : (443.343034235455, 458.197772001009, 474.919765688999, 430.462154794877, 446.174545734271)
-3657.92265702744 -3657.92265702744 236279.822 23:14:16:376 9469 -3657.92265702744 : (443.343034235455, 458.197772001009, 474.919765688999, 430.462154794877, 446.174545734271)
-3657.92265702744 -3657.92265702744 237348.6718 23:14:17:445 9478 -3657.92265702744 : (443.343034235455, 458.197772001009, 474.919765688999, 430.462154794877, 446.174545734271)
-3657.92265702744 -3657.92265702744 238402.8785 23:14:18:499 9487 -3657.92265702744 : (443.343034235455, 458.197772001009, 474.919765688999, 430.462154794877, 446.174545734271)
-3657.92265702744 -3657.92265702744 239455.5034 23:14:19:551 9496 -3657.92265702744 : (443.343034235455, 458.197772001009, 474.919765688999, 430.462154794877, 446.174545734271)
-3657.92265702744 -3657.92265702744 240564.8594 23:14:20:661 9505 -3657.92265702744 : (443.343034235455, 458.197772001009, 474.919765688999, 430.462154794877, 446.174545734271)
-3657.92265702744 -3657.92265702744 241627.3875 23:14:21:723 9514 -3657.92265702744 : (443.343034235455, 458.197772001009, 474.919765688999, 430.462154794877, 446.174545734271)
-3657.92265702744 -3657.92265702744 242681.7362 23:14:22:778 9523 -3657.92265702744 : (443.343034235455, 458.197772001009, 474.919765688999, 430.462154794877, 446.174545734271)
-3657.92265702744 -3657.92265702744 243734.7998 23:14:23:831 9532 -3657.92265702744 : (443.343034235455, 458.197772001009, 474.919765688999, 430.462154794877, 446.174545734271)
-3657.92265702744 -3657.92265702744 244802.7627 23:14:24:899 9541 -3657.92265702744 : (443.343034235455, 458.197772001009, 474.919765688999, 430.462154794877, 446.174545734271)
-3657.92265702744 -3657.92265702744 245874.5363 23:14:25:970 9550 -3657.92265702744 : (443.343034235455, 458.197772001009, 474.919765688999, 430.462154794877, 446.174545734271)
-3657.92265702744 -3657.92265702744 246945.5962 23:14:27:042 9559 -3657.92265702744 : (443.343034235455, 458.197772001009, 474.919765688999, 430.462154794877, 446.174545734271)
-3657.92265702744 -3657.92265702744 247984.1266 23:14:28:080 9568 -3657.92265702744 : (443.343034235455, 458.197772001009, 474.919765688999, 430.462154794877, 446.174545734271)
-3657.92265702744 -3657.92265702744 249052.8854 23:14:29:149 9577 -3657.92265702744 : (443.343034235455, 458.197772001009, 474.919765688999, 430.462154794877, 446.174545734271)
-3657.92265702744 -3657.92265702744 250090.1761 23:14:30:186 9586 -3657.92265702744 : (443.343034235455, 458.197772001009, 474.919765688999, 430.462154794877, 446.174545734271)
-3657.92265702744 -3657.92265702744 251204.7368 23:14:31:301 9595 -3657.92265702744 : (443.343034235455, 458.197772001009, 474.919765688999, 430.462154794877, 446.174545734271)
-3657.92265702744 -3657.92265702744 252282.8663 23:14:32:379 9604 -3657.92265702744 : (443.343034235455, 458.197772001009, 474.919765688999, 430.462154794877, 446.174545734271)
-3657.92265702744 -3657.92265702744 253337.3878 23:14:33:433 9613 -3657.92265702744 : (443.343034235455, 458.197772001009, 474.919765688999, 430.462154794877, 446.174545734271)
-3657.92265702744 -3657.92265702744 254389.7257 23:14:34:486 9622 -3657.92265702744 : (443.343034235455, 458.197772001009, 474.919765688999, 430.462154794877, 446.174545734271)
-3657.92265702744 -3657.92265702744 255458.0175 23:14:35:554 9631 -3657.92265702744 : (443.343034235455, 458.197772001009, 474.919765688999, 430.462154794877, 446.174545734271)
-3657.92265702744 -3657.92265702744 256514.3744 23:14:36:610 9640 -3657.92265702744 : (443.343034235455, 458.197772001009, 474.919765688999, 430.462154794877, 446.174545734271)
-3657.92265702744 -3657.92265702744 257569.1875 23:14:37:665 9649 -3657.92265702744 : (443.343034235455, 458.197772001009, 474.919765688999, 430.462154794877, 446.174545734271)
-3657.92265702744 -3657.92265702744 258621.6713 23:14:38:718 9658 -3657.92265702744 : (443.343034235455, 458.197772001009, 474.919765688999, 430.462154794877, 446.174545734271)
-3657.92265702744 -3657.92265702744 259684.1733 23:14:39:780 9667 -3657.92265702744 : (443.343034235455, 458.197772001009, 474.919765688999, 430.462154794877, 446.174545734271)
-3657.92265702744 -3657.92265702744 260746.674 23:14:40:843 9676 -3657.92265702744 : (443.343034235455, 458.197772001009, 474.919765688999, 430.462154794877, 446.174545734271)
-3657.92265702744 -3657.92265702744 261801.4187 23:14:41:897 9685 -3657.92265702744 : (443.343034235455, 458.197772001009, 474.919765688999, 430.462154794877, 446.174545734271)
-3657.92265702744 -3657.92265702744 262887.2995 23:14:42:983 9694 -3657.92265702744 : (443.343034235455, 458.197772001009, 474.919765688999, 430.462154794877, 446.174545734271)
-3657.92265702744 -3657.92265702744 263893.0996 23:14:43:989 9702 -3657.92265702744 : (443.343034235455, 458.197772001009, 474.919765688999, 430.462154794877, 446.174545734271)
-3657.92265702744 -3657.92265702744 265002.4722 23:14:45:098 9711 -3657.92265702744 : (443.343034235455, 458.197772001009, 474.919765688999, 430.462154794877, 446.174545734271)
-3657.92265702744 -3657.92265702744 266054.4099 23:14:46:150 9720 -3657.92265702744 : (443.343034235455, 458.197772001009, 474.919765688999, 430.462154794877, 446.174545734271)
-3657.92265702744 -3657.92265702744 267128.766 23:14:47:225 9729 -3657.92265702744 : (443.343034235455, 458.197772001009, 474.919765688999, 430.462154794877, 446.174545734271)
-3657.92265702744 -3657.92265702744 268183.2605 23:14:48:279 9738 -3657.92265702744 : (443.343034235455, 458.197772001009, 474.919765688999, 430.462154794877, 446.174545734271)
-3657.92265702744 -3657.92265702744 269236.0842 23:14:49:332 9747 -3657.92265702744 : (443.343034235455, 458.197772001009, 474.919765688999, 430.462154794877, 446.174545734271)
-3657.92265702744 -3657.92265702744 270298.5867 23:14:50:394 9756 -3657.92265702744 : (443.343034235455, 458.197772001009, 474.919765688999, 430.462154794877, 446.174545734271)
-3657.92265702744 -3657.92265702744 271361.0925 23:14:51:457 9765 -3657.92265702744 : (443.343034235455, 458.197772001009, 474.919765688999, 430.462154794877, 446.174545734271)
-3657.92265702744 -3657.92265702744 272407.9961 23:14:52:504 9774 -3657.92265702744 : (443.343034235455, 458.197772001009, 474.919765688999, 430.462154794877, 446.174545734271)
-3657.92265702744 -3657.92265702744 273500.6656 23:14:53:597 9783 -3657.92265702744 : (443.343034235455, 458.197772001009, 474.919765688999, 430.462154794877, 446.174545734271)
-3657.92265702744 -3657.92265702744 274553.1943 23:14:54:649 9792 -3657.92265702744 : (443.343034235455, 458.197772001009, 474.919765688999, 430.462154794877, 446.174545734271)
-3657.92265702744 -3657.92265702744 275620.7702 23:14:55:717 9801 -3657.92265702744 : (443.343034235455, 458.197772001009, 474.919765688999, 430.462154794877, 446.174545734271)
-3657.92265702744 -3657.92265702744 276693.4209 23:14:56:789 9810 -3657.92265702744 : (443.343034235455, 458.197772001009, 474.919765688999, 430.462154794877, 446.174545734271)
-3657.92265702744 -3657.92265702744 277747.6285 23:14:57:844 9819 -3657.92265702744 : (443.343034235455, 458.197772001009, 474.919765688999, 430.462154794877, 446.174545734271)
-3657.92265702744 -3657.92265702744 278800.9337 23:14:58:897 9828 -3657.92265702744 : (443.343034235455, 458.197772001009, 474.919765688999, 430.462154794877, 446.174545734271)
-3657.92265702744 -3657.92265702744 279885.2798 23:14:59:981 9837 -3657.92265702744 : (443.343034235455, 458.197772001009, 474.919765688999, 430.462154794877, 446.174545734271)
-3657.92265702744 -3657.92265702744 280937.6828 23:15:01:034 9846 -3657.92265702744 : (443.343034235455, 458.197772001009, 474.919765688999, 430.462154794877, 446.174545734271)
-3657.92265702744 -3657.92265702744 282015.7837 23:15:02:112 9855 -3657.92265702744 : (443.343034235455, 458.197772001009, 474.919765688999, 430.462154794877, 446.174545734271)
-3657.92265702744 -3657.92265702744 283086.5348 23:15:03:182 9864 -3657.92265702744 : (443.343034235455, 458.197772001009, 474.919765688999, 430.462154794877, 446.174545734271)
-3657.92265702744 -3657.92265702744 284139.2353 23:15:04:235 9873 -3657.92265702744 : (443.343034235455, 458.197772001009, 474.919765688999, 430.462154794877, 446.174545734271)
-3657.92265702744 -3657.92265702744 285154.8603 23:15:05:251 9881 -3657.92265702744 : (443.343034235455, 458.197772001009, 474.919765688999, 430.462154794877, 446.174545734271)
-3657.92265702744 -3657.92265702744 286207.0139 23:15:06:303 9890 -3657.92265702744 : (443.343034235455, 458.197772001009, 474.919765688999, 430.462154794877, 446.174545734271)
-3657.92265702744 -3657.92265702744 287278.776 23:15:07:375 9899 -3657.92265702744 : (443.343034235455, 458.197772001009, 474.919765688999, 430.462154794877, 446.174545734271)
-3657.92265702744 -3657.92265702744 288332.8356 23:15:08:429 9908 -3657.92265702744 : (443.343034235455, 458.197772001009, 474.919765688999, 430.462154794877, 446.174545734271)
-3657.92265702744 -3657.92265702744 289385.4746 23:15:09:481 9917 -3657.92265702744 : (443.343034235455, 458.197772001009, 474.919765688999, 430.462154794877, 446.174545734271)
-3657.92265702744 -3657.92265702744 290463.6268 23:15:10:560 9926 -3657.92265702744 : (443.343034235455, 458.197772001009, 474.919765688999, 430.462154794877, 446.174545734271)
-3657.92265702744 -3657.92265702744 291518.1025 23:15:11:614 9935 -3657.92265702744 : (443.343034235455, 458.197772001009, 474.919765688999, 430.462154794877, 446.174545734271)
-3657.92265702744 -3657.92265702744 292587.8269 23:15:12:684 9944 -3657.92265702744 : (443.343034235455, 458.197772001009, 474.919765688999, 430.462154794877, 446.174545734271)
-3657.92265702744 -3657.92265702744 293624.5296 23:15:13:720 9953 -3657.92265702744 : (443.343034235455, 458.197772001009, 474.919765688999, 430.462154794877, 446.174545734271)
-3657.92265702744 -3657.92265702744 294671.41 23:15:14:767 9962 -3657.92265702744 : (443.343034235455, 458.197772001009, 474.919765688999, 430.462154794877, 446.174545734271)
-3657.92265702744 -3657.92265702744 295744.5888 23:15:15:840 9971 -3657.92265702744 : (443.343034235455, 458.197772001009, 474.919765688999, 430.462154794877, 446.174545734271)
-3657.92265702744 -3657.92265702744 296784.0314 23:15:16:880 9980 -3657.92265702744 : (443.343034235455, 458.197772001009, 474.919765688999, 430.462154794877, 446.174545734271)
-3657.92265702744 -3657.92265702744 297854.8073 23:15:17:951 9989 -3657.92265702744 : (443.343034235455, 458.197772001009, 474.919765688999, 430.462154794877, 446.174545734271)
-3657.92265702744 -3657.92265702744 298923.0367 23:15:19:019 9998 -3657.92265702744 : (443.343034235455, 458.197772001009, 474.919765688999, 430.462154794877, 446.174545734271)
-3657.92265702744 -3657.92265702744 299985.5404 23:15:20:081 10007 -3657.92265702744 : (443.343034235455, 458.197772001009, 474.919765688999, 430.462154794877, 446.174545734271)
