-2659.64071905339 -598.285201393028 35.0024 02:55:29:223 1 -2659.64071905339 : (448.232834786285, 453.413654776948, 328.794201765579, 491.92212008495, 174.938434920711, -28.4167621268037, -210.747233727363, -330.179697905751, -494.607735148914, 57.4929726391532, -141.284186667429, 510.779744624523, -221.212553842558, -283.810995472507, 459.154493307301, 291.187538997823, 477.515349848902, -270.197837716992, 34.8289005918563, 161.082630947736)
-12333.0038653016 -11328.290623062 1688.1143 02:55:30:874 3 -12333.0038653016 : (336.741653008028, 488.780511483809, 377.06347606029, 507.729624728892, -277.348832668566, 510.865561206594, 408.706243020475, 447.207003169517, 464.537195350822, -257.436525391653, 252.454578616792, 270.780260241795, 278.695303907814, -483.555555555556, -413.254382165418, 380.129759740669, 508.265248090275, -277.681581104304, 304.65138671139, -490.866769771719)
-12365.1392488229 -12054.9792654609 2994.1893 02:55:32:180 5 -12365.1392488229 : (339.889299889063, 489.295147866479, 377.779114136837, 509.379899772958, -280.161586347932, 512, 408.706243020475, 447.207003169517, 464.537195350822, -257.436525391653, 252.454578616792, 270.780260241795, 278.695303907814, -483.555555555556, -413.254382165418, 380.129759740669, 508.265248090275, -277.681581104304, 304.65138671139, -490.866769771719)
-12443.963161094 -12373.0224323777 3995.2468 02:55:33:181 8 -12443.963161094 : (339.895396506337, 489.295147866479, 377.779114136837, 509.379899772958, -280.161586347932, 512, 408.706243020475, 447.207003169517, 464.537195350822, -257.436525391653, 252.454578616792, 270.780260241795, 278.695303907814, -483.555555555556, -413.254382165418, 374.522113259194, 508.265248090275, -277.681581104304, 304.65138671139, -490.866769771719)
-12443.963161094 -12443.963161094 5097.312 02:55:34:283 19 -12443.963161094 : (339.895396506337, 489.295147866479, 377.779114136837, 509.379899772958, -280.161586347932, 512, 408.706243020475, 447.207003169517, 464.537195350822, -257.436525391653, 252.454578616792, 270.780260241795, 278.695303907814, -483.555555555556, -413.254382165418, 374.522113259194, 508.265248090275, -277.681581104304, 304.65138671139, -490.866769771719)
-12443.963161094 -12443.963161094 6111.3757 02:55:35:298 28 -12443.963161094 : (339.895396506337, 489.295147866479, 377.779114136837, 509.379899772958, -280.161586347932, 512, 408.706243020475, 447.207003169517, 464.537195350822, -257.436525391653, 252.454578616792, 270.780260241795, 278.695303907814, -483.555555555556, -413.254382165418, 374.522113259194, 508.265248090275, -277.681581104304, 304.65138671139, -490.866769771719)
-12474.5529518379 -12474.5529518379 7154.4288 02:55:36:341 38 -12474.5529518379 : (339.895396506337, 489.295147866479, 377.779114136837, 509.379899772958, -280.161586347932, 512, 408.706243020475, 447.207003169517, 464.537195350822, -257.436525391653, 252.454578616792, -492.812204828864, 278.695303907814, -483.555555555555, -413.254382165418, 374.522113259194, 508.265248090275, -277.681581104304, 304.65138671139, -490.866769771719)
-12515.6920781366 -12515.6920781366 8254.4922 02:55:37:441 49 -12515.6920781366 : (339.895396506337, 489.295147866479, 377.779114136837, 509.379899772958, -280.161586347932, 512, 408.706243020475, 435.738249743235, 464.537195350822, -257.436525391653, 252.454578616792, -492.812204828864, 278.695303907814, -483.555555555555, -413.254382165418, 374.522113259194, 508.265248090275, -277.681581104304, 304.65138671139, -490.866769771719)
-12515.6920781366 -12515.6920781366 9342.5544 02:55:38:529 59 -12515.6920781366 : (339.895396506337, 489.295147866479, 377.779114136837, 509.379899772958, -280.161586347932, 512, 408.706243020475, 435.738249743235, 464.537195350822, -257.436525391653, 252.454578616792, -492.812204828864, 278.695303907814, -483.555555555555, -413.254382165418, 374.522113259194, 508.265248090275, -277.681581104304, 304.65138671139, -490.866769771719)
-12515.6920781366 -12515.6920781366 10347.6134 02:55:39:534 69 -12515.6920781366 : (339.895396506337, 489.295147866479, 377.779114136837, 509.379899772958, -280.161586347932, 512, 408.706243020475, 435.738249743235, 464.537195350822, -257.436525391653, 252.454578616792, -492.812204828864, 278.695303907814, -483.555555555555, -413.254382165418, 374.522113259194, 508.265248090275, -277.681581104304, 304.65138671139, -490.866769771719)
-12648.9630205244 -12648.9630205244 11378.6572 02:55:40:565 79 -12648.9630205244 : (339.895396506337, 489.295147866479, 377.779114136837, 509.379899772958, -280.161586347932, 512, 408.706243020475, 435.738249743235, 464.537195350822, -257.436525391653, 252.454578616792, -492.812204828864, 278.695303907814, -483.555555555555, -413.254382165418, 374.522113259193, 508.265248090275, -277.681581104304, 275.153400310852, -490.866769771719)
-12868.4666417961 -12792.5714227476 12457.7421 02:55:41:644 90 -12868.4666417961 : (339.895396506337, 489.295147866479, 377.779114136837, 509.379899772958, -280.161586347932, 512, 408.706243020475, 435.738249743235, 464.537195350822, -257.436525391653, 300.153498074111, -503.610326286224, 278.695303907814, -483.555555555555, -413.254382165418, 374.522113259194, 508.265248090275, -277.681581104304, 275.153400310852, -490.866769771719)
-12868.4666417961 -12843.1682354466 48241.7812 02:56:17:428 91 -12868.4666417961 : (339.895396506337, 489.295147866479, 377.779114136837, 509.379899772958, -280.161586347932, 512, 408.706243020475, 435.738249743235, 464.537195350822, -257.436525391653, 300.153498074111, -503.610326286224, 278.695303907814, -483.555555555555, -413.254382165418, 374.522113259194, 508.265248090275, -277.681581104304, 275.153400310852, -490.866769771719)
