1.44592536906999 97.6988853037912 0.9994 03:12:03:765 1 1.44592536906999 : (1.94211640951322, 0.707269315937193)
0.00454300349747501 0.00454300349747502 1001.0584 03:12:04:765 5740 0.00454300349747501 : (1.00190480752006, 0.939163309959305)
0.00175574561866604 0.00175574561866604 2001.1166 03:12:05:765 11528 0.00175574561866604 : (1.00190480752006, 0.963149802276469)
0.000561727306352139 0.000561727306352139 3001.1752 03:12:06:766 17347 0.000561727306352139 : (1.00190480752006, 0.984715284306891)
0.000561727306352094 0.000561727306352094 4001.2338 03:12:07:766 23135 0.000561727306352094 : (1.00190480752006, 0.984715284306892)
0.000327795438807619 0.000327795438807619 5001.2924 03:12:08:766 28869 0.000327795438807619 : (1.00190480752006, 0.998616968746584)
0.000327795438807608 0.000327795438807608 6001.3505 03:12:09:766 34621 0.000327795438807608 : (1.00190480752006, 0.998616968746589)
0.000327795438807606 0.000327795438807606 7001.4087 03:12:10:766 40328 0.000327795438807606 : (1.00190480752006, 0.998616968746589)
0.000327795438807604 0.000327795438807604 8001.4681 03:12:11:766 46156 0.000327795438807604 : (1.00190480752006, 0.99861696874659)
1.97615297729739E-06 1.97615297729739E-06 9001.5263 03:12:12:766 52005 1.97615297729739E-06 : (0.999973468016822, 0.998616968746591)
3.65617261684993E-07 3.65617261684993E-07 10001.5853 03:12:13:766 57837 3.65617261684993E-07 : (0.999973468016827, 1.0005498914982)
3.65617261661636E-07 3.65617261661636E-07 11001.643 03:12:14:766 63482 3.65617261661636E-07 : (0.999973468016832, 1.0005498914982)
3.65617261658947E-07 3.65617261658947E-07 12001.7012 03:12:15:766 69332 3.65617261658947E-07 : (0.999973468016832, 1.0005498914982)
3.65617261656247E-07 3.65617261656247E-07 13001.7606 03:12:16:766 75133 3.65617261656247E-07 : (0.999973468016833, 1.0005498914982)
3.65617261647269E-07 3.65617261647269E-07 14001.8188 03:12:17:766 81007 3.65617261647269E-07 : (0.999973468016835, 1.0005498914982)
3.65617261632895E-07 3.65617261632895E-07 15001.8774 03:12:18:766 86876 3.65617261632895E-07 : (0.999973468016838, 1.0005498914982)
3.65617261629301E-07 3.656172616293E-07 16001.9351 03:12:19:766 92758 3.65617261629301E-07 : (0.999973468016839, 1.0005498914982)
3.65617261629301E-07 3.656172616293E-07 17001.9962 03:12:20:766 98529 3.65617261629301E-07 : (0.999973468016839, 1.0005498914982)
3.656172616266E-07 3.656172616266E-07 18002.0523 03:12:21:766 104293 3.656172616266E-07 : (0.999973468016839, 1.0005498914982)
3.65617261610433E-07 3.65617261610433E-07 19002.1109 03:12:22:766 110082 3.65617261610433E-07 : (0.999973468016843, 1.0005498914982)
3.65617261604143E-07 3.65617261604143E-07 20002.1699 03:12:23:767 115949 3.65617261604143E-07 : (0.999973468016844, 1.0005498914982)
3.65617261601443E-07 3.65617261601442E-07 21002.228 03:12:24:767 121793 3.65617261601443E-07 : (0.999973468016845, 1.0005498914982)
3.65617261554728E-07 3.65617261554728E-07 22002.287 03:12:25:767 127586 3.65617261554728E-07 : (0.999973468016854, 1.0005498914982)
3.6561726155204E-07 3.6561726155204E-07 23002.3448 03:12:26:767 133406 3.6561726155204E-07 : (0.999973468016855, 1.0005498914982)
3.65617261550239E-07 3.65617261550239E-07 24002.4038 03:12:27:767 139269 3.65617261550239E-07 : (0.999973468016855, 1.0005498914982)
3.6561726154485E-07 3.6561726154485E-07 25002.4619 03:12:28:767 145122 3.6561726154485E-07 : (0.999973468016856, 1.0005498914982)
2.6832844819442E-07 2.6832844819442E-07 27969.6361 03:12:31:734 149867 2.6832844819442E-07 : (0.999973468016857, 0.999547127168414)
2.68328448193415E-07 2.68328448193415E-07 28969.6947 03:12:32:734 155691 2.68328448193415E-07 : (0.999973468016857, 0.999547127168416)
2.68328448185723E-07 2.68328448185724E-07 29969.7529 03:12:33:734 161345 2.68328448185723E-07 : (0.999973468016858, 0.999547127168417)
2.68328448181219E-07 2.68328448181218E-07 30969.811 03:12:34:734 166900 2.68328448181219E-07 : (0.999973468016859, 0.999547127168419)
2.68328448177915E-07 2.68328448177915E-07 31969.8701 03:12:35:734 172361 2.68328448177915E-07 : (0.999973468016859, 0.99954712716842)
2.68328448177312E-07 2.68328448177311E-07 32969.9282 03:12:36:734 178181 2.68328448177312E-07 : (0.999973468016859, 0.99954712716842)
2.6832844817711E-07 2.6832844817711E-07 33969.9872 03:12:37:734 183981 2.6832844817711E-07 : (0.999973468016859, 0.999547127168421)
2.41058503519571E-07 2.41058503519571E-07 34970.045 03:12:38:734 189807 2.41058503519571E-07 : (0.99997346801686, 0.999578307848229)
2.41058503508231E-07 2.41058503508231E-07 35970.1036 03:12:39:734 195542 2.41058503508231E-07 : (0.999973468016862, 0.99957830784823)
2.41058503494716E-07 2.41058503494716E-07 36970.1621 03:12:40:735 201380 2.41058503494716E-07 : (0.999973468016865, 0.999578307848231)
2.41058503493254E-07 2.41058503493254E-07 37970.2212 03:12:41:735 207181 2.41058503493254E-07 : (0.999973468016865, 0.999578307848232)
2.41058503492692E-07 2.41058503492692E-07 38970.2797 03:12:42:735 213043 2.41058503492692E-07 : (0.999973468016865, 0.999578307848233)
2.41058503489243E-07 2.41058503489242E-07 39970.3379 03:12:43:735 218832 2.41058503489243E-07 : (0.999973468016866, 0.999578307848233)
2.41058503488868E-07 2.41058503488868E-07 40970.3965 03:12:44:735 224670 2.41058503488868E-07 : (0.999973468016866, 0.999578307848234)
2.41058503480135E-07 2.41058503480135E-07 41970.4555 03:12:45:735 230480 2.41058503480135E-07 : (0.999973468016867, 0.999578307848235)
2.41058503477679E-07 2.41058503477679E-07 42970.5137 03:12:46:735 236268 2.41058503477679E-07 : (0.999973468016868, 0.999578307848235)
2.41058503472253E-07 2.41058503472254E-07 43970.5718 03:12:47:735 242101 2.41058503472253E-07 : (0.999973468016869, 0.999578307848237)
2.41058503469366E-07 2.41058503469366E-07 44970.6304 03:12:48:735 247964 2.41058503469366E-07 : (0.999973468016869, 0.999578307848237)
2.41058503465928E-07 2.41058503465928E-07 45970.6886 03:12:49:735 253813 2.41058503465928E-07 : (0.99997346801687, 0.999578307848238)
2.41058503419072E-07 2.41058503419072E-07 46970.7476 03:12:50:735 259615 2.41058503419072E-07 : (0.999973468016879, 0.999578307848239)
2.41058503418978E-07 2.41058503418978E-07 47970.8057 03:12:51:735 265448 2.41058503418978E-07 : (0.999973468016879, 0.999578307848239)
2.41058503408518E-07 2.41058503408518E-07 48970.8643 03:12:52:735 271314 2.41058503408518E-07 : (0.99997346801688, 0.999578307848248)
2.41058503402654E-07 2.41058503402655E-07 49970.9233 03:12:53:735 277147 2.41058503402654E-07 : (0.999973468016881, 0.999578307848249)
2.4105850338787E-07 2.41058503387871E-07 50970.9819 03:12:54:735 282944 2.4105850338787E-07 : (0.999973468016884, 0.99957830784825)
2.41058503381919E-07 2.4105850338192E-07 51971.0401 03:12:55:735 288738 2.41058503381919E-07 : (0.999973468016885, 0.999578307848251)
2.41058503381919E-07 2.4105850338192E-07 52971.0982 03:12:56:735 294515 2.41058503381919E-07 : (0.999973468016885, 0.999578307848251)
2.4105850336519E-07 2.4105850336519E-07 53971.1572 03:12:57:736 300336 2.4105850336519E-07 : (0.999973468016888, 0.999578307848252)
2.41058503359155E-07 2.41058503359155E-07 54971.2154 03:12:58:736 306149 2.41058503359155E-07 : (0.999973468016889, 0.999578307848255)
2.41058503352304E-07 2.41058503352304E-07 55971.274 03:12:59:736 311981 2.41058503352304E-07 : (0.999973468016891, 0.999578307848255)
2.41058503339538E-07 2.41058503339539E-07 56971.3326 03:13:00:736 317824 2.41058503339538E-07 : (0.999973468016891, 0.999578307848266)
2.41058503339351E-07 2.41058503339351E-07 57971.3912 03:13:01:736 323567 2.41058503339351E-07 : (0.999973468016891, 0.999578307848266)
2.41058503338227E-07 2.41058503338227E-07 58971.4493 03:13:02:736 329407 2.41058503338227E-07 : (0.999973468016891, 0.999578307848268)
2.41058503335865E-07 2.41058503335865E-07 59971.5083 03:13:03:736 335264 2.41058503335865E-07 : (0.999973468016892, 0.999578307848268)
2.4105850333134E-07 2.4105850333134E-07 60971.5665 03:13:04:736 341124 2.4105850333134E-07 : (0.999973468016892, 0.999578307848269)
2.41058503327178E-07 2.41058503327178E-07 61971.6251 03:13:05:736 346923 2.41058503327178E-07 : (0.999973468016893, 0.99957830784827)
2.41058503322465E-07 2.41058503322465E-07 62971.6837 03:13:06:736 352646 2.41058503322465E-07 : (0.999973468016894, 0.999578307848271)
2.4105850332029E-07 2.4105850332029E-07 63971.7423 03:13:07:736 358478 2.4105850332029E-07 : (0.999973468016894, 0.999578307848272)
2.41058503311156E-07 2.41058503311155E-07 64971.8008 03:13:08:736 364349 2.41058503311156E-07 : (0.999973468016895, 0.999578307848276)
2.4105850330096E-07 2.4105850330096E-07 65971.859 03:13:09:736 370203 2.4105850330096E-07 : (0.999973468016897, 0.999578307848278)
2.41058503237599E-07 2.41058503237599E-07 66971.918 03:13:10:736 376036 2.41058503237599E-07 : (0.999973468016909, 0.999578307848289)
2.41058503233062E-07 2.41058503233062E-07 67971.9766 03:13:11:736 381711 2.41058503233062E-07 : (0.999973468016909, 0.99957830784829)
2.41058503230373E-07 2.41058503230373E-07 68972.0343 03:13:12:736 387537 2.41058503230373E-07 : (0.99997346801691, 0.99957830784829)
1.84110475596585E-07 1.84110475596585E-07 69972.0933 03:13:13:736 393149 1.84110475596585E-07 : (1.00000836467371, 0.99957830784829)
1.84110475588719E-07 1.8411047558872E-07 70972.1515 03:13:14:737 398943 1.84110475588719E-07 : (1.00000836467371, 0.9995783078483)
1.84110475588719E-07 1.8411047558872E-07 71972.2105 03:13:15:737 404704 1.84110475588719E-07 : (1.00000836467371, 0.9995783078483)
1.84110475578232E-07 1.84110475578232E-07 72972.2691 03:13:16:737 410541 1.84110475578232E-07 : (1.00000836467371, 0.999578307848312)
1.84110475578232E-07 1.84110475578232E-07 73972.3277 03:13:17:737 416377 1.84110475578232E-07 : (1.00000836467371, 0.999578307848312)
1.84110475578232E-07 1.84110475578232E-07 74972.3854 03:13:18:737 422237 1.84110475578232E-07 : (1.00000836467371, 0.999578307848312)
1.8411047557767E-07 1.8411047557767E-07 75972.444 03:13:19:737 428101 1.8411047557767E-07 : (1.00000836467371, 0.999578307848313)
1.84110475577015E-07 1.84110475577015E-07 76972.5026 03:13:20:737 433950 1.84110475577015E-07 : (1.00000836467371, 0.999578307848314)
1.84110475576734E-07 1.84110475576734E-07 77972.5608 03:13:21:737 439482 1.84110475576734E-07 : (1.00000836467371, 0.999578307848314)
1.84110475576734E-07 1.84110475576734E-07 78972.6198 03:13:22:737 444956 1.84110475576734E-07 : (1.00000836467371, 0.999578307848314)
1.84110475575891E-07 1.84110475575891E-07 79972.6775 03:13:23:737 450771 1.84110475575891E-07 : (1.00000836467371, 0.999578307848315)
1.84110475575423E-07 1.84110475575423E-07 80972.7369 03:13:24:737 456600 1.84110475575423E-07 : (1.00000836467371, 0.999578307848316)
1.84110475575048E-07 1.84110475575049E-07 81972.7964 03:13:25:737 462374 1.84110475575048E-07 : (1.00000836467371, 0.999578307848316)
1.84110475574674E-07 1.84110475574674E-07 82972.8541 03:13:26:737 468182 1.84110475574674E-07 : (1.00000836467371, 0.999578307848316)
1.84110475574487E-07 1.84110475574487E-07 83972.9118 03:13:27:737 473985 1.84110475574487E-07 : (1.00000836467371, 0.999578307848317)
1.84110475574112E-07 1.84110475574112E-07 84972.9704 03:13:28:737 479718 1.84110475574112E-07 : (1.00000836467371, 0.999578307848317)
1.84110475573925E-07 1.84110475573925E-07 85973.029 03:13:29:737 485549 1.84110475573925E-07 : (1.00000836467371, 0.999578307848317)
1.02078684487611E-07 1.02078684487611E-07 86973.088 03:13:30:737 491363 1.02078684487611E-07 : (1.00000836467371, 0.999690494965616)
1.02078684486374E-07 1.02078684486374E-07 87973.1462 03:13:31:738 497189 1.02078684486374E-07 : (1.00000836467371, 0.999690494965618)
1.02078684485343E-07 1.02078684485343E-07 88973.2048 03:13:32:738 503023 1.02078684485343E-07 : (1.00000836467371, 0.99969049496562)
1.020786844839E-07 1.020786844839E-07 89973.2638 03:13:33:738 508888 1.020786844839E-07 : (1.00000836467371, 0.999690494965622)
1.02078684483625E-07 1.02078684483625E-07 90973.3219 03:13:34:738 514756 1.02078684483625E-07 : (1.00000836467371, 0.999690494965623)
1.02078684483488E-07 1.02078684483488E-07 91973.3805 03:13:35:738 520623 1.02078684483488E-07 : (1.00000836467371, 0.999690494965623)
1.02078684482801E-07 1.02078684482801E-07 92973.4391 03:13:36:738 526447 1.02078684482801E-07 : (1.00000836467371, 0.999690494965624)
1.02078684481976E-07 1.02078684481976E-07 93973.4977 03:13:37:738 532216 1.02078684481976E-07 : (1.00000836467371, 0.999690494965625)
1.02078684480601E-07 1.02078684480601E-07 94973.5563 03:13:38:738 538076 1.02078684480601E-07 : (1.00000836467371, 0.999690494965628)
1.02078684480189E-07 1.02078684480189E-07 95973.6144 03:13:39:738 543938 1.02078684480189E-07 : (1.00000836467371, 0.999690494965628)
1.02078684479914E-07 1.02078684479914E-07 96973.6726 03:13:40:738 549775 1.02078684479914E-07 : (1.00000836467371, 0.999690494965629)
1.02078684479777E-07 1.02078684479777E-07 97973.7316 03:13:41:738 555604 1.02078684479777E-07 : (1.00000836467371, 0.999690494965629)
1.02078684478265E-07 1.02078684478265E-07 98973.7898 03:13:42:738 561474 1.02078684478265E-07 : (1.00000836467371, 0.999690494965631)
1.0207868447799E-07 1.0207868447799E-07 99973.8488 03:13:43:738 567305 1.0207868447799E-07 : (1.00000836467371, 0.999690494965632)
1.02078684477577E-07 1.02078684477577E-07 100973.9069 03:13:44:738 573168 1.02078684477577E-07 : (1.00000836467371, 0.999690494965632)
1.02078684477303E-07 1.02078684477303E-07 101973.9651 03:13:45:738 579032 1.02078684477303E-07 : (1.00000836467371, 0.999690494965633)
1.02078684477303E-07 1.02078684477303E-07 102974.0237 03:13:46:738 584859 1.02078684477303E-07 : (1.00000836467371, 0.999690494965633)
1.02078684477096E-07 1.02078684477096E-07 103974.0823 03:13:47:738 590713 1.02078684477096E-07 : (1.00000836467371, 0.999690494965633)
1.02078684476203E-07 1.02078684476203E-07 104974.1413 03:13:48:738 596488 1.02078684476203E-07 : (1.00000836467371, 0.999690494965635)
1.02078684475516E-07 1.02078684475516E-07 105974.1999 03:13:49:739 602331 1.02078684475516E-07 : (1.00000836467371, 0.999690494965636)
1.02078684475516E-07 1.02078684475516E-07 106974.2585 03:13:50:739 608129 1.02078684475516E-07 : (1.00000836467371, 0.999690494965636)
1.02078684474416E-07 1.02078684474416E-07 107974.3175 03:13:51:739 613999 1.02078684474416E-07 : (1.00000836467371, 0.999690494965638)
1.02078684473591E-07 1.02078684473592E-07 108974.3752 03:13:52:739 619801 1.02078684473591E-07 : (1.00000836467371, 0.999690494965639)
1.92141460952791E-08 1.92141460952791E-08 109974.4338 03:13:53:739 625658 1.92141460952791E-08 : (1.00000836467371, 1.00011370657017)
1.92141460952791E-08 1.92141460952791E-08 110974.4928 03:13:54:739 631490 1.92141460952791E-08 : (1.00000836467371, 1.00011370657017)
1.92141460952791E-08 1.92141460952791E-08 111974.5505 03:13:55:739 637362 1.92141460952791E-08 : (1.00000836467371, 1.00011370657017)
