7.10372298007372 90.2334068803351 35.0016 03:11:16:163 1 7.10372298007372 : (2.97378773473845, 0.782069047345813)
0.0280322472939739 0.0280322472939739 1035.0606 03:11:17:162 5547 0.0280322472939739 : (1.01774417376972, 1.00306136114665)
0.0280322472939739 0.0280322472939739 2035.1188 03:11:18:162 11337 0.0280322472939739 : (1.01774417376972, 1.00306136114665)
0.000636519561929405 0.000636519561929405 3035.1774 03:11:19:162 17149 0.000636519561929405 : (1.00264255469788, 1.00306136114665)
0.000636519561929405 0.000636519561929405 4035.2355 03:11:20:162 22902 0.000636519561929405 : (1.00264255469788, 1.00306136114665)
0.000636519561929405 0.000636519561929405 5035.2941 03:11:21:162 28741 0.000636519561929405 : (1.00264255469788, 1.00306136114665)
0.000128748813322831 0.000128748813322831 6035.3523 03:11:22:162 34502 0.000128748813322831 : (1.00115281110683, 1.00306136114665)
2.64978332713551E-05 2.64978332713552E-05 7035.4113 03:11:23:162 40238 2.64978332713551E-05 : (1.00043659610694, 1.00306136114665)
2.25982039400488E-05 2.25982039400488E-05 8035.4699 03:11:24:162 46046 2.25982039400488E-05 : (1.00043659610694, 0.997660202438786)
2.25982039400425E-05 2.25982039400425E-05 9035.528 03:11:25:162 51839 2.25982039400425E-05 : (1.00043659610694, 0.997660202438787)
2.25982039400373E-05 2.25982039400373E-05 10035.5871 03:11:26:162 57609 2.25982039400373E-05 : (1.00043659610694, 0.997660202438788)
2.25982039400363E-05 2.25982039400363E-05 11035.6452 03:11:27:162 63447 2.25982039400363E-05 : (1.00043659610694, 0.997660202438788)
2.25982039400295E-05 2.25982039400295E-05 12035.7068 03:11:28:162 69204 2.25982039400295E-05 : (1.00043659610694, 0.99766020243879)
2.25982039400259E-05 2.25982039400259E-05 13035.762 03:11:29:162 75035 2.25982039400259E-05 : (1.00043659610694, 0.99766020243879)
2.25982039400228E-05 2.25982039400228E-05 14035.821 03:11:30:162 80883 2.25982039400228E-05 : (1.00043659610694, 0.997660202438791)
2.25982039400217E-05 2.25982039400217E-05 15035.8796 03:11:31:162 86668 2.25982039400217E-05 : (1.00043659610694, 0.997660202438791)
2.25982039400217E-05 2.25982039400217E-05 16035.9381 03:11:32:163 92511 2.25982039400217E-05 : (1.00043659610694, 0.997660202438791)
2.25982039400176E-05 2.25982039400176E-05 17035.9963 03:11:33:163 98319 2.25982039400176E-05 : (1.00043659610694, 0.997660202438792)
2.25982039400082E-05 2.25982039400082E-05 18036.0549 03:11:34:163 104156 2.25982039400082E-05 : (1.00043659610694, 0.997660202438794)
2.25982039399937E-05 2.25982039399936E-05 19036.1135 03:11:35:163 110003 2.25982039399937E-05 : (1.00043659610694, 0.997660202438797)
2.25982039399937E-05 2.25982039399936E-05 20036.1716 03:11:36:163 115845 2.25982039399937E-05 : (1.00043659610694, 0.997660202438797)
1.73329224719745E-05 1.73329224719745E-05 21036.2306 03:11:37:163 121694 1.73329224719745E-05 : (1.00043659610694, 1.00045895716197)
1.73329224719745E-05 1.73329224719745E-05 22036.2888 03:11:38:163 127542 1.73329224719745E-05 : (1.00043659610694, 1.00045895716197)
1.72647996818265E-05 1.72647996818264E-05 23036.3474 03:11:39:163 133398 1.72647996818265E-05 : (1.00043659610694, 0.999622480477962)
1.72647996818259E-05 1.7264799681826E-05 24036.4064 03:11:40:163 139235 1.72647996818259E-05 : (1.00043659610694, 0.999622480477963)
1.72647996818258E-05 1.72647996818258E-05 25036.4641 03:11:41:163 145092 1.72647996818258E-05 : (1.00043659610694, 0.999622480477963)
1.72647996818239E-05 1.72647996818239E-05 26036.5227 03:11:42:163 150921 1.72647996818239E-05 : (1.00043659610694, 0.999622480477965)
1.72647996818234E-05 1.72647996818234E-05 27036.5813 03:11:43:163 156773 1.72647996818234E-05 : (1.00043659610694, 0.999622480477966)
1.72647996818234E-05 1.72647996818234E-05 28036.6399 03:11:44:163 162589 1.72647996818234E-05 : (1.00043659610694, 0.999622480477966)
1.72647996818213E-05 1.72647996818212E-05 29036.6985 03:11:45:163 168387 1.72647996818213E-05 : (1.00043659610694, 0.999622480477969)
1.72647996818208E-05 1.72647996818208E-05 30036.7571 03:11:46:163 174155 1.72647996818208E-05 : (1.00043659610694, 0.999622480477969)
1.72647996818201E-05 1.72647996818201E-05 31036.8152 03:11:47:163 179823 1.72647996818201E-05 : (1.00043659610694, 0.99962248047797)
1.72647996818179E-05 1.72647996818179E-05 32036.8738 03:11:48:163 185642 1.72647996818179E-05 : (1.00043659610694, 0.999622480477973)
1.72647996818173E-05 1.72647996818173E-05 33036.9345 03:11:49:164 191385 1.72647996818173E-05 : (1.00043659610694, 0.999622480477974)
1.72647996818161E-05 1.7264799681816E-05 34036.991 03:11:50:164 197175 1.72647996818161E-05 : (1.00043659610694, 0.999622480477976)
1.72647996818149E-05 1.72647996818149E-05 35037.0491 03:11:51:164 203011 1.72647996818149E-05 : (1.00043659610694, 0.999622480477977)
1.72647996818147E-05 1.72647996818147E-05 36037.1082 03:11:52:164 208852 1.72647996818147E-05 : (1.00043659610694, 0.999622480477977)
1.72647996818144E-05 1.72647996818144E-05 37037.1667 03:11:53:164 214671 1.72647996818144E-05 : (1.00043659610694, 0.999622480477978)
1.72647996818144E-05 1.72647996818144E-05 38037.2245 03:11:54:164 220497 1.72647996818144E-05 : (1.00043659610694, 0.999622480477978)
1.72647996818141E-05 1.72647996818141E-05 39037.2831 03:11:55:164 226331 1.72647996818141E-05 : (1.00043659610694, 0.999622480477978)
1.7264799681814E-05 1.72647996818141E-05 40037.3421 03:11:56:164 232196 1.7264799681814E-05 : (1.00043659610694, 0.999622480477978)
1.45009550688024E-05 1.45009550688023E-05 41037.4007 03:11:57:164 238020 1.45009550688024E-05 : (1.00039980886523, 0.999622480477978)
1.45009550688022E-05 1.45009550688022E-05 42037.4588 03:11:58:164 243792 1.45009550688022E-05 : (1.00039980886523, 0.999622480477979)
1.45009550688007E-05 1.45009550688007E-05 43037.5191 03:11:59:164 249502 1.45009550688007E-05 : (1.00039980886523, 0.999622480477981)
1.45009550688003E-05 1.45009550688003E-05 44037.5764 03:12:00:164 255318 1.45009550688003E-05 : (1.00039980886523, 0.999622480477981)
1.45009550688002E-05 1.45009550688002E-05 45037.6346 03:12:01:164 261105 1.45009550688002E-05 : (1.00039980886523, 0.999622480477981)
1.45009550688002E-05 1.45009550688002E-05 46037.6932 03:12:02:164 266932 1.45009550688002E-05 : (1.00039980886523, 0.999622480477981)
1.45009550688002E-05 1.45009550688002E-05 47037.7517 03:12:03:164 272769 1.45009550688002E-05 : (1.00039980886523, 0.999622480477981)
