2.7250436455805 89.4370670499769 1.0002 01:17:03:632 1 2.7250436455805 : (0.903217518191418, 2.140882523796)
0.0264260065528518 0.0264260065528518 1002.0621 01:17:04:633 234 0.0264260065528518 : (1.01721235132646, 0.99348652688483)
0.0263824642626942 0.0263824642626942 2003.1401 01:17:05:634 422 0.0263824642626942 : (1.01721235132646, 1.00025953305897)
0.0225308422919211 0.0225308422919211 3006.1742 01:17:06:637 640 0.0225308422919211 : (0.98410378721734, 1.00025953305897)
0.0036088456897887 0.0036088456897887 4022.2349 01:17:07:653 855 0.0036088456897887 : (0.993657890238639, 1.00025953305897)
0.00360884568978785 0.00360884568978785 5025.2904 01:17:08:656 1083 0.00360884568978785 : (0.99365789023864, 1.00025953305897)
0.0036088456897872 0.0036088456897872 6028.3488 01:17:09:659 1278 0.0036088456897872 : (0.99365789023864, 1.00025953305897)
0.00360884568978699 0.00360884568978699 7180.4175 01:17:10:811 1431 0.00360884568978699 : (0.993657890238641, 1.00025953305897)
0.00360884568978635 0.00360884568978635 8343.4828 01:17:11:974 1628 0.00360884568978635 : (0.993657890238641, 1.00025953305897)
0.00131088144055292 0.00131088144055292 9344.5391 01:17:12:975 1740 0.00131088144055292 : (0.996179138774135, 1.00025953305897)
0.00131088144055292 0.00131088144055292 10350.78 01:17:13:982 1838 0.00131088144055292 : (0.996179138774135, 1.00025953305897)
0.00131088144055279 0.00131088144055279 11553.9384 01:17:15:185 1936 0.00131088144055279 : (0.996179138774135, 1.00025953305897)
0.0013108814405524 0.0013108814405524 12569.5351 01:17:16:200 2112 0.0013108814405524 : (0.996179138774136, 1.00025953305897)
0.00131088144055189 0.00131088144055189 13600.7872 01:17:17:232 2334 0.00131088144055189 : (0.996179138774137, 1.00025953305897)
0.00131088144055098 0.00131088144055098 14600.7889 01:17:18:232 2576 0.00131088144055098 : (0.996179138774138, 1.00025953305897)
0.000112453257029199 0.000112453257029199 15600.7915 01:17:19:232 2798 0.000112453257029199 : (1.00111856637575, 1.00025953305897)
0.000112453257029199 0.000112453257029199 16600.7923 01:17:20:232 2989 0.000112453257029199 : (1.00111856637575, 1.00025953305897)
0.000112453257029199 0.000112453257029199 17803.925 01:17:21:435 3220 0.000112453257029199 : (1.00111856637575, 1.00025953305897)
0.000112453257029199 0.000112453257029199 18803.9263 01:17:22:435 3376 0.000112453257029199 : (1.00111856637575, 1.00025953305897)
0.000112453257029199 0.000112453257029199 19819.55 01:17:23:450 3465 0.000112453257029199 : (1.00111856637575, 1.00025953305897)
0.000112453257029199 0.000112453257029199 20819.5538 01:17:24:450 3637 0.000112453257029199 : (1.00111856637575, 1.00025953305897)
0.000112453257029199 0.000112453257029199 21820.1324 01:17:25:451 3856 0.000112453257029199 : (1.00111856637575, 1.00025953305897)
0.000112453257029199 0.000112453257029199 22823.7438 01:17:26:455 4104 0.000112453257029199 : (1.00111856637575, 1.00025953305897)
0.000112453257029199 0.000112453257029199 23839.3559 01:17:27:470 4282 0.000112453257029199 : (1.00111856637575, 1.00025953305897)
0.000112453257029199 0.000112453257029199 24901.9281 01:17:28:533 4415 0.000112453257029199 : (1.00111856637575, 1.00025953305897)
0.000112453257029199 0.000112453257029199 25964.4305 01:17:29:595 4621 0.000112453257029199 : (1.00111856637575, 1.00025953305897)
0.000112453257029199 0.000112453257029199 26980.002 01:17:30:611 4815 0.000112453257029199 : (1.00111856637575, 1.00025953305897)
0.000112453257029199 0.000112453257029199 27995.6137 01:17:31:626 5044 0.000112453257029199 : (1.00111856637575, 1.00025953305897)
0.000112453257029199 0.000112453257029199 28995.6146 01:17:32:626 5228 0.000112453257029199 : (1.00111856637575, 1.00025953305897)
0.000112453257029199 0.000112453257029199 30089.3708 01:17:33:720 5454 0.000112453257029199 : (1.00111856637575, 1.00025953305897)
0.000112453257029199 0.000112453257029199 31089.3712 01:17:34:720 5598 0.000112453257029199 : (1.00111856637575, 1.00025953305897)
0.000112453257029199 0.000112453257029199 32089.3905 01:17:35:720 5782 0.000112453257029199 : (1.00111856637575, 1.00025953305897)
0.000112453257029199 0.000112453257029199 33105.0005 01:17:36:736 5994 0.000112453257029199 : (1.00111856637575, 1.00025953305897)
0.000112453257029199 0.000112453257029199 34151.8801 01:17:37:783 6219 0.000112453257029199 : (1.00111856637575, 1.00025953305897)
0.000112453257029199 0.000112453257029199 35151.8826 01:17:38:783 6430 0.000112453257029199 : (1.00111856637575, 1.00025953305897)
0.000112453257029199 0.000112453257029199 36151.8826 01:17:39:783 6547 0.000112453257029199 : (1.00111856637575, 1.00025953305897)
0.000112453257029199 0.000112453257029199 37209.2898 01:17:40:840 6687 0.000112453257029199 : (1.00111856637575, 1.00025953305897)
0.000112453257029199 0.000112453257029199 38219.5347 01:17:41:850 6891 0.000112453257029199 : (1.00111856637575, 1.00025953305897)
0.000112453257029199 0.000112453257029199 39235.1182 01:17:42:866 7077 0.000112453257029199 : (1.00111856637575, 1.00025953305897)
0.000112453257029199 0.000112453257029199 40235.1254 01:17:43:866 7193 0.000112453257029199 : (1.00111856637575, 1.00025953305897)
0.000112453257029199 0.000112453257029199 41297.6236 01:17:44:928 7310 0.000112453257029199 : (1.00111856637575, 1.00025953305897)
0.000112453257029199 0.000112453257029199 42297.6492 01:17:45:928 7512 0.000112453257029199 : (1.00111856637575, 1.00025953305897)
0.000112453257029199 0.000112453257029199 43313.2528 01:17:46:944 7753 0.000112453257029199 : (1.00111856637575, 1.00025953305897)
0.000112453257029199 0.000112453257029199 44313.2738 01:17:47:944 7958 0.000112453257029199 : (1.00111856637575, 1.00025953305897)
0.000112453257029199 0.000112453257029199 45328.8829 01:17:48:960 8173 0.000112453257029199 : (1.00111856637575, 1.00025953305897)
0.000112453257029199 0.000112453257029199 46438.2628 01:17:50:069 8378 0.000112453257029199 : (1.00111856637575, 1.00025953305897)
0.000112453257029199 0.000112453257029199 47438.2791 01:17:51:069 8572 0.000112453257029199 : (1.00111856637575, 1.00025953305897)
0.000112453257029199 0.000112453257029199 48547.6555 01:17:52:178 8627 0.000112453257029199 : (1.00111856637575, 1.00025953305897)
0.000112453257029199 0.000112453257029199 49563.269 01:17:53:194 8784 0.000112453257029199 : (1.00111856637575, 1.00025953305897)
0.000112453257029199 0.000112453257029199 50563.2732 01:17:54:194 9000 0.000112453257029199 : (1.00111856637575, 1.00025953305897)
0.000112453257029199 0.000112453257029199 51573.5673 01:17:55:204 9244 0.000112453257029199 : (1.00111856637575, 1.00025953305897)
0.000112453257029199 0.000112453257029199 52589.1799 01:17:56:220 9388 0.000112453257029199 : (1.00111856637575, 1.00025953305897)
0.000112453257029199 0.000112453257029199 53596.4967 01:17:57:227 9515 0.000112453257029199 : (1.00111856637575, 1.00025953305897)
0.000112453257029199 0.000112453257029199 54596.4976 01:17:58:227 9712 0.000112453257029199 : (1.00111856637575, 1.00025953305897)
0.000112453257029199 0.000112453257029199 55596.5014 01:17:59:227 9950 0.000112453257029199 : (1.00111856637575, 1.00025953305897)
0.000112453257029199 0.000112453257029199 56596.5211 01:18:00:227 10158 0.000112453257029199 : (1.00111856637575, 1.00025953305897)
0.000112453257029199 0.000112453257029199 57612.1311 01:18:01:243 10301 0.000112453257029199 : (1.00111856637575, 1.00025953305897)
0.000112453257029199 0.000112453257029199 58721.511 01:18:02:352 10502 0.000112453257029199 : (1.00111856637575, 1.00025953305897)
0.000112453257029199 0.000112453257029199 59737.2069 01:18:03:368 10647 0.000112453257029199 : (1.00111856637575, 1.00025953305897)
0.000112453257029199 0.000112453257029199 60752.7806 01:18:04:384 10824 0.000112453257029199 : (1.00111856637575, 1.00025953305897)
0.000112453257029199 0.000112453257029199 61768.4073 01:18:05:399 11046 0.000112453257029199 : (1.00111856637575, 1.00025953305897)
0.000112453257029199 0.000112453257029199 62893.4536 01:18:06:524 11243 0.000112453257029199 : (1.00111856637575, 1.00025953305897)
0.000112453257029199 0.000112453257029199 64065.2885 01:18:07:696 11492 0.000112453257029199 : (1.00111856637575, 1.00025953305897)
0.000112453257029199 0.000112453257029199 65080.9032 01:18:08:712 11633 0.000112453257029199 : (1.00111856637575, 1.00025953305897)
0.000112453257029199 0.000112453257029199 66096.526 01:18:09:727 11832 0.000112453257029199 : (1.00111856637575, 1.00025953305897)
0.000112453257029199 0.000112453257029199 67096.5423 01:18:10:727 12060 0.000112453257029199 : (1.00111856637575, 1.00025953305897)
0.000112453257029199 0.000112453257029199 68137.3854 01:18:11:768 12283 0.000112453257029199 : (1.00111856637575, 1.00025953305897)
0.000112453257029199 0.000112453257029199 69147.2689 01:18:12:778 12479 0.000112453257029199 : (1.00111856637575, 1.00025953305897)
0.000112453257029199 0.000112453257029199 70147.271 01:18:13:778 12598 0.000112453257029199 : (1.00111856637575, 1.00025953305897)
0.000112453257029199 0.000112453257029199 71178.5257 01:18:14:809 12756 0.000112453257029199 : (1.00111856637575, 1.00025953305897)
0.000112453257029199 0.000112453257029199 72194.2225 01:18:15:825 12930 0.000112453257029199 : (1.00111856637575, 1.00025953305897)
0.000112453257029199 0.000112453257029199 73209.779 01:18:16:841 13169 0.000112453257029199 : (1.00111856637575, 1.00025953305897)
0.000112453257029199 0.000112453257029199 74209.7978 01:18:17:841 13350 0.000112453257029199 : (1.00111856637575, 1.00025953305897)
0.000112453257029199 0.000112453257029199 75459.8554 01:18:19:091 13503 0.000112453257029199 : (1.00111856637575, 1.00025953305897)
0.000112453257029199 0.000112453257029199 76506.7008 01:18:20:137 13693 0.000112453257029199 : (1.00111856637575, 1.00025953305897)
0.000112453257029199 0.000112453257029199 77522.307 01:18:21:153 13928 0.000112453257029199 : (1.00111856637575, 1.00025953305897)
0.000112453257029199 0.000112453257029199 78537.9379 01:18:22:169 14137 0.000112453257029199 : (1.00111856637575, 1.00025953305897)
0.000112453257029199 0.000112453257029199 79553.542 01:18:23:184 14258 0.000112453257029199 : (1.00111856637575, 1.00025953305897)
0.000112453257029199 0.000112453257029199 80819.2173 01:18:24:450 14438 0.000112453257029199 : (1.00111856637575, 1.00025953305897)
1.33024019515104E-07 1.33024019515104E-07 82013.2892 01:18:25:644 14647 1.33024019515104E-07 : (1.00002703769134, 1.00025953305897)
9.51432053230973E-08 9.51432053230974E-08 83060.1949 01:18:26:691 14814 9.51432053230973E-08 : (1.00002703769134, 0.999828312080274)
9.51432053229448E-08 9.51432053229449E-08 84075.7497 01:18:27:707 15063 9.51432053229448E-08 : (1.00002703769134, 0.999828312080274)
9.51432053228686E-08 9.51432053228687E-08 85086.7973 01:18:28:718 15269 9.51432053228686E-08 : (1.00002703769134, 0.999828312080275)
